rtl/rtl.tests/SimResults/BoardTimerModuleTest.vcd
$date
Tuesday, 30 November 2021 8:03:01 PM
$end
$version
Quokka VCD Generator
$end
$timescale
1s
$end
$scope module TOP $end
$scope module Control $end
$var wire 1 TOP_Control_Clock TOP_Control_Clock $end
$upscope
$end
$scope module Inputs $end
$var wire 1 TOP_Inputs_Restart TOP_Inputs_Restart $end
$upscope
$end
$scope module Outputs $end
$var wire 1 TOP_Outputs_OutActive10 TOP_Outputs_OutActive10 $end
$var wire 1 TOP_Outputs_OutActive20 TOP_Outputs_OutActive20 $end
$upscope
$end
$scope module Internals $end
$var wire 1 TOP_Internals_nestedTimerInputs_Restart TOP_Internals_nestedTimerInputs_Restart $end
$upscope
$end
$scope module timerModule10 $end
$scope module Inputs $end
$var wire 1 TOP_timerModule10_Inputs_Restart TOP_timerModule10_Inputs_Restart $end
$upscope
$end
$scope module Outputs $end
$var wire 1 TOP_timerModule10_Outputs_OutActive TOP_timerModule10_Outputs_OutActive $end
$upscope
$end
$scope module Internals $end
$var wire 1 TOP_timerModule10_Internals_active TOP_timerModule10_Internals_active $end
$var wire 4 TOP_timerModule10_Internals_countTo TOP_timerModule10_Internals_countTo[3:0] $end
$var wire 32 TOP_timerModule10_Internals_CapacityBits TOP_timerModule10_Internals_CapacityBits[31:0] $end
$upscope
$end
$scope module State $end
$var wire 4 TOP_timerModule10_State_counter TOP_timerModule10_State_counter[3:0] $end
$upscope
$end
$scope module NextState $end
$var wire 4 TOP_timerModule10_NextState_counter TOP_timerModule10_NextState_counter[3:0] $end
$upscope
$end
$scope module Pipelines $end
$upscope
$end
$upscope
$end
$scope module timerModule20 $end
$scope module Inputs $end
$var wire 1 TOP_timerModule20_Inputs_Restart TOP_timerModule20_Inputs_Restart $end
$upscope
$end
$scope module Outputs $end
$var wire 1 TOP_timerModule20_Outputs_OutActive TOP_timerModule20_Outputs_OutActive $end
$upscope
$end
$scope module Internals $end
$var wire 1 TOP_timerModule20_Internals_active TOP_timerModule20_Internals_active $end
$var wire 5 TOP_timerModule20_Internals_countTo TOP_timerModule20_Internals_countTo[4:0] $end
$var wire 32 TOP_timerModule20_Internals_CapacityBits TOP_timerModule20_Internals_CapacityBits[31:0] $end
$upscope
$end
$scope module State $end
$var wire 5 TOP_timerModule20_State_counter TOP_timerModule20_State_counter[4:0] $end
$upscope
$end
$scope module NextState $end
$var wire 5 TOP_timerModule20_NextState_counter TOP_timerModule20_NextState_counter[4:0] $end
$upscope
$end
$scope module Pipelines $end
$upscope
$end
$upscope
$end
$scope module State $end
$upscope
$end
$scope module NextState $end
$upscope
$end
$scope module Pipelines $end
$upscope
$end
$upscope
$end
$enddefinitions
$end
#0
1TOP_Control_Clock
0TOP_Inputs_Restart
0TOP_Outputs_OutActive10
0TOP_Outputs_OutActive20
0TOP_Internals_nestedTimerInputs_Restart
0TOP_timerModule10_Inputs_Restart
0TOP_timerModule10_Outputs_OutActive
0TOP_timerModule10_Internals_active
b1001 TOP_timerModule10_Internals_countTo
b00000000000000000000000000000100 TOP_timerModule10_Internals_CapacityBits
b0000 TOP_timerModule10_State_counter
b0000 TOP_timerModule10_NextState_counter
0TOP_timerModule20_Inputs_Restart
0TOP_timerModule20_Outputs_OutActive
0TOP_timerModule20_Internals_active
b10011 TOP_timerModule20_Internals_countTo
b00000000000000000000000000000101 TOP_timerModule20_Internals_CapacityBits
b00000 TOP_timerModule20_State_counter
b00000 TOP_timerModule20_NextState_counter
#1
b0001 TOP_timerModule10_NextState_counter
b00001 TOP_timerModule20_NextState_counter
#1000
0TOP_Control_Clock
#2000
1TOP_Control_Clock
b0001 TOP_timerModule10_State_counter
b00001 TOP_timerModule20_State_counter
#2001
b0010 TOP_timerModule10_NextState_counter
b00010 TOP_timerModule20_NextState_counter
#3000
0TOP_Control_Clock
#4000
1TOP_Control_Clock
b0010 TOP_timerModule10_State_counter
b00010 TOP_timerModule20_State_counter
#4001
b0011 TOP_timerModule10_NextState_counter
b00011 TOP_timerModule20_NextState_counter
#5000
0TOP_Control_Clock
#6000
1TOP_Control_Clock
b0011 TOP_timerModule10_State_counter
b00011 TOP_timerModule20_State_counter
#6001
b0100 TOP_timerModule10_NextState_counter
b00100 TOP_timerModule20_NextState_counter
#7000
0TOP_Control_Clock
#8000
1TOP_Control_Clock
b0100 TOP_timerModule10_State_counter
b00100 TOP_timerModule20_State_counter
#8001
b0101 TOP_timerModule10_NextState_counter
b00101 TOP_timerModule20_NextState_counter
#9000
0TOP_Control_Clock
#10000
1TOP_Control_Clock
b0101 TOP_timerModule10_State_counter
b00101 TOP_timerModule20_State_counter
#10001
b0110 TOP_timerModule10_NextState_counter
b00110 TOP_timerModule20_NextState_counter
#11000
0TOP_Control_Clock
#12000
1TOP_Control_Clock
b0110 TOP_timerModule10_State_counter
b00110 TOP_timerModule20_State_counter
#12001
b0111 TOP_timerModule10_NextState_counter
b00111 TOP_timerModule20_NextState_counter
#13000
0TOP_Control_Clock
#14000
1TOP_Control_Clock
b0111 TOP_timerModule10_State_counter
b00111 TOP_timerModule20_State_counter
#14001
b1000 TOP_timerModule10_NextState_counter
b01000 TOP_timerModule20_NextState_counter
#15000
0TOP_Control_Clock
#16000
1TOP_Control_Clock
b1000 TOP_timerModule10_State_counter
b01000 TOP_timerModule20_State_counter
#16001
b1001 TOP_timerModule10_NextState_counter
b01001 TOP_timerModule20_NextState_counter
#17000
0TOP_Control_Clock
#18000
1TOP_Control_Clock
1TOP_Outputs_OutActive10
1TOP_timerModule10_Outputs_OutActive
1TOP_timerModule10_Internals_active
b1001 TOP_timerModule10_State_counter
b01001 TOP_timerModule20_State_counter
#18001
b0000 TOP_timerModule10_NextState_counter
b01010 TOP_timerModule20_NextState_counter
#19000
0TOP_Control_Clock
#20000
1TOP_Control_Clock
0TOP_Outputs_OutActive10
0TOP_timerModule10_Outputs_OutActive
0TOP_timerModule10_Internals_active
b0000 TOP_timerModule10_State_counter
b01010 TOP_timerModule20_State_counter
#20001
b0001 TOP_timerModule10_NextState_counter
b01011 TOP_timerModule20_NextState_counter
#21000
0TOP_Control_Clock
#22000
1TOP_Control_Clock
b0001 TOP_timerModule10_State_counter
b01011 TOP_timerModule20_State_counter
#22001
b0010 TOP_timerModule10_NextState_counter
b01100 TOP_timerModule20_NextState_counter
#23000
0TOP_Control_Clock
#24000
1TOP_Control_Clock
b0010 TOP_timerModule10_State_counter
b01100 TOP_timerModule20_State_counter
#24001
b0011 TOP_timerModule10_NextState_counter
b01101 TOP_timerModule20_NextState_counter
#25000
0TOP_Control_Clock
#26000
1TOP_Control_Clock
b0011 TOP_timerModule10_State_counter
b01101 TOP_timerModule20_State_counter
#26001
b0100 TOP_timerModule10_NextState_counter
b01110 TOP_timerModule20_NextState_counter
#27000
0TOP_Control_Clock
#28000
1TOP_Control_Clock
b0100 TOP_timerModule10_State_counter
b01110 TOP_timerModule20_State_counter
#28001
b0101 TOP_timerModule10_NextState_counter
b01111 TOP_timerModule20_NextState_counter
#29000
0TOP_Control_Clock
#30000
1TOP_Control_Clock
b0101 TOP_timerModule10_State_counter
b01111 TOP_timerModule20_State_counter
#30001
b0110 TOP_timerModule10_NextState_counter
b10000 TOP_timerModule20_NextState_counter
#31000
0TOP_Control_Clock
#32000
1TOP_Control_Clock
b0110 TOP_timerModule10_State_counter
b10000 TOP_timerModule20_State_counter
#32001
b0111 TOP_timerModule10_NextState_counter
b10001 TOP_timerModule20_NextState_counter
#33000
0TOP_Control_Clock
#34000
1TOP_Control_Clock
b0111 TOP_timerModule10_State_counter
b10001 TOP_timerModule20_State_counter
#34001
b1000 TOP_timerModule10_NextState_counter
b10010 TOP_timerModule20_NextState_counter
#35000
0TOP_Control_Clock
#36000
1TOP_Control_Clock
b1000 TOP_timerModule10_State_counter
b10010 TOP_timerModule20_State_counter
#36001
b1001 TOP_timerModule10_NextState_counter
b10011 TOP_timerModule20_NextState_counter
#37000
0TOP_Control_Clock
#38000
1TOP_Control_Clock
1TOP_Outputs_OutActive10
1TOP_Outputs_OutActive20
1TOP_timerModule10_Outputs_OutActive
1TOP_timerModule10_Internals_active
b1001 TOP_timerModule10_State_counter
1TOP_timerModule20_Outputs_OutActive
1TOP_timerModule20_Internals_active
b10011 TOP_timerModule20_State_counter
#38001
b0000 TOP_timerModule10_NextState_counter
b00000 TOP_timerModule20_NextState_counter
#39000
0TOP_Control_Clock
#40000
1TOP_Control_Clock
0TOP_Outputs_OutActive10
0TOP_Outputs_OutActive20
0TOP_timerModule10_Outputs_OutActive
0TOP_timerModule10_Internals_active
b0000 TOP_timerModule10_State_counter
0TOP_timerModule20_Outputs_OutActive
0TOP_timerModule20_Internals_active
b00000 TOP_timerModule20_State_counter
#40001
b0001 TOP_timerModule10_NextState_counter
b00001 TOP_timerModule20_NextState_counter
#41000
0TOP_Control_Clock
#42000
1TOP_Control_Clock
b0001 TOP_timerModule10_State_counter
b00001 TOP_timerModule20_State_counter
#42001
b0010 TOP_timerModule10_NextState_counter
b00010 TOP_timerModule20_NextState_counter
#43000
0TOP_Control_Clock
#44000
1TOP_Control_Clock
b0010 TOP_timerModule10_State_counter
b00010 TOP_timerModule20_State_counter
#44001
b0011 TOP_timerModule10_NextState_counter
b00011 TOP_timerModule20_NextState_counter
#45000
0TOP_Control_Clock
#46000
1TOP_Control_Clock
b0011 TOP_timerModule10_State_counter
b00011 TOP_timerModule20_State_counter
#46001
b0100 TOP_timerModule10_NextState_counter
b00100 TOP_timerModule20_NextState_counter
#47000
0TOP_Control_Clock
#48000
1TOP_Control_Clock
b0100 TOP_timerModule10_State_counter
b00100 TOP_timerModule20_State_counter
#48001
b0101 TOP_timerModule10_NextState_counter
b00101 TOP_timerModule20_NextState_counter
#49000
0TOP_Control_Clock
#50000
1TOP_Control_Clock
b0101 TOP_timerModule10_State_counter
b00101 TOP_timerModule20_State_counter
#50001
b0110 TOP_timerModule10_NextState_counter
b00110 TOP_timerModule20_NextState_counter
#51000
0TOP_Control_Clock
#52000
1TOP_Control_Clock
b0110 TOP_timerModule10_State_counter
b00110 TOP_timerModule20_State_counter
#52001
b0111 TOP_timerModule10_NextState_counter
b00111 TOP_timerModule20_NextState_counter
#53000
0TOP_Control_Clock
#54000
1TOP_Control_Clock
b0111 TOP_timerModule10_State_counter
b00111 TOP_timerModule20_State_counter
#54001
b1000 TOP_timerModule10_NextState_counter
b01000 TOP_timerModule20_NextState_counter
#55000
0TOP_Control_Clock
#56000
1TOP_Control_Clock
b1000 TOP_timerModule10_State_counter
b01000 TOP_timerModule20_State_counter
#56001
b1001 TOP_timerModule10_NextState_counter
b01001 TOP_timerModule20_NextState_counter
#57000
0TOP_Control_Clock
#58000
1TOP_Control_Clock
1TOP_Outputs_OutActive10
1TOP_timerModule10_Outputs_OutActive
1TOP_timerModule10_Internals_active
b1001 TOP_timerModule10_State_counter
b01001 TOP_timerModule20_State_counter
#58001
b0000 TOP_timerModule10_NextState_counter
b01010 TOP_timerModule20_NextState_counter
#59000
0TOP_Control_Clock
#60000
1TOP_Control_Clock
0TOP_Outputs_OutActive10
0TOP_timerModule10_Outputs_OutActive
0TOP_timerModule10_Internals_active
b0000 TOP_timerModule10_State_counter
b01010 TOP_timerModule20_State_counter
#60001
b0001 TOP_timerModule10_NextState_counter
b01011 TOP_timerModule20_NextState_counter
#61000
0TOP_Control_Clock
#62000
1TOP_Control_Clock
b0001 TOP_timerModule10_State_counter
b01011 TOP_timerModule20_State_counter
#62001
b0010 TOP_timerModule10_NextState_counter
b01100 TOP_timerModule20_NextState_counter
#63000
0TOP_Control_Clock
#64000
1TOP_Control_Clock
b0010 TOP_timerModule10_State_counter
b01100 TOP_timerModule20_State_counter
#64001
b0011 TOP_timerModule10_NextState_counter
b01101 TOP_timerModule20_NextState_counter
#65000
0TOP_Control_Clock
#66000
1TOP_Control_Clock
b0011 TOP_timerModule10_State_counter
b01101 TOP_timerModule20_State_counter
#66001
b0100 TOP_timerModule10_NextState_counter
b01110 TOP_timerModule20_NextState_counter
#67000
0TOP_Control_Clock
#68000
1TOP_Control_Clock
b0100 TOP_timerModule10_State_counter
b01110 TOP_timerModule20_State_counter
#68001
b0101 TOP_timerModule10_NextState_counter
b01111 TOP_timerModule20_NextState_counter
#69000
0TOP_Control_Clock
#70000
1TOP_Control_Clock
b0101 TOP_timerModule10_State_counter
b01111 TOP_timerModule20_State_counter
#70001
b0110 TOP_timerModule10_NextState_counter
b10000 TOP_timerModule20_NextState_counter
#71000
0TOP_Control_Clock
#72000
1TOP_Control_Clock
b0110 TOP_timerModule10_State_counter
b10000 TOP_timerModule20_State_counter
#72001
b0111 TOP_timerModule10_NextState_counter
b10001 TOP_timerModule20_NextState_counter
#73000
0TOP_Control_Clock
#74000
1TOP_Control_Clock
b0111 TOP_timerModule10_State_counter
b10001 TOP_timerModule20_State_counter
#74001
b1000 TOP_timerModule10_NextState_counter
b10010 TOP_timerModule20_NextState_counter
#75000
0TOP_Control_Clock
#76000
1TOP_Control_Clock
b1000 TOP_timerModule10_State_counter
b10010 TOP_timerModule20_State_counter
#76001
b1001 TOP_timerModule10_NextState_counter
b10011 TOP_timerModule20_NextState_counter
#77000
0TOP_Control_Clock
#78000
1TOP_Control_Clock
1TOP_Outputs_OutActive10
1TOP_Outputs_OutActive20
1TOP_timerModule10_Outputs_OutActive
1TOP_timerModule10_Internals_active
b1001 TOP_timerModule10_State_counter
1TOP_timerModule20_Outputs_OutActive
1TOP_timerModule20_Internals_active
b10011 TOP_timerModule20_State_counter
#78001
b0000 TOP_timerModule10_NextState_counter
b00000 TOP_timerModule20_NextState_counter
#79000
0TOP_Control_Clock
#80000
1TOP_Control_Clock
0TOP_Outputs_OutActive10
0TOP_Outputs_OutActive20
0TOP_timerModule10_Outputs_OutActive
0TOP_timerModule10_Internals_active
b0000 TOP_timerModule10_State_counter
0TOP_timerModule20_Outputs_OutActive
0TOP_timerModule20_Internals_active
b00000 TOP_timerModule20_State_counter
#80001
b0001 TOP_timerModule10_NextState_counter
b00001 TOP_timerModule20_NextState_counter
#81000
0TOP_Control_Clock
#82000
1TOP_Control_Clock
b0001 TOP_timerModule10_State_counter
b00001 TOP_timerModule20_State_counter
#82001
b0010 TOP_timerModule10_NextState_counter
b00010 TOP_timerModule20_NextState_counter
#83000
0TOP_Control_Clock
#84000
1TOP_Control_Clock
b0010 TOP_timerModule10_State_counter
b00010 TOP_timerModule20_State_counter
#84001
b0011 TOP_timerModule10_NextState_counter
b00011 TOP_timerModule20_NextState_counter
#85000
0TOP_Control_Clock
#86000
1TOP_Control_Clock
b0011 TOP_timerModule10_State_counter
b00011 TOP_timerModule20_State_counter
#86001
b0100 TOP_timerModule10_NextState_counter
b00100 TOP_timerModule20_NextState_counter
#87000
0TOP_Control_Clock
#88000
1TOP_Control_Clock
b0100 TOP_timerModule10_State_counter
b00100 TOP_timerModule20_State_counter
#88001
b0101 TOP_timerModule10_NextState_counter
b00101 TOP_timerModule20_NextState_counter
#89000
0TOP_Control_Clock
#90000
1TOP_Control_Clock
b0101 TOP_timerModule10_State_counter
b00101 TOP_timerModule20_State_counter
#90001
b0110 TOP_timerModule10_NextState_counter
b00110 TOP_timerModule20_NextState_counter
#91000
0TOP_Control_Clock
#92000
1TOP_Control_Clock
b0110 TOP_timerModule10_State_counter
b00110 TOP_timerModule20_State_counter
#92001
b0111 TOP_timerModule10_NextState_counter
b00111 TOP_timerModule20_NextState_counter
#93000
0TOP_Control_Clock
#94000
1TOP_Control_Clock
b0111 TOP_timerModule10_State_counter
b00111 TOP_timerModule20_State_counter
#94001
b1000 TOP_timerModule10_NextState_counter
b01000 TOP_timerModule20_NextState_counter
#95000
0TOP_Control_Clock
#96000
1TOP_Control_Clock
b1000 TOP_timerModule10_State_counter
b01000 TOP_timerModule20_State_counter
#96001
b1001 TOP_timerModule10_NextState_counter
b01001 TOP_timerModule20_NextState_counter
#97000
0TOP_Control_Clock
#98000
1TOP_Control_Clock
1TOP_Outputs_OutActive10
1TOP_timerModule10_Outputs_OutActive
1TOP_timerModule10_Internals_active
b1001 TOP_timerModule10_State_counter
b01001 TOP_timerModule20_State_counter
#98001
b0000 TOP_timerModule10_NextState_counter
b01010 TOP_timerModule20_NextState_counter
#99000
0TOP_Control_Clock
#100000
1TOP_Control_Clock
0TOP_Outputs_OutActive10
0TOP_timerModule10_Outputs_OutActive
0TOP_timerModule10_Internals_active
b0000 TOP_timerModule10_State_counter
b01010 TOP_timerModule20_State_counter
#100001
b0001 TOP_timerModule10_NextState_counter
b01011 TOP_timerModule20_NextState_counter
#101000
0TOP_Control_Clock
#102000
1TOP_Control_Clock
b0001 TOP_timerModule10_State_counter
b01011 TOP_timerModule20_State_counter
#102001
b0010 TOP_timerModule10_NextState_counter
b01100 TOP_timerModule20_NextState_counter
#103000
0TOP_Control_Clock
#104000
1TOP_Control_Clock
b0010 TOP_timerModule10_State_counter
b01100 TOP_timerModule20_State_counter
#104001
b0011 TOP_timerModule10_NextState_counter
b01101 TOP_timerModule20_NextState_counter
#105000
0TOP_Control_Clock
#106000
1TOP_Control_Clock
b0011 TOP_timerModule10_State_counter
b01101 TOP_timerModule20_State_counter
#106001
b0100 TOP_timerModule10_NextState_counter
b01110 TOP_timerModule20_NextState_counter
#107000
0TOP_Control_Clock
#108000
1TOP_Control_Clock
b0100 TOP_timerModule10_State_counter
b01110 TOP_timerModule20_State_counter
#108001
b0101 TOP_timerModule10_NextState_counter
b01111 TOP_timerModule20_NextState_counter
#109000
0TOP_Control_Clock
#110000
1TOP_Control_Clock
b0101 TOP_timerModule10_State_counter
b01111 TOP_timerModule20_State_counter
#110001
b0110 TOP_timerModule10_NextState_counter
b10000 TOP_timerModule20_NextState_counter
#111000
0TOP_Control_Clock
#112000
1TOP_Control_Clock
b0110 TOP_timerModule10_State_counter
b10000 TOP_timerModule20_State_counter
#112001
b0111 TOP_timerModule10_NextState_counter
b10001 TOP_timerModule20_NextState_counter
#113000
0TOP_Control_Clock
#114000
1TOP_Control_Clock
b0111 TOP_timerModule10_State_counter
b10001 TOP_timerModule20_State_counter
#114001
b1000 TOP_timerModule10_NextState_counter
b10010 TOP_timerModule20_NextState_counter
#115000
0TOP_Control_Clock
#116000
1TOP_Control_Clock
b1000 TOP_timerModule10_State_counter
b10010 TOP_timerModule20_State_counter
#116001
b1001 TOP_timerModule10_NextState_counter
b10011 TOP_timerModule20_NextState_counter
#117000
0TOP_Control_Clock
#118000
1TOP_Control_Clock
1TOP_Outputs_OutActive10
1TOP_Outputs_OutActive20
1TOP_timerModule10_Outputs_OutActive
1TOP_timerModule10_Internals_active
b1001 TOP_timerModule10_State_counter
1TOP_timerModule20_Outputs_OutActive
1TOP_timerModule20_Internals_active
b10011 TOP_timerModule20_State_counter
#118001
b0000 TOP_timerModule10_NextState_counter
b00000 TOP_timerModule20_NextState_counter
#119000
0TOP_Control_Clock
#120000
1TOP_Control_Clock
0TOP_Outputs_OutActive10
0TOP_Outputs_OutActive20
0TOP_timerModule10_Outputs_OutActive
0TOP_timerModule10_Internals_active
b0000 TOP_timerModule10_State_counter
0TOP_timerModule20_Outputs_OutActive
0TOP_timerModule20_Internals_active
b00000 TOP_timerModule20_State_counter
#120001
b0001 TOP_timerModule10_NextState_counter
b00001 TOP_timerModule20_NextState_counter
#121000
0TOP_Control_Clock
#122000
1TOP_Control_Clock
b0001 TOP_timerModule10_State_counter
b00001 TOP_timerModule20_State_counter
#122001
b0010 TOP_timerModule10_NextState_counter
b00010 TOP_timerModule20_NextState_counter
#123000
0TOP_Control_Clock
#124000
1TOP_Control_Clock
b0010 TOP_timerModule10_State_counter
b00010 TOP_timerModule20_State_counter
#124001
b0011 TOP_timerModule10_NextState_counter
b00011 TOP_timerModule20_NextState_counter
#125000
0TOP_Control_Clock
#126000
1TOP_Control_Clock
b0011 TOP_timerModule10_State_counter
b00011 TOP_timerModule20_State_counter
#126001
b0100 TOP_timerModule10_NextState_counter
b00100 TOP_timerModule20_NextState_counter
#127000
0TOP_Control_Clock
#128000
1TOP_Control_Clock
b0100 TOP_timerModule10_State_counter
b00100 TOP_timerModule20_State_counter
#128001
b0101 TOP_timerModule10_NextState_counter
b00101 TOP_timerModule20_NextState_counter
#129000
0TOP_Control_Clock
#130000
1TOP_Control_Clock
b0101 TOP_timerModule10_State_counter
b00101 TOP_timerModule20_State_counter
#130001
b0110 TOP_timerModule10_NextState_counter
b00110 TOP_timerModule20_NextState_counter
#131000
0TOP_Control_Clock
#132000
1TOP_Control_Clock
b0110 TOP_timerModule10_State_counter
b00110 TOP_timerModule20_State_counter
#132001
b0111 TOP_timerModule10_NextState_counter
b00111 TOP_timerModule20_NextState_counter
#133000
0TOP_Control_Clock
#134000
1TOP_Control_Clock
b0111 TOP_timerModule10_State_counter
b00111 TOP_timerModule20_State_counter
#134001
b1000 TOP_timerModule10_NextState_counter
b01000 TOP_timerModule20_NextState_counter
#135000
0TOP_Control_Clock
#136000
1TOP_Control_Clock
b1000 TOP_timerModule10_State_counter
b01000 TOP_timerModule20_State_counter
#136001
b1001 TOP_timerModule10_NextState_counter
b01001 TOP_timerModule20_NextState_counter
#137000
0TOP_Control_Clock
#138000
1TOP_Control_Clock
1TOP_Outputs_OutActive10
1TOP_timerModule10_Outputs_OutActive
1TOP_timerModule10_Internals_active
b1001 TOP_timerModule10_State_counter
b01001 TOP_timerModule20_State_counter
#138001
b0000 TOP_timerModule10_NextState_counter
b01010 TOP_timerModule20_NextState_counter
#139000
0TOP_Control_Clock
#140000
1TOP_Control_Clock
0TOP_Outputs_OutActive10
0TOP_timerModule10_Outputs_OutActive
0TOP_timerModule10_Internals_active
b0000 TOP_timerModule10_State_counter
b01010 TOP_timerModule20_State_counter
#140001
b0001 TOP_timerModule10_NextState_counter
b01011 TOP_timerModule20_NextState_counter
#141000
0TOP_Control_Clock
#142000
1TOP_Control_Clock
b0001 TOP_timerModule10_State_counter
b01011 TOP_timerModule20_State_counter
#142001
b0010 TOP_timerModule10_NextState_counter
b01100 TOP_timerModule20_NextState_counter
#143000
0TOP_Control_Clock
#144000
1TOP_Control_Clock
b0010 TOP_timerModule10_State_counter
b01100 TOP_timerModule20_State_counter
#144001
b0011 TOP_timerModule10_NextState_counter
b01101 TOP_timerModule20_NextState_counter
#145000
0TOP_Control_Clock
#146000
1TOP_Control_Clock
b0011 TOP_timerModule10_State_counter
b01101 TOP_timerModule20_State_counter
#146001
b0100 TOP_timerModule10_NextState_counter
b01110 TOP_timerModule20_NextState_counter
#147000
0TOP_Control_Clock
#148000
1TOP_Control_Clock
b0100 TOP_timerModule10_State_counter
b01110 TOP_timerModule20_State_counter
#148001
b0101 TOP_timerModule10_NextState_counter
b01111 TOP_timerModule20_NextState_counter
#149000
0TOP_Control_Clock
#150000
1TOP_Control_Clock
b0101 TOP_timerModule10_State_counter
b01111 TOP_timerModule20_State_counter
#150001
b0110 TOP_timerModule10_NextState_counter
b10000 TOP_timerModule20_NextState_counter
#151000
0TOP_Control_Clock
#152000
1TOP_Control_Clock
b0110 TOP_timerModule10_State_counter
b10000 TOP_timerModule20_State_counter
#152001
b0111 TOP_timerModule10_NextState_counter
b10001 TOP_timerModule20_NextState_counter
#153000
0TOP_Control_Clock
#154000
1TOP_Control_Clock
b0111 TOP_timerModule10_State_counter
b10001 TOP_timerModule20_State_counter
#154001
b1000 TOP_timerModule10_NextState_counter
b10010 TOP_timerModule20_NextState_counter
#155000
0TOP_Control_Clock
#156000
1TOP_Control_Clock
b1000 TOP_timerModule10_State_counter
b10010 TOP_timerModule20_State_counter
#156001
b1001 TOP_timerModule10_NextState_counter
b10011 TOP_timerModule20_NextState_counter
#157000
0TOP_Control_Clock
#158000
1TOP_Control_Clock
1TOP_Outputs_OutActive10
1TOP_Outputs_OutActive20
1TOP_timerModule10_Outputs_OutActive
1TOP_timerModule10_Internals_active
b1001 TOP_timerModule10_State_counter
1TOP_timerModule20_Outputs_OutActive
1TOP_timerModule20_Internals_active
b10011 TOP_timerModule20_State_counter
#158001
b0000 TOP_timerModule10_NextState_counter
b00000 TOP_timerModule20_NextState_counter
#159000
0TOP_Control_Clock
#160000
1TOP_Control_Clock
0TOP_Outputs_OutActive10
0TOP_Outputs_OutActive20
0TOP_timerModule10_Outputs_OutActive
0TOP_timerModule10_Internals_active
b0000 TOP_timerModule10_State_counter
0TOP_timerModule20_Outputs_OutActive
0TOP_timerModule20_Internals_active
b00000 TOP_timerModule20_State_counter
#160001
b0001 TOP_timerModule10_NextState_counter
b00001 TOP_timerModule20_NextState_counter
#161000
0TOP_Control_Clock
#162000
1TOP_Control_Clock
b0001 TOP_timerModule10_State_counter
b00001 TOP_timerModule20_State_counter
#162001
b0010 TOP_timerModule10_NextState_counter
b00010 TOP_timerModule20_NextState_counter
#163000
0TOP_Control_Clock
#164000
1TOP_Control_Clock
b0010 TOP_timerModule10_State_counter
b00010 TOP_timerModule20_State_counter
#164001
b0011 TOP_timerModule10_NextState_counter
b00011 TOP_timerModule20_NextState_counter
#165000
0TOP_Control_Clock
#166000
1TOP_Control_Clock
b0011 TOP_timerModule10_State_counter
b00011 TOP_timerModule20_State_counter
#166001
b0100 TOP_timerModule10_NextState_counter
b00100 TOP_timerModule20_NextState_counter
#167000
0TOP_Control_Clock
#168000
1TOP_Control_Clock
b0100 TOP_timerModule10_State_counter
b00100 TOP_timerModule20_State_counter
#168001
b0101 TOP_timerModule10_NextState_counter
b00101 TOP_timerModule20_NextState_counter
#169000
0TOP_Control_Clock
#170000
1TOP_Control_Clock
b0101 TOP_timerModule10_State_counter
b00101 TOP_timerModule20_State_counter
#170001
b0110 TOP_timerModule10_NextState_counter
b00110 TOP_timerModule20_NextState_counter
#171000
0TOP_Control_Clock
#172000
1TOP_Control_Clock
b0110 TOP_timerModule10_State_counter
b00110 TOP_timerModule20_State_counter
#172001
b0111 TOP_timerModule10_NextState_counter
b00111 TOP_timerModule20_NextState_counter
#173000
0TOP_Control_Clock
#174000
1TOP_Control_Clock
b0111 TOP_timerModule10_State_counter
b00111 TOP_timerModule20_State_counter
#174001
b1000 TOP_timerModule10_NextState_counter
b01000 TOP_timerModule20_NextState_counter
#175000
0TOP_Control_Clock
#176000
1TOP_Control_Clock
b1000 TOP_timerModule10_State_counter
b01000 TOP_timerModule20_State_counter
#176001
b1001 TOP_timerModule10_NextState_counter
b01001 TOP_timerModule20_NextState_counter
#177000
0TOP_Control_Clock
#178000
1TOP_Control_Clock
1TOP_Outputs_OutActive10
1TOP_timerModule10_Outputs_OutActive
1TOP_timerModule10_Internals_active
b1001 TOP_timerModule10_State_counter
b01001 TOP_timerModule20_State_counter
#178001
b0000 TOP_timerModule10_NextState_counter
b01010 TOP_timerModule20_NextState_counter
#179000
0TOP_Control_Clock
#180000
1TOP_Control_Clock
0TOP_Outputs_OutActive10
0TOP_timerModule10_Outputs_OutActive
0TOP_timerModule10_Internals_active
b0000 TOP_timerModule10_State_counter
b01010 TOP_timerModule20_State_counter
#180001
b0001 TOP_timerModule10_NextState_counter
b01011 TOP_timerModule20_NextState_counter
#181000
0TOP_Control_Clock
#182000
1TOP_Control_Clock
b0001 TOP_timerModule10_State_counter
b01011 TOP_timerModule20_State_counter
#182001
b0010 TOP_timerModule10_NextState_counter
b01100 TOP_timerModule20_NextState_counter
#183000
0TOP_Control_Clock
#184000
1TOP_Control_Clock
b0010 TOP_timerModule10_State_counter
b01100 TOP_timerModule20_State_counter
#184001
b0011 TOP_timerModule10_NextState_counter
b01101 TOP_timerModule20_NextState_counter
#185000
0TOP_Control_Clock
#186000
1TOP_Control_Clock
b0011 TOP_timerModule10_State_counter
b01101 TOP_timerModule20_State_counter
#186001
b0100 TOP_timerModule10_NextState_counter
b01110 TOP_timerModule20_NextState_counter
#187000
0TOP_Control_Clock
#188000
1TOP_Control_Clock
b0100 TOP_timerModule10_State_counter
b01110 TOP_timerModule20_State_counter
#188001
b0101 TOP_timerModule10_NextState_counter
b01111 TOP_timerModule20_NextState_counter
#189000
0TOP_Control_Clock
#190000
1TOP_Control_Clock
b0101 TOP_timerModule10_State_counter
b01111 TOP_timerModule20_State_counter
#190001
b0110 TOP_timerModule10_NextState_counter
b10000 TOP_timerModule20_NextState_counter
#191000
0TOP_Control_Clock
#192000
1TOP_Control_Clock
b0110 TOP_timerModule10_State_counter
b10000 TOP_timerModule20_State_counter
#192001
b0111 TOP_timerModule10_NextState_counter
b10001 TOP_timerModule20_NextState_counter
#193000
0TOP_Control_Clock
#194000
1TOP_Control_Clock
b0111 TOP_timerModule10_State_counter
b10001 TOP_timerModule20_State_counter
#194001
b1000 TOP_timerModule10_NextState_counter
b10010 TOP_timerModule20_NextState_counter
#195000
0TOP_Control_Clock
#196000
1TOP_Control_Clock
b1000 TOP_timerModule10_State_counter
b10010 TOP_timerModule20_State_counter
#196001
b1001 TOP_timerModule10_NextState_counter
b10011 TOP_timerModule20_NextState_counter
#197000
0TOP_Control_Clock
#198000
1TOP_Control_Clock
1TOP_Outputs_OutActive10
1TOP_Outputs_OutActive20
1TOP_timerModule10_Outputs_OutActive
1TOP_timerModule10_Internals_active
b1001 TOP_timerModule10_State_counter
1TOP_timerModule20_Outputs_OutActive
1TOP_timerModule20_Internals_active
b10011 TOP_timerModule20_State_counter
#198001
b0000 TOP_timerModule10_NextState_counter
b00000 TOP_timerModule20_NextState_counter
#199000
0TOP_Control_Clock
#200000
1TOP_Control_Clock
0TOP_Outputs_OutActive10
0TOP_Outputs_OutActive20
0TOP_timerModule10_Outputs_OutActive
0TOP_timerModule10_Internals_active
b0000 TOP_timerModule10_State_counter
0TOP_timerModule20_Outputs_OutActive
0TOP_timerModule20_Internals_active
b00000 TOP_timerModule20_State_counter
