rtl/rtl.tests/SimResults/CounterModuleTest.vcd
$date
Thursday, 15 April 2021 8:34:25 PM
$end
$version
Quokka VCD Generator
$end
$timescale
1s
$end
$scope module TOP $end
$scope module Control $end
$var wire 1 TOP_Control_Clock TOP_Control_Clock $end
$upscope
$end
$scope module Inputs $end
$var wire 1 TOP_Inputs_Enabled TOP_Inputs_Enabled $end
$upscope
$end
$scope module Outputs $end
$var wire 8 TOP_Outputs_Value TOP_Outputs_Value[7:0] $end
$upscope
$end
$scope module Internals $end
$var wire 8 TOP_Internals_NextValue TOP_Internals_NextValue[7:0] $end
$upscope
$end
$scope module State $end
$var wire 8 TOP_State_Value TOP_State_Value[7:0] $end
$upscope
$end
$scope module NextState $end
$var wire 8 TOP_NextState_Value TOP_NextState_Value[7:0] $end
$upscope
$end
$scope module Pipelines $end
$upscope
$end
$upscope
$end
$enddefinitions
$end
#0
1TOP_Control_Clock
0TOP_Inputs_Enabled
b00000000 TOP_Outputs_Value
b00000000 TOP_Internals_NextValue
b00000000 TOP_State_Value
b00000000 TOP_NextState_Value
#1
1TOP_Inputs_Enabled
b00000001 TOP_Internals_NextValue
b00000001 TOP_NextState_Value
#1000
0TOP_Control_Clock
#2000
1TOP_Control_Clock
b00000001 TOP_Outputs_Value
b00000010 TOP_Internals_NextValue
b00000001 TOP_State_Value
#2001
b00000010 TOP_NextState_Value
#3000
0TOP_Control_Clock
#4000
1TOP_Control_Clock
b00000010 TOP_Outputs_Value
b00000011 TOP_Internals_NextValue
b00000010 TOP_State_Value
#4001
b00000011 TOP_NextState_Value
#5000
0TOP_Control_Clock
#6000
1TOP_Control_Clock
b00000011 TOP_Outputs_Value
b00000100 TOP_Internals_NextValue
b00000011 TOP_State_Value
#6001
b00000100 TOP_NextState_Value
#7000
0TOP_Control_Clock
#8000
1TOP_Control_Clock
b00000100 TOP_Outputs_Value
b00000101 TOP_Internals_NextValue
b00000100 TOP_State_Value
#8001
b00000101 TOP_NextState_Value
#9000
0TOP_Control_Clock
#10000
1TOP_Control_Clock
b00000101 TOP_Outputs_Value
b00000110 TOP_Internals_NextValue
b00000101 TOP_State_Value
#10001
b00000110 TOP_NextState_Value
#11000
0TOP_Control_Clock
#12000
1TOP_Control_Clock
b00000110 TOP_Outputs_Value
b00000111 TOP_Internals_NextValue
b00000110 TOP_State_Value
#12001
b00000111 TOP_NextState_Value
#13000
0TOP_Control_Clock
#14000
1TOP_Control_Clock
b00000111 TOP_Outputs_Value
b00001000 TOP_Internals_NextValue
b00000111 TOP_State_Value
#14001
b00001000 TOP_NextState_Value
#15000
0TOP_Control_Clock
#16000
1TOP_Control_Clock
b00001000 TOP_Outputs_Value
b00001001 TOP_Internals_NextValue
b00001000 TOP_State_Value
#16001
b00001001 TOP_NextState_Value
#17000
0TOP_Control_Clock
#18000
1TOP_Control_Clock
b00001001 TOP_Outputs_Value
b00001010 TOP_Internals_NextValue
b00001001 TOP_State_Value
#18001
b00001010 TOP_NextState_Value
#19000
0TOP_Control_Clock
#20000
1TOP_Control_Clock
b00001010 TOP_Outputs_Value
b00001011 TOP_Internals_NextValue
b00001010 TOP_State_Value
#20001
b00001011 TOP_NextState_Value
#21000
0TOP_Control_Clock
#22000
1TOP_Control_Clock
b00001011 TOP_Outputs_Value
b00001100 TOP_Internals_NextValue
b00001011 TOP_State_Value
#22001
b00001100 TOP_NextState_Value
#23000
0TOP_Control_Clock
#24000
1TOP_Control_Clock
b00001100 TOP_Outputs_Value
b00001101 TOP_Internals_NextValue
b00001100 TOP_State_Value
#24001
b00001101 TOP_NextState_Value
#25000
0TOP_Control_Clock
#26000
1TOP_Control_Clock
b00001101 TOP_Outputs_Value
b00001110 TOP_Internals_NextValue
b00001101 TOP_State_Value
#26001
b00001110 TOP_NextState_Value
#27000
0TOP_Control_Clock
#28000
1TOP_Control_Clock
b00001110 TOP_Outputs_Value
b00001111 TOP_Internals_NextValue
b00001110 TOP_State_Value
#28001
b00001111 TOP_NextState_Value
#29000
0TOP_Control_Clock
#30000
1TOP_Control_Clock
b00001111 TOP_Outputs_Value
b00010000 TOP_Internals_NextValue
b00001111 TOP_State_Value
#30001
b00010000 TOP_NextState_Value
#31000
0TOP_Control_Clock
#32000
1TOP_Control_Clock
b00010000 TOP_Outputs_Value
b00010001 TOP_Internals_NextValue
b00010000 TOP_State_Value
#32001
b00010001 TOP_NextState_Value
#33000
0TOP_Control_Clock
#34000
1TOP_Control_Clock
b00010001 TOP_Outputs_Value
b00010010 TOP_Internals_NextValue
b00010001 TOP_State_Value
#34001
b00010010 TOP_NextState_Value
#35000
0TOP_Control_Clock
#36000
1TOP_Control_Clock
b00010010 TOP_Outputs_Value
b00010011 TOP_Internals_NextValue
b00010010 TOP_State_Value
#36001
b00010011 TOP_NextState_Value
#37000
0TOP_Control_Clock
#38000
1TOP_Control_Clock
b00010011 TOP_Outputs_Value
b00010100 TOP_Internals_NextValue
b00010011 TOP_State_Value
#38001
b00010100 TOP_NextState_Value
#39000
0TOP_Control_Clock
#40000
1TOP_Control_Clock
b00010100 TOP_Outputs_Value
b00010101 TOP_Internals_NextValue
b00010100 TOP_State_Value
#40001
b00010101 TOP_NextState_Value
#41000
0TOP_Control_Clock
#42000
1TOP_Control_Clock
b00010101 TOP_Outputs_Value
b00010110 TOP_Internals_NextValue
b00010101 TOP_State_Value
#42001
b00010110 TOP_NextState_Value
#43000
0TOP_Control_Clock
#44000
1TOP_Control_Clock
b00010110 TOP_Outputs_Value
b00010111 TOP_Internals_NextValue
b00010110 TOP_State_Value
#44001
b00010111 TOP_NextState_Value
#45000
0TOP_Control_Clock
#46000
1TOP_Control_Clock
b00010111 TOP_Outputs_Value
b00011000 TOP_Internals_NextValue
b00010111 TOP_State_Value
#46001
b00011000 TOP_NextState_Value
#47000
0TOP_Control_Clock
#48000
1TOP_Control_Clock
b00011000 TOP_Outputs_Value
b00011001 TOP_Internals_NextValue
b00011000 TOP_State_Value
#48001
b00011001 TOP_NextState_Value
#49000
0TOP_Control_Clock
#50000
1TOP_Control_Clock
b00011001 TOP_Outputs_Value
b00011010 TOP_Internals_NextValue
b00011001 TOP_State_Value
#50001
b00011010 TOP_NextState_Value
#51000
0TOP_Control_Clock
#52000
1TOP_Control_Clock
b00011010 TOP_Outputs_Value
b00011011 TOP_Internals_NextValue
b00011010 TOP_State_Value
#52001
b00011011 TOP_NextState_Value
#53000
0TOP_Control_Clock
#54000
1TOP_Control_Clock
b00011011 TOP_Outputs_Value
b00011100 TOP_Internals_NextValue
b00011011 TOP_State_Value
#54001
b00011100 TOP_NextState_Value
#55000
0TOP_Control_Clock
#56000
1TOP_Control_Clock
b00011100 TOP_Outputs_Value
b00011101 TOP_Internals_NextValue
b00011100 TOP_State_Value
#56001
b00011101 TOP_NextState_Value
#57000
0TOP_Control_Clock
#58000
1TOP_Control_Clock
b00011101 TOP_Outputs_Value
b00011110 TOP_Internals_NextValue
b00011101 TOP_State_Value
#58001
b00011110 TOP_NextState_Value
#59000
0TOP_Control_Clock
#60000
1TOP_Control_Clock
b00011110 TOP_Outputs_Value
b00011111 TOP_Internals_NextValue
b00011110 TOP_State_Value
#60001
b00011111 TOP_NextState_Value
#61000
0TOP_Control_Clock
#62000
1TOP_Control_Clock
b00011111 TOP_Outputs_Value
b00100000 TOP_Internals_NextValue
b00011111 TOP_State_Value
#62001
b00100000 TOP_NextState_Value
#63000
0TOP_Control_Clock
#64000
1TOP_Control_Clock
b00100000 TOP_Outputs_Value
b00100001 TOP_Internals_NextValue
b00100000 TOP_State_Value
#64001
b00100001 TOP_NextState_Value
#65000
0TOP_Control_Clock
#66000
1TOP_Control_Clock
b00100001 TOP_Outputs_Value
b00100010 TOP_Internals_NextValue
b00100001 TOP_State_Value
#66001
b00100010 TOP_NextState_Value
#67000
0TOP_Control_Clock
#68000
1TOP_Control_Clock
b00100010 TOP_Outputs_Value
b00100011 TOP_Internals_NextValue
b00100010 TOP_State_Value
#68001
b00100011 TOP_NextState_Value
#69000
0TOP_Control_Clock
#70000
1TOP_Control_Clock
b00100011 TOP_Outputs_Value
b00100100 TOP_Internals_NextValue
b00100011 TOP_State_Value
#70001
b00100100 TOP_NextState_Value
#71000
0TOP_Control_Clock
#72000
1TOP_Control_Clock
b00100100 TOP_Outputs_Value
b00100101 TOP_Internals_NextValue
b00100100 TOP_State_Value
#72001
b00100101 TOP_NextState_Value
#73000
0TOP_Control_Clock
#74000
1TOP_Control_Clock
b00100101 TOP_Outputs_Value
b00100110 TOP_Internals_NextValue
b00100101 TOP_State_Value
#74001
b00100110 TOP_NextState_Value
#75000
0TOP_Control_Clock
#76000
1TOP_Control_Clock
b00100110 TOP_Outputs_Value
b00100111 TOP_Internals_NextValue
b00100110 TOP_State_Value
#76001
b00100111 TOP_NextState_Value
#77000
0TOP_Control_Clock
#78000
1TOP_Control_Clock
b00100111 TOP_Outputs_Value
b00101000 TOP_Internals_NextValue
b00100111 TOP_State_Value
#78001
b00101000 TOP_NextState_Value
#79000
0TOP_Control_Clock
#80000
1TOP_Control_Clock
b00101000 TOP_Outputs_Value
b00101001 TOP_Internals_NextValue
b00101000 TOP_State_Value
#80001
b00101001 TOP_NextState_Value
#81000
0TOP_Control_Clock
#82000
1TOP_Control_Clock
b00101001 TOP_Outputs_Value
b00101010 TOP_Internals_NextValue
b00101001 TOP_State_Value
#82001
b00101010 TOP_NextState_Value
#83000
0TOP_Control_Clock
#84000
1TOP_Control_Clock
b00101010 TOP_Outputs_Value
b00101011 TOP_Internals_NextValue
b00101010 TOP_State_Value
#84001
b00101011 TOP_NextState_Value
#85000
0TOP_Control_Clock
#86000
1TOP_Control_Clock
b00101011 TOP_Outputs_Value
b00101100 TOP_Internals_NextValue
b00101011 TOP_State_Value
#86001
b00101100 TOP_NextState_Value
#87000
0TOP_Control_Clock
#88000
1TOP_Control_Clock
b00101100 TOP_Outputs_Value
b00101101 TOP_Internals_NextValue
b00101100 TOP_State_Value
#88001
b00101101 TOP_NextState_Value
#89000
0TOP_Control_Clock
#90000
1TOP_Control_Clock
b00101101 TOP_Outputs_Value
b00101110 TOP_Internals_NextValue
b00101101 TOP_State_Value
#90001
b00101110 TOP_NextState_Value
#91000
0TOP_Control_Clock
#92000
1TOP_Control_Clock
b00101110 TOP_Outputs_Value
b00101111 TOP_Internals_NextValue
b00101110 TOP_State_Value
#92001
b00101111 TOP_NextState_Value
#93000
0TOP_Control_Clock
#94000
1TOP_Control_Clock
b00101111 TOP_Outputs_Value
b00110000 TOP_Internals_NextValue
b00101111 TOP_State_Value
#94001
b00110000 TOP_NextState_Value
#95000
0TOP_Control_Clock
#96000
1TOP_Control_Clock
b00110000 TOP_Outputs_Value
b00110001 TOP_Internals_NextValue
b00110000 TOP_State_Value
#96001
b00110001 TOP_NextState_Value
#97000
0TOP_Control_Clock
#98000
1TOP_Control_Clock
b00110001 TOP_Outputs_Value
b00110010 TOP_Internals_NextValue
b00110001 TOP_State_Value
#98001
b00110010 TOP_NextState_Value
#99000
0TOP_Control_Clock
#100000
1TOP_Control_Clock
b00110010 TOP_Outputs_Value
b00110011 TOP_Internals_NextValue
b00110010 TOP_State_Value
#100001
b00110011 TOP_NextState_Value
#101000
0TOP_Control_Clock
#102000
1TOP_Control_Clock
b00110011 TOP_Outputs_Value
b00110100 TOP_Internals_NextValue
b00110011 TOP_State_Value
#102001
b00110100 TOP_NextState_Value
#103000
0TOP_Control_Clock
#104000
1TOP_Control_Clock
b00110100 TOP_Outputs_Value
b00110101 TOP_Internals_NextValue
b00110100 TOP_State_Value
#104001
b00110101 TOP_NextState_Value
#105000
0TOP_Control_Clock
#106000
1TOP_Control_Clock
b00110101 TOP_Outputs_Value
b00110110 TOP_Internals_NextValue
b00110101 TOP_State_Value
#106001
b00110110 TOP_NextState_Value
#107000
0TOP_Control_Clock
#108000
1TOP_Control_Clock
b00110110 TOP_Outputs_Value
b00110111 TOP_Internals_NextValue
b00110110 TOP_State_Value
#108001
b00110111 TOP_NextState_Value
#109000
0TOP_Control_Clock
#110000
1TOP_Control_Clock
b00110111 TOP_Outputs_Value
b00111000 TOP_Internals_NextValue
b00110111 TOP_State_Value
#110001
b00111000 TOP_NextState_Value
#111000
0TOP_Control_Clock
#112000
1TOP_Control_Clock
b00111000 TOP_Outputs_Value
b00111001 TOP_Internals_NextValue
b00111000 TOP_State_Value
#112001
b00111001 TOP_NextState_Value
#113000
0TOP_Control_Clock
#114000
1TOP_Control_Clock
b00111001 TOP_Outputs_Value
b00111010 TOP_Internals_NextValue
b00111001 TOP_State_Value
#114001
b00111010 TOP_NextState_Value
#115000
0TOP_Control_Clock
#116000
1TOP_Control_Clock
b00111010 TOP_Outputs_Value
b00111011 TOP_Internals_NextValue
b00111010 TOP_State_Value
#116001
b00111011 TOP_NextState_Value
#117000
0TOP_Control_Clock
#118000
1TOP_Control_Clock
b00111011 TOP_Outputs_Value
b00111100 TOP_Internals_NextValue
b00111011 TOP_State_Value
#118001
b00111100 TOP_NextState_Value
#119000
0TOP_Control_Clock
#120000
1TOP_Control_Clock
b00111100 TOP_Outputs_Value
b00111101 TOP_Internals_NextValue
b00111100 TOP_State_Value
#120001
b00111101 TOP_NextState_Value
#121000
0TOP_Control_Clock
#122000
1TOP_Control_Clock
b00111101 TOP_Outputs_Value
b00111110 TOP_Internals_NextValue
b00111101 TOP_State_Value
#122001
b00111110 TOP_NextState_Value
#123000
0TOP_Control_Clock
#124000
1TOP_Control_Clock
b00111110 TOP_Outputs_Value
b00111111 TOP_Internals_NextValue
b00111110 TOP_State_Value
#124001
b00111111 TOP_NextState_Value
#125000
0TOP_Control_Clock
#126000
1TOP_Control_Clock
b00111111 TOP_Outputs_Value
b01000000 TOP_Internals_NextValue
b00111111 TOP_State_Value
#126001
b01000000 TOP_NextState_Value
#127000
0TOP_Control_Clock
#128000
1TOP_Control_Clock
b01000000 TOP_Outputs_Value
b01000001 TOP_Internals_NextValue
b01000000 TOP_State_Value
#128001
b01000001 TOP_NextState_Value
#129000
0TOP_Control_Clock
#130000
1TOP_Control_Clock
b01000001 TOP_Outputs_Value
b01000010 TOP_Internals_NextValue
b01000001 TOP_State_Value
#130001
b01000010 TOP_NextState_Value
#131000
0TOP_Control_Clock
#132000
1TOP_Control_Clock
b01000010 TOP_Outputs_Value
b01000011 TOP_Internals_NextValue
b01000010 TOP_State_Value
#132001
b01000011 TOP_NextState_Value
#133000
0TOP_Control_Clock
#134000
1TOP_Control_Clock
b01000011 TOP_Outputs_Value
b01000100 TOP_Internals_NextValue
b01000011 TOP_State_Value
#134001
b01000100 TOP_NextState_Value
#135000
0TOP_Control_Clock
#136000
1TOP_Control_Clock
b01000100 TOP_Outputs_Value
b01000101 TOP_Internals_NextValue
b01000100 TOP_State_Value
#136001
b01000101 TOP_NextState_Value
#137000
0TOP_Control_Clock
#138000
1TOP_Control_Clock
b01000101 TOP_Outputs_Value
b01000110 TOP_Internals_NextValue
b01000101 TOP_State_Value
#138001
b01000110 TOP_NextState_Value
#139000
0TOP_Control_Clock
#140000
1TOP_Control_Clock
b01000110 TOP_Outputs_Value
b01000111 TOP_Internals_NextValue
b01000110 TOP_State_Value
#140001
b01000111 TOP_NextState_Value
#141000
0TOP_Control_Clock
#142000
1TOP_Control_Clock
b01000111 TOP_Outputs_Value
b01001000 TOP_Internals_NextValue
b01000111 TOP_State_Value
#142001
b01001000 TOP_NextState_Value
#143000
0TOP_Control_Clock
#144000
1TOP_Control_Clock
b01001000 TOP_Outputs_Value
b01001001 TOP_Internals_NextValue
b01001000 TOP_State_Value
#144001
b01001001 TOP_NextState_Value
#145000
0TOP_Control_Clock
#146000
1TOP_Control_Clock
b01001001 TOP_Outputs_Value
b01001010 TOP_Internals_NextValue
b01001001 TOP_State_Value
#146001
b01001010 TOP_NextState_Value
#147000
0TOP_Control_Clock
#148000
1TOP_Control_Clock
b01001010 TOP_Outputs_Value
b01001011 TOP_Internals_NextValue
b01001010 TOP_State_Value
#148001
b01001011 TOP_NextState_Value
#149000
0TOP_Control_Clock
#150000
1TOP_Control_Clock
b01001011 TOP_Outputs_Value
b01001100 TOP_Internals_NextValue
b01001011 TOP_State_Value
#150001
b01001100 TOP_NextState_Value
#151000
0TOP_Control_Clock
#152000
1TOP_Control_Clock
b01001100 TOP_Outputs_Value
b01001101 TOP_Internals_NextValue
b01001100 TOP_State_Value
#152001
b01001101 TOP_NextState_Value
#153000
0TOP_Control_Clock
#154000
1TOP_Control_Clock
b01001101 TOP_Outputs_Value
b01001110 TOP_Internals_NextValue
b01001101 TOP_State_Value
#154001
b01001110 TOP_NextState_Value
#155000
0TOP_Control_Clock
#156000
1TOP_Control_Clock
b01001110 TOP_Outputs_Value
b01001111 TOP_Internals_NextValue
b01001110 TOP_State_Value
#156001
b01001111 TOP_NextState_Value
#157000
0TOP_Control_Clock
#158000
1TOP_Control_Clock
b01001111 TOP_Outputs_Value
b01010000 TOP_Internals_NextValue
b01001111 TOP_State_Value
#158001
b01010000 TOP_NextState_Value
#159000
0TOP_Control_Clock
#160000
1TOP_Control_Clock
b01010000 TOP_Outputs_Value
b01010001 TOP_Internals_NextValue
b01010000 TOP_State_Value
#160001
b01010001 TOP_NextState_Value
#161000
0TOP_Control_Clock
#162000
1TOP_Control_Clock
b01010001 TOP_Outputs_Value
b01010010 TOP_Internals_NextValue
b01010001 TOP_State_Value
#162001
b01010010 TOP_NextState_Value
#163000
0TOP_Control_Clock
#164000
1TOP_Control_Clock
b01010010 TOP_Outputs_Value
b01010011 TOP_Internals_NextValue
b01010010 TOP_State_Value
#164001
b01010011 TOP_NextState_Value
#165000
0TOP_Control_Clock
#166000
1TOP_Control_Clock
b01010011 TOP_Outputs_Value
b01010100 TOP_Internals_NextValue
b01010011 TOP_State_Value
#166001
b01010100 TOP_NextState_Value
#167000
0TOP_Control_Clock
#168000
1TOP_Control_Clock
b01010100 TOP_Outputs_Value
b01010101 TOP_Internals_NextValue
b01010100 TOP_State_Value
#168001
b01010101 TOP_NextState_Value
#169000
0TOP_Control_Clock
#170000
1TOP_Control_Clock
b01010101 TOP_Outputs_Value
b01010110 TOP_Internals_NextValue
b01010101 TOP_State_Value
#170001
b01010110 TOP_NextState_Value
#171000
0TOP_Control_Clock
#172000
1TOP_Control_Clock
b01010110 TOP_Outputs_Value
b01010111 TOP_Internals_NextValue
b01010110 TOP_State_Value
#172001
b01010111 TOP_NextState_Value
#173000
0TOP_Control_Clock
#174000
1TOP_Control_Clock
b01010111 TOP_Outputs_Value
b01011000 TOP_Internals_NextValue
b01010111 TOP_State_Value
#174001
b01011000 TOP_NextState_Value
#175000
0TOP_Control_Clock
#176000
1TOP_Control_Clock
b01011000 TOP_Outputs_Value
b01011001 TOP_Internals_NextValue
b01011000 TOP_State_Value
#176001
b01011001 TOP_NextState_Value
#177000
0TOP_Control_Clock
#178000
1TOP_Control_Clock
b01011001 TOP_Outputs_Value
b01011010 TOP_Internals_NextValue
b01011001 TOP_State_Value
#178001
b01011010 TOP_NextState_Value
#179000
0TOP_Control_Clock
#180000
1TOP_Control_Clock
b01011010 TOP_Outputs_Value
b01011011 TOP_Internals_NextValue
b01011010 TOP_State_Value
#180001
b01011011 TOP_NextState_Value
#181000
0TOP_Control_Clock
#182000
1TOP_Control_Clock
b01011011 TOP_Outputs_Value
b01011100 TOP_Internals_NextValue
b01011011 TOP_State_Value
#182001
b01011100 TOP_NextState_Value
#183000
0TOP_Control_Clock
#184000
1TOP_Control_Clock
b01011100 TOP_Outputs_Value
b01011101 TOP_Internals_NextValue
b01011100 TOP_State_Value
#184001
b01011101 TOP_NextState_Value
#185000
0TOP_Control_Clock
#186000
1TOP_Control_Clock
b01011101 TOP_Outputs_Value
b01011110 TOP_Internals_NextValue
b01011101 TOP_State_Value
#186001
b01011110 TOP_NextState_Value
#187000
0TOP_Control_Clock
#188000
1TOP_Control_Clock
b01011110 TOP_Outputs_Value
b01011111 TOP_Internals_NextValue
b01011110 TOP_State_Value
#188001
b01011111 TOP_NextState_Value
#189000
0TOP_Control_Clock
#190000
1TOP_Control_Clock
b01011111 TOP_Outputs_Value
b01100000 TOP_Internals_NextValue
b01011111 TOP_State_Value
#190001
b01100000 TOP_NextState_Value
#191000
0TOP_Control_Clock
#192000
1TOP_Control_Clock
b01100000 TOP_Outputs_Value
b01100001 TOP_Internals_NextValue
b01100000 TOP_State_Value
#192001
b01100001 TOP_NextState_Value
#193000
0TOP_Control_Clock
#194000
1TOP_Control_Clock
b01100001 TOP_Outputs_Value
b01100010 TOP_Internals_NextValue
b01100001 TOP_State_Value
#194001
b01100010 TOP_NextState_Value
#195000
0TOP_Control_Clock
#196000
1TOP_Control_Clock
b01100010 TOP_Outputs_Value
b01100011 TOP_Internals_NextValue
b01100010 TOP_State_Value
#196001
b01100011 TOP_NextState_Value
#197000
0TOP_Control_Clock
#198000
1TOP_Control_Clock
b01100011 TOP_Outputs_Value
b01100100 TOP_Internals_NextValue
b01100011 TOP_State_Value
#198001
b01100100 TOP_NextState_Value
#199000
0TOP_Control_Clock
#200000
1TOP_Control_Clock
b01100100 TOP_Outputs_Value
b01100101 TOP_Internals_NextValue
b01100100 TOP_State_Value
