rtl/rtl.tests/SimResults/CounterModuleTest.vcd
$date
Sunday, 26 June 2022 9:01:40 PM
$end
$version
Quokka VCD Generator
$end
$timescale
1s
$end
$scope module TOP $end
$scope module Control $end
$var wire 1 TOP_Control_Clock TOP_Control_Clock $end
$upscope
$end
$scope module Inputs $end
$var wire 1 TOP_Inputs_Enabled TOP_Inputs_Enabled $end
$upscope
$end
$scope module Outputs $end
$var wire 8 TOP_Outputs_Value TOP_Outputs_Value[7:0] $end
$upscope
$end
$scope module Internals $end
$var wire 8 TOP_Internals_NextValue TOP_Internals_NextValue[7:0] $end
$upscope
$end
$scope module State $end
$var wire 8 TOP_State_Value TOP_State_Value[7:0] $end
$upscope
$end
$scope module NextState $end
$var wire 8 TOP_NextState_Value TOP_NextState_Value[7:0] $end
$upscope
$end
$scope module Pipelines $end
$upscope
$end
$upscope
$end
$enddefinitions
$end
#0
0TOP_Control_Clock
0TOP_Inputs_Enabled
b00000000 TOP_Outputs_Value
b00000000 TOP_Internals_NextValue
b00000000 TOP_State_Value
b00000000 TOP_NextState_Value
#1001
1TOP_Inputs_Enabled
b00000001 TOP_Internals_NextValue
b00000001 TOP_NextState_Value
#2002
1TOP_Control_Clock
b00000001 TOP_Outputs_Value
b00000010 TOP_Internals_NextValue
b00000001 TOP_State_Value
#2001
b00000010 TOP_NextState_Value
#3002
0TOP_Control_Clock
#4002
1TOP_Control_Clock
b00000010 TOP_Outputs_Value
b00000011 TOP_Internals_NextValue
b00000010 TOP_State_Value
#4001
b00000011 TOP_NextState_Value
#5002
0TOP_Control_Clock
#6002
1TOP_Control_Clock
b00000011 TOP_Outputs_Value
b00000100 TOP_Internals_NextValue
b00000011 TOP_State_Value
#6001
b00000100 TOP_NextState_Value
#7002
0TOP_Control_Clock
#8002
1TOP_Control_Clock
b00000100 TOP_Outputs_Value
b00000101 TOP_Internals_NextValue
b00000100 TOP_State_Value
#8001
b00000101 TOP_NextState_Value
#9002
0TOP_Control_Clock
#10002
1TOP_Control_Clock
b00000101 TOP_Outputs_Value
b00000110 TOP_Internals_NextValue
b00000101 TOP_State_Value
#10001
b00000110 TOP_NextState_Value
#11002
0TOP_Control_Clock
#12002
1TOP_Control_Clock
b00000110 TOP_Outputs_Value
b00000111 TOP_Internals_NextValue
b00000110 TOP_State_Value
#12001
b00000111 TOP_NextState_Value
#13002
0TOP_Control_Clock
#14002
1TOP_Control_Clock
b00000111 TOP_Outputs_Value
b00001000 TOP_Internals_NextValue
b00000111 TOP_State_Value
#14001
b00001000 TOP_NextState_Value
#15002
0TOP_Control_Clock
#16002
1TOP_Control_Clock
b00001000 TOP_Outputs_Value
b00001001 TOP_Internals_NextValue
b00001000 TOP_State_Value
#16001
b00001001 TOP_NextState_Value
#17002
0TOP_Control_Clock
#18002
1TOP_Control_Clock
b00001001 TOP_Outputs_Value
b00001010 TOP_Internals_NextValue
b00001001 TOP_State_Value
#18001
b00001010 TOP_NextState_Value
#19002
0TOP_Control_Clock
#20002
1TOP_Control_Clock
b00001010 TOP_Outputs_Value
b00001011 TOP_Internals_NextValue
b00001010 TOP_State_Value
#20001
b00001011 TOP_NextState_Value
#21002
0TOP_Control_Clock
#22002
1TOP_Control_Clock
b00001011 TOP_Outputs_Value
b00001100 TOP_Internals_NextValue
b00001011 TOP_State_Value
#22001
b00001100 TOP_NextState_Value
#23002
0TOP_Control_Clock
#24002
1TOP_Control_Clock
b00001100 TOP_Outputs_Value
b00001101 TOP_Internals_NextValue
b00001100 TOP_State_Value
#24001
b00001101 TOP_NextState_Value
#25002
0TOP_Control_Clock
#26002
1TOP_Control_Clock
b00001101 TOP_Outputs_Value
b00001110 TOP_Internals_NextValue
b00001101 TOP_State_Value
#26001
b00001110 TOP_NextState_Value
#27002
0TOP_Control_Clock
#28002
1TOP_Control_Clock
b00001110 TOP_Outputs_Value
b00001111 TOP_Internals_NextValue
b00001110 TOP_State_Value
#28001
b00001111 TOP_NextState_Value
#29002
0TOP_Control_Clock
#30002
1TOP_Control_Clock
b00001111 TOP_Outputs_Value
b00010000 TOP_Internals_NextValue
b00001111 TOP_State_Value
#30001
b00010000 TOP_NextState_Value
#31002
0TOP_Control_Clock
#32002
1TOP_Control_Clock
b00010000 TOP_Outputs_Value
b00010001 TOP_Internals_NextValue
b00010000 TOP_State_Value
#32001
b00010001 TOP_NextState_Value
#33002
0TOP_Control_Clock
#34002
1TOP_Control_Clock
b00010001 TOP_Outputs_Value
b00010010 TOP_Internals_NextValue
b00010001 TOP_State_Value
#34001
b00010010 TOP_NextState_Value
#35002
0TOP_Control_Clock
#36002
1TOP_Control_Clock
b00010010 TOP_Outputs_Value
b00010011 TOP_Internals_NextValue
b00010010 TOP_State_Value
#36001
b00010011 TOP_NextState_Value
#37002
0TOP_Control_Clock
#38002
1TOP_Control_Clock
b00010011 TOP_Outputs_Value
b00010100 TOP_Internals_NextValue
b00010011 TOP_State_Value
#38001
b00010100 TOP_NextState_Value
#39002
0TOP_Control_Clock
#40002
1TOP_Control_Clock
b00010100 TOP_Outputs_Value
b00010101 TOP_Internals_NextValue
b00010100 TOP_State_Value
#40001
b00010101 TOP_NextState_Value
#41002
0TOP_Control_Clock
#42002
1TOP_Control_Clock
b00010101 TOP_Outputs_Value
b00010110 TOP_Internals_NextValue
b00010101 TOP_State_Value
#42001
b00010110 TOP_NextState_Value
#43002
0TOP_Control_Clock
#44002
1TOP_Control_Clock
b00010110 TOP_Outputs_Value
b00010111 TOP_Internals_NextValue
b00010110 TOP_State_Value
#44001
b00010111 TOP_NextState_Value
#45002
0TOP_Control_Clock
#46002
1TOP_Control_Clock
b00010111 TOP_Outputs_Value
b00011000 TOP_Internals_NextValue
b00010111 TOP_State_Value
#46001
b00011000 TOP_NextState_Value
#47002
0TOP_Control_Clock
#48002
1TOP_Control_Clock
b00011000 TOP_Outputs_Value
b00011001 TOP_Internals_NextValue
b00011000 TOP_State_Value
#48001
b00011001 TOP_NextState_Value
#49002
0TOP_Control_Clock
#50002
1TOP_Control_Clock
b00011001 TOP_Outputs_Value
b00011010 TOP_Internals_NextValue
b00011001 TOP_State_Value
#50001
b00011010 TOP_NextState_Value
#51002
0TOP_Control_Clock
#52002
1TOP_Control_Clock
b00011010 TOP_Outputs_Value
b00011011 TOP_Internals_NextValue
b00011010 TOP_State_Value
#52001
b00011011 TOP_NextState_Value
#53002
0TOP_Control_Clock
#54002
1TOP_Control_Clock
b00011011 TOP_Outputs_Value
b00011100 TOP_Internals_NextValue
b00011011 TOP_State_Value
#54001
b00011100 TOP_NextState_Value
#55002
0TOP_Control_Clock
#56002
1TOP_Control_Clock
b00011100 TOP_Outputs_Value
b00011101 TOP_Internals_NextValue
b00011100 TOP_State_Value
#56001
b00011101 TOP_NextState_Value
#57002
0TOP_Control_Clock
#58002
1TOP_Control_Clock
b00011101 TOP_Outputs_Value
b00011110 TOP_Internals_NextValue
b00011101 TOP_State_Value
#58001
b00011110 TOP_NextState_Value
#59002
0TOP_Control_Clock
#60002
1TOP_Control_Clock
b00011110 TOP_Outputs_Value
b00011111 TOP_Internals_NextValue
b00011110 TOP_State_Value
#60001
b00011111 TOP_NextState_Value
#61002
0TOP_Control_Clock
#62002
1TOP_Control_Clock
b00011111 TOP_Outputs_Value
b00100000 TOP_Internals_NextValue
b00011111 TOP_State_Value
#62001
b00100000 TOP_NextState_Value
#63002
0TOP_Control_Clock
#64002
1TOP_Control_Clock
b00100000 TOP_Outputs_Value
b00100001 TOP_Internals_NextValue
b00100000 TOP_State_Value
#64001
b00100001 TOP_NextState_Value
#65002
0TOP_Control_Clock
#66002
1TOP_Control_Clock
b00100001 TOP_Outputs_Value
b00100010 TOP_Internals_NextValue
b00100001 TOP_State_Value
#66001
b00100010 TOP_NextState_Value
#67002
0TOP_Control_Clock
#68002
1TOP_Control_Clock
b00100010 TOP_Outputs_Value
b00100011 TOP_Internals_NextValue
b00100010 TOP_State_Value
#68001
b00100011 TOP_NextState_Value
#69002
0TOP_Control_Clock
#70002
1TOP_Control_Clock
b00100011 TOP_Outputs_Value
b00100100 TOP_Internals_NextValue
b00100011 TOP_State_Value
#70001
b00100100 TOP_NextState_Value
#71002
0TOP_Control_Clock
#72002
1TOP_Control_Clock
b00100100 TOP_Outputs_Value
b00100101 TOP_Internals_NextValue
b00100100 TOP_State_Value
#72001
b00100101 TOP_NextState_Value
#73002
0TOP_Control_Clock
#74002
1TOP_Control_Clock
b00100101 TOP_Outputs_Value
b00100110 TOP_Internals_NextValue
b00100101 TOP_State_Value
#74001
b00100110 TOP_NextState_Value
#75002
0TOP_Control_Clock
#76002
1TOP_Control_Clock
b00100110 TOP_Outputs_Value
b00100111 TOP_Internals_NextValue
b00100110 TOP_State_Value
#76001
b00100111 TOP_NextState_Value
#77002
0TOP_Control_Clock
#78002
1TOP_Control_Clock
b00100111 TOP_Outputs_Value
b00101000 TOP_Internals_NextValue
b00100111 TOP_State_Value
#78001
b00101000 TOP_NextState_Value
#79002
0TOP_Control_Clock
#80002
1TOP_Control_Clock
b00101000 TOP_Outputs_Value
b00101001 TOP_Internals_NextValue
b00101000 TOP_State_Value
#80001
b00101001 TOP_NextState_Value
#81002
0TOP_Control_Clock
#82002
1TOP_Control_Clock
b00101001 TOP_Outputs_Value
b00101010 TOP_Internals_NextValue
b00101001 TOP_State_Value
#82001
b00101010 TOP_NextState_Value
#83002
0TOP_Control_Clock
#84002
1TOP_Control_Clock
b00101010 TOP_Outputs_Value
b00101011 TOP_Internals_NextValue
b00101010 TOP_State_Value
#84001
b00101011 TOP_NextState_Value
#85002
0TOP_Control_Clock
#86002
1TOP_Control_Clock
b00101011 TOP_Outputs_Value
b00101100 TOP_Internals_NextValue
b00101011 TOP_State_Value
#86001
b00101100 TOP_NextState_Value
#87002
0TOP_Control_Clock
#88002
1TOP_Control_Clock
b00101100 TOP_Outputs_Value
b00101101 TOP_Internals_NextValue
b00101100 TOP_State_Value
#88001
b00101101 TOP_NextState_Value
#89002
0TOP_Control_Clock
#90002
1TOP_Control_Clock
b00101101 TOP_Outputs_Value
b00101110 TOP_Internals_NextValue
b00101101 TOP_State_Value
#90001
b00101110 TOP_NextState_Value
#91002
0TOP_Control_Clock
#92002
1TOP_Control_Clock
b00101110 TOP_Outputs_Value
b00101111 TOP_Internals_NextValue
b00101110 TOP_State_Value
#92001
b00101111 TOP_NextState_Value
#93002
0TOP_Control_Clock
#94002
1TOP_Control_Clock
b00101111 TOP_Outputs_Value
b00110000 TOP_Internals_NextValue
b00101111 TOP_State_Value
#94001
b00110000 TOP_NextState_Value
#95002
0TOP_Control_Clock
#96002
1TOP_Control_Clock
b00110000 TOP_Outputs_Value
b00110001 TOP_Internals_NextValue
b00110000 TOP_State_Value
#96001
b00110001 TOP_NextState_Value
#97002
0TOP_Control_Clock
#98002
1TOP_Control_Clock
b00110001 TOP_Outputs_Value
b00110010 TOP_Internals_NextValue
b00110001 TOP_State_Value
#98001
b00110010 TOP_NextState_Value
#99002
0TOP_Control_Clock
#100002
1TOP_Control_Clock
b00110010 TOP_Outputs_Value
b00110011 TOP_Internals_NextValue
b00110010 TOP_State_Value
#100001
b00110011 TOP_NextState_Value
#101002
0TOP_Control_Clock
#102002
1TOP_Control_Clock
b00110011 TOP_Outputs_Value
b00110100 TOP_Internals_NextValue
b00110011 TOP_State_Value
#102001
b00110100 TOP_NextState_Value
#103002
0TOP_Control_Clock
#104002
1TOP_Control_Clock
b00110100 TOP_Outputs_Value
b00110101 TOP_Internals_NextValue
b00110100 TOP_State_Value
#104001
b00110101 TOP_NextState_Value
#105002
0TOP_Control_Clock
#106002
1TOP_Control_Clock
b00110101 TOP_Outputs_Value
b00110110 TOP_Internals_NextValue
b00110101 TOP_State_Value
#106001
b00110110 TOP_NextState_Value
#107002
0TOP_Control_Clock
#108002
1TOP_Control_Clock
b00110110 TOP_Outputs_Value
b00110111 TOP_Internals_NextValue
b00110110 TOP_State_Value
#108001
b00110111 TOP_NextState_Value
#109002
0TOP_Control_Clock
#110002
1TOP_Control_Clock
b00110111 TOP_Outputs_Value
b00111000 TOP_Internals_NextValue
b00110111 TOP_State_Value
#110001
b00111000 TOP_NextState_Value
#111002
0TOP_Control_Clock
#112002
1TOP_Control_Clock
b00111000 TOP_Outputs_Value
b00111001 TOP_Internals_NextValue
b00111000 TOP_State_Value
#112001
b00111001 TOP_NextState_Value
#113002
0TOP_Control_Clock
#114002
1TOP_Control_Clock
b00111001 TOP_Outputs_Value
b00111010 TOP_Internals_NextValue
b00111001 TOP_State_Value
#114001
b00111010 TOP_NextState_Value
#115002
0TOP_Control_Clock
#116002
1TOP_Control_Clock
b00111010 TOP_Outputs_Value
b00111011 TOP_Internals_NextValue
b00111010 TOP_State_Value
#116001
b00111011 TOP_NextState_Value
#117002
0TOP_Control_Clock
#118002
1TOP_Control_Clock
b00111011 TOP_Outputs_Value
b00111100 TOP_Internals_NextValue
b00111011 TOP_State_Value
#118001
b00111100 TOP_NextState_Value
#119002
0TOP_Control_Clock
#120002
1TOP_Control_Clock
b00111100 TOP_Outputs_Value
b00111101 TOP_Internals_NextValue
b00111100 TOP_State_Value
#120001
b00111101 TOP_NextState_Value
#121002
0TOP_Control_Clock
#122002
1TOP_Control_Clock
b00111101 TOP_Outputs_Value
b00111110 TOP_Internals_NextValue
b00111101 TOP_State_Value
#122001
b00111110 TOP_NextState_Value
#123002
0TOP_Control_Clock
#124002
1TOP_Control_Clock
b00111110 TOP_Outputs_Value
b00111111 TOP_Internals_NextValue
b00111110 TOP_State_Value
#124001
b00111111 TOP_NextState_Value
#125002
0TOP_Control_Clock
#126002
1TOP_Control_Clock
b00111111 TOP_Outputs_Value
b01000000 TOP_Internals_NextValue
b00111111 TOP_State_Value
#126001
b01000000 TOP_NextState_Value
#127002
0TOP_Control_Clock
#128002
1TOP_Control_Clock
b01000000 TOP_Outputs_Value
b01000001 TOP_Internals_NextValue
b01000000 TOP_State_Value
#128001
b01000001 TOP_NextState_Value
#129002
0TOP_Control_Clock
#130002
1TOP_Control_Clock
b01000001 TOP_Outputs_Value
b01000010 TOP_Internals_NextValue
b01000001 TOP_State_Value
#130001
b01000010 TOP_NextState_Value
#131002
0TOP_Control_Clock
#132002
1TOP_Control_Clock
b01000010 TOP_Outputs_Value
b01000011 TOP_Internals_NextValue
b01000010 TOP_State_Value
#132001
b01000011 TOP_NextState_Value
#133002
0TOP_Control_Clock
#134002
1TOP_Control_Clock
b01000011 TOP_Outputs_Value
b01000100 TOP_Internals_NextValue
b01000011 TOP_State_Value
#134001
b01000100 TOP_NextState_Value
#135002
0TOP_Control_Clock
#136002
1TOP_Control_Clock
b01000100 TOP_Outputs_Value
b01000101 TOP_Internals_NextValue
b01000100 TOP_State_Value
#136001
b01000101 TOP_NextState_Value
#137002
0TOP_Control_Clock
#138002
1TOP_Control_Clock
b01000101 TOP_Outputs_Value
b01000110 TOP_Internals_NextValue
b01000101 TOP_State_Value
#138001
b01000110 TOP_NextState_Value
#139002
0TOP_Control_Clock
#140002
1TOP_Control_Clock
b01000110 TOP_Outputs_Value
b01000111 TOP_Internals_NextValue
b01000110 TOP_State_Value
#140001
b01000111 TOP_NextState_Value
#141002
0TOP_Control_Clock
#142002
1TOP_Control_Clock
b01000111 TOP_Outputs_Value
b01001000 TOP_Internals_NextValue
b01000111 TOP_State_Value
#142001
b01001000 TOP_NextState_Value
#143002
0TOP_Control_Clock
#144002
1TOP_Control_Clock
b01001000 TOP_Outputs_Value
b01001001 TOP_Internals_NextValue
b01001000 TOP_State_Value
#144001
b01001001 TOP_NextState_Value
#145002
0TOP_Control_Clock
#146002
1TOP_Control_Clock
b01001001 TOP_Outputs_Value
b01001010 TOP_Internals_NextValue
b01001001 TOP_State_Value
#146001
b01001010 TOP_NextState_Value
#147002
0TOP_Control_Clock
#148002
1TOP_Control_Clock
b01001010 TOP_Outputs_Value
b01001011 TOP_Internals_NextValue
b01001010 TOP_State_Value
#148001
b01001011 TOP_NextState_Value
#149002
0TOP_Control_Clock
#150002
1TOP_Control_Clock
b01001011 TOP_Outputs_Value
b01001100 TOP_Internals_NextValue
b01001011 TOP_State_Value
#150001
b01001100 TOP_NextState_Value
#151002
0TOP_Control_Clock
#152002
1TOP_Control_Clock
b01001100 TOP_Outputs_Value
b01001101 TOP_Internals_NextValue
b01001100 TOP_State_Value
#152001
b01001101 TOP_NextState_Value
#153002
0TOP_Control_Clock
#154002
1TOP_Control_Clock
b01001101 TOP_Outputs_Value
b01001110 TOP_Internals_NextValue
b01001101 TOP_State_Value
#154001
b01001110 TOP_NextState_Value
#155002
0TOP_Control_Clock
#156002
1TOP_Control_Clock
b01001110 TOP_Outputs_Value
b01001111 TOP_Internals_NextValue
b01001110 TOP_State_Value
#156001
b01001111 TOP_NextState_Value
#157002
0TOP_Control_Clock
#158002
1TOP_Control_Clock
b01001111 TOP_Outputs_Value
b01010000 TOP_Internals_NextValue
b01001111 TOP_State_Value
#158001
b01010000 TOP_NextState_Value
#159002
0TOP_Control_Clock
#160002
1TOP_Control_Clock
b01010000 TOP_Outputs_Value
b01010001 TOP_Internals_NextValue
b01010000 TOP_State_Value
#160001
b01010001 TOP_NextState_Value
#161002
0TOP_Control_Clock
#162002
1TOP_Control_Clock
b01010001 TOP_Outputs_Value
b01010010 TOP_Internals_NextValue
b01010001 TOP_State_Value
#162001
b01010010 TOP_NextState_Value
#163002
0TOP_Control_Clock
#164002
1TOP_Control_Clock
b01010010 TOP_Outputs_Value
b01010011 TOP_Internals_NextValue
b01010010 TOP_State_Value
#164001
b01010011 TOP_NextState_Value
#165002
0TOP_Control_Clock
#166002
1TOP_Control_Clock
b01010011 TOP_Outputs_Value
b01010100 TOP_Internals_NextValue
b01010011 TOP_State_Value
#166001
b01010100 TOP_NextState_Value
#167002
0TOP_Control_Clock
#168002
1TOP_Control_Clock
b01010100 TOP_Outputs_Value
b01010101 TOP_Internals_NextValue
b01010100 TOP_State_Value
#168001
b01010101 TOP_NextState_Value
#169002
0TOP_Control_Clock
#170002
1TOP_Control_Clock
b01010101 TOP_Outputs_Value
b01010110 TOP_Internals_NextValue
b01010101 TOP_State_Value
#170001
b01010110 TOP_NextState_Value
#171002
0TOP_Control_Clock
#172002
1TOP_Control_Clock
b01010110 TOP_Outputs_Value
b01010111 TOP_Internals_NextValue
b01010110 TOP_State_Value
#172001
b01010111 TOP_NextState_Value
#173002
0TOP_Control_Clock
#174002
1TOP_Control_Clock
b01010111 TOP_Outputs_Value
b01011000 TOP_Internals_NextValue
b01010111 TOP_State_Value
#174001
b01011000 TOP_NextState_Value
#175002
0TOP_Control_Clock
#176002
1TOP_Control_Clock
b01011000 TOP_Outputs_Value
b01011001 TOP_Internals_NextValue
b01011000 TOP_State_Value
#176001
b01011001 TOP_NextState_Value
#177002
0TOP_Control_Clock
#178002
1TOP_Control_Clock
b01011001 TOP_Outputs_Value
b01011010 TOP_Internals_NextValue
b01011001 TOP_State_Value
#178001
b01011010 TOP_NextState_Value
#179002
0TOP_Control_Clock
#180002
1TOP_Control_Clock
b01011010 TOP_Outputs_Value
b01011011 TOP_Internals_NextValue
b01011010 TOP_State_Value
#180001
b01011011 TOP_NextState_Value
#181002
0TOP_Control_Clock
#182002
1TOP_Control_Clock
b01011011 TOP_Outputs_Value
b01011100 TOP_Internals_NextValue
b01011011 TOP_State_Value
#182001
b01011100 TOP_NextState_Value
#183002
0TOP_Control_Clock
#184002
1TOP_Control_Clock
b01011100 TOP_Outputs_Value
b01011101 TOP_Internals_NextValue
b01011100 TOP_State_Value
#184001
b01011101 TOP_NextState_Value
#185002
0TOP_Control_Clock
#186002
1TOP_Control_Clock
b01011101 TOP_Outputs_Value
b01011110 TOP_Internals_NextValue
b01011101 TOP_State_Value
#186001
b01011110 TOP_NextState_Value
#187002
0TOP_Control_Clock
#188002
1TOP_Control_Clock
b01011110 TOP_Outputs_Value
b01011111 TOP_Internals_NextValue
b01011110 TOP_State_Value
#188001
b01011111 TOP_NextState_Value
#189002
0TOP_Control_Clock
#190002
1TOP_Control_Clock
b01011111 TOP_Outputs_Value
b01100000 TOP_Internals_NextValue
b01011111 TOP_State_Value
#190001
b01100000 TOP_NextState_Value
#191002
0TOP_Control_Clock
#192002
1TOP_Control_Clock
b01100000 TOP_Outputs_Value
b01100001 TOP_Internals_NextValue
b01100000 TOP_State_Value
#192001
b01100001 TOP_NextState_Value
#193002
0TOP_Control_Clock
#194002
1TOP_Control_Clock
b01100001 TOP_Outputs_Value
b01100010 TOP_Internals_NextValue
b01100001 TOP_State_Value
#194001
b01100010 TOP_NextState_Value
#195002
0TOP_Control_Clock
#196002
1TOP_Control_Clock
b01100010 TOP_Outputs_Value
b01100011 TOP_Internals_NextValue
b01100010 TOP_State_Value
#196001
b01100011 TOP_NextState_Value
#197002
0TOP_Control_Clock
#198002
1TOP_Control_Clock
b01100011 TOP_Outputs_Value
b01100100 TOP_Internals_NextValue
b01100011 TOP_State_Value
#198001
b01100100 TOP_NextState_Value
#199002
0TOP_Control_Clock
#200002
1TOP_Control_Clock
b01100100 TOP_Outputs_Value
b01100101 TOP_Internals_NextValue
b01100100 TOP_State_Value
#200001
b01100101 TOP_NextState_Value
