rtl/rtl.tests/SimResults/NotGateFeedbackModuleTest.vcd
$date
Sunday, 26 June 2022 9:01:41 PM
$end
$version
Quokka VCD Generator
$end
$timescale
1s
$end
$scope module TOP $end
$scope module Control $end
$var wire 1 TOP_Control_Clock TOP_Control_Clock $end
$upscope
$end
$scope module Inputs $end
$upscope
$end
$scope module Outputs $end
$upscope
$end
$scope module Internals $end
$upscope
$end
$scope module Inverter $end
$scope module Inputs $end
$var wire 1 TOP_Inverter_Inputs_Input TOP_Inverter_Inputs_Input $end
$upscope
$end
$scope module Outputs $end
$var wire 1 TOP_Inverter_Outputs_Output TOP_Inverter_Outputs_Output $end
$upscope
$end
$scope module Internals $end
$upscope
$end
$upscope
$end
$upscope
$end
$enddefinitions
$end
#0
0TOP_Control_Clock
0TOP_Inverter_Inputs_Input
1TOP_Inverter_Outputs_Output
#1
1TOP_Inverter_Inputs_Input
0TOP_Inverter_Outputs_Output
#2
0TOP_Inverter_Inputs_Input
1TOP_Inverter_Outputs_Output
#3
1TOP_Inverter_Inputs_Input
0TOP_Inverter_Outputs_Output
#4
0TOP_Inverter_Inputs_Input
1TOP_Inverter_Outputs_Output
#5
1TOP_Inverter_Inputs_Input
0TOP_Inverter_Outputs_Output
#6
0TOP_Inverter_Inputs_Input
1TOP_Inverter_Outputs_Output
#7
1TOP_Inverter_Inputs_Input
0TOP_Inverter_Outputs_Output
#8
0TOP_Inverter_Inputs_Input
1TOP_Inverter_Outputs_Output
#9
1TOP_Inverter_Inputs_Input
0TOP_Inverter_Outputs_Output
#10
0TOP_Inverter_Inputs_Input
1TOP_Inverter_Outputs_Output
#11
1TOP_Inverter_Inputs_Input
0TOP_Inverter_Outputs_Output
#12
0TOP_Inverter_Inputs_Input
1TOP_Inverter_Outputs_Output
#13
1TOP_Inverter_Inputs_Input
0TOP_Inverter_Outputs_Output
#14
0TOP_Inverter_Inputs_Input
1TOP_Inverter_Outputs_Output
#15
1TOP_Inverter_Inputs_Input
0TOP_Inverter_Outputs_Output
#16
0TOP_Inverter_Inputs_Input
1TOP_Inverter_Outputs_Output
#17
1TOP_Inverter_Inputs_Input
0TOP_Inverter_Outputs_Output
#18
0TOP_Inverter_Inputs_Input
1TOP_Inverter_Outputs_Output
#19
1TOP_Inverter_Inputs_Input
0TOP_Inverter_Outputs_Output
#20
0TOP_Inverter_Inputs_Input
1TOP_Inverter_Outputs_Output
#21
1TOP_Inverter_Inputs_Input
0TOP_Inverter_Outputs_Output
#22
0TOP_Inverter_Inputs_Input
1TOP_Inverter_Outputs_Output
#23
1TOP_Inverter_Inputs_Input
0TOP_Inverter_Outputs_Output
#24
0TOP_Inverter_Inputs_Input
1TOP_Inverter_Outputs_Output
#25
1TOP_Inverter_Inputs_Input
0TOP_Inverter_Outputs_Output
#26
0TOP_Inverter_Inputs_Input
1TOP_Inverter_Outputs_Output
#27
1TOP_Inverter_Inputs_Input
0TOP_Inverter_Outputs_Output
#28
0TOP_Inverter_Inputs_Input
1TOP_Inverter_Outputs_Output
#29
1TOP_Inverter_Inputs_Input
0TOP_Inverter_Outputs_Output
#30
0TOP_Inverter_Inputs_Input
1TOP_Inverter_Outputs_Output
#31
1TOP_Inverter_Inputs_Input
0TOP_Inverter_Outputs_Output
#32
0TOP_Inverter_Inputs_Input
1TOP_Inverter_Outputs_Output
#33
1TOP_Inverter_Inputs_Input
0TOP_Inverter_Outputs_Output
#34
0TOP_Inverter_Inputs_Input
1TOP_Inverter_Outputs_Output
#35
1TOP_Inverter_Inputs_Input
0TOP_Inverter_Outputs_Output
#36
0TOP_Inverter_Inputs_Input
1TOP_Inverter_Outputs_Output
#37
1TOP_Inverter_Inputs_Input
0TOP_Inverter_Outputs_Output
#38
0TOP_Inverter_Inputs_Input
1TOP_Inverter_Outputs_Output
#39
1TOP_Inverter_Inputs_Input
0TOP_Inverter_Outputs_Output
#40
0TOP_Inverter_Inputs_Input
1TOP_Inverter_Outputs_Output
#41
1TOP_Inverter_Inputs_Input
0TOP_Inverter_Outputs_Output
#42
0TOP_Inverter_Inputs_Input
1TOP_Inverter_Outputs_Output
#43
1TOP_Inverter_Inputs_Input
0TOP_Inverter_Outputs_Output
#44
0TOP_Inverter_Inputs_Input
1TOP_Inverter_Outputs_Output
#45
1TOP_Inverter_Inputs_Input
0TOP_Inverter_Outputs_Output
#46
0TOP_Inverter_Inputs_Input
1TOP_Inverter_Outputs_Output
#47
1TOP_Inverter_Inputs_Input
0TOP_Inverter_Outputs_Output
#48
0TOP_Inverter_Inputs_Input
1TOP_Inverter_Outputs_Output
#49
1TOP_Inverter_Inputs_Input
0TOP_Inverter_Outputs_Output
#50
0TOP_Inverter_Inputs_Input
1TOP_Inverter_Outputs_Output
#51
1TOP_Inverter_Inputs_Input
0TOP_Inverter_Outputs_Output
#52
0TOP_Inverter_Inputs_Input
1TOP_Inverter_Outputs_Output
#53
1TOP_Inverter_Inputs_Input
0TOP_Inverter_Outputs_Output
#54
0TOP_Inverter_Inputs_Input
1TOP_Inverter_Outputs_Output
#55
1TOP_Inverter_Inputs_Input
0TOP_Inverter_Outputs_Output
#56
0TOP_Inverter_Inputs_Input
1TOP_Inverter_Outputs_Output
#57
1TOP_Inverter_Inputs_Input
0TOP_Inverter_Outputs_Output
#58
0TOP_Inverter_Inputs_Input
1TOP_Inverter_Outputs_Output
#59
1TOP_Inverter_Inputs_Input
0TOP_Inverter_Outputs_Output
#60
0TOP_Inverter_Inputs_Input
1TOP_Inverter_Outputs_Output
#61
1TOP_Inverter_Inputs_Input
0TOP_Inverter_Outputs_Output
#62
0TOP_Inverter_Inputs_Input
1TOP_Inverter_Outputs_Output
#63
1TOP_Inverter_Inputs_Input
0TOP_Inverter_Outputs_Output
#64
0TOP_Inverter_Inputs_Input
1TOP_Inverter_Outputs_Output
#65
1TOP_Inverter_Inputs_Input
0TOP_Inverter_Outputs_Output
#66
0TOP_Inverter_Inputs_Input
1TOP_Inverter_Outputs_Output
#67
1TOP_Inverter_Inputs_Input
0TOP_Inverter_Outputs_Output
#68
0TOP_Inverter_Inputs_Input
1TOP_Inverter_Outputs_Output
#69
1TOP_Inverter_Inputs_Input
0TOP_Inverter_Outputs_Output
#70
0TOP_Inverter_Inputs_Input
1TOP_Inverter_Outputs_Output
#71
1TOP_Inverter_Inputs_Input
0TOP_Inverter_Outputs_Output
#72
0TOP_Inverter_Inputs_Input
1TOP_Inverter_Outputs_Output
#73
1TOP_Inverter_Inputs_Input
0TOP_Inverter_Outputs_Output
#74
0TOP_Inverter_Inputs_Input
1TOP_Inverter_Outputs_Output
#75
1TOP_Inverter_Inputs_Input
0TOP_Inverter_Outputs_Output
#76
0TOP_Inverter_Inputs_Input
1TOP_Inverter_Outputs_Output
#77
1TOP_Inverter_Inputs_Input
0TOP_Inverter_Outputs_Output
#78
0TOP_Inverter_Inputs_Input
1TOP_Inverter_Outputs_Output
#79
1TOP_Inverter_Inputs_Input
0TOP_Inverter_Outputs_Output
#80
0TOP_Inverter_Inputs_Input
1TOP_Inverter_Outputs_Output
#81
1TOP_Inverter_Inputs_Input
0TOP_Inverter_Outputs_Output
#82
0TOP_Inverter_Inputs_Input
1TOP_Inverter_Outputs_Output
#83
1TOP_Inverter_Inputs_Input
0TOP_Inverter_Outputs_Output
#84
0TOP_Inverter_Inputs_Input
1TOP_Inverter_Outputs_Output
#85
1TOP_Inverter_Inputs_Input
0TOP_Inverter_Outputs_Output
#86
0TOP_Inverter_Inputs_Input
1TOP_Inverter_Outputs_Output
#87
1TOP_Inverter_Inputs_Input
0TOP_Inverter_Outputs_Output
#88
0TOP_Inverter_Inputs_Input
1TOP_Inverter_Outputs_Output
#89
1TOP_Inverter_Inputs_Input
0TOP_Inverter_Outputs_Output
#90
0TOP_Inverter_Inputs_Input
1TOP_Inverter_Outputs_Output
#91
1TOP_Inverter_Inputs_Input
0TOP_Inverter_Outputs_Output
#92
0TOP_Inverter_Inputs_Input
1TOP_Inverter_Outputs_Output
#93
1TOP_Inverter_Inputs_Input
0TOP_Inverter_Outputs_Output
#94
0TOP_Inverter_Inputs_Input
1TOP_Inverter_Outputs_Output
#95
1TOP_Inverter_Inputs_Input
0TOP_Inverter_Outputs_Output
#96
0TOP_Inverter_Inputs_Input
1TOP_Inverter_Outputs_Output
#97
1TOP_Inverter_Inputs_Input
0TOP_Inverter_Outputs_Output
#98
0TOP_Inverter_Inputs_Input
1TOP_Inverter_Outputs_Output
#99
1TOP_Inverter_Inputs_Input
0TOP_Inverter_Outputs_Output
#100
0TOP_Inverter_Inputs_Input
1TOP_Inverter_Outputs_Output
#101
1TOP_Inverter_Inputs_Input
0TOP_Inverter_Outputs_Output
#102
0TOP_Inverter_Inputs_Input
1TOP_Inverter_Outputs_Output
#103
1TOP_Inverter_Inputs_Input
0TOP_Inverter_Outputs_Output
#104
0TOP_Inverter_Inputs_Input
1TOP_Inverter_Outputs_Output
#105
1TOP_Inverter_Inputs_Input
0TOP_Inverter_Outputs_Output
#106
0TOP_Inverter_Inputs_Input
1TOP_Inverter_Outputs_Output
#107
1TOP_Inverter_Inputs_Input
0TOP_Inverter_Outputs_Output
#108
0TOP_Inverter_Inputs_Input
1TOP_Inverter_Outputs_Output
#109
1TOP_Inverter_Inputs_Input
0TOP_Inverter_Outputs_Output
#110
0TOP_Inverter_Inputs_Input
1TOP_Inverter_Outputs_Output
#111
1TOP_Inverter_Inputs_Input
0TOP_Inverter_Outputs_Output
#112
0TOP_Inverter_Inputs_Input
1TOP_Inverter_Outputs_Output
#113
1TOP_Inverter_Inputs_Input
0TOP_Inverter_Outputs_Output
#114
0TOP_Inverter_Inputs_Input
1TOP_Inverter_Outputs_Output
#115
1TOP_Inverter_Inputs_Input
0TOP_Inverter_Outputs_Output
#116
0TOP_Inverter_Inputs_Input
1TOP_Inverter_Outputs_Output
#117
1TOP_Inverter_Inputs_Input
0TOP_Inverter_Outputs_Output
#118
0TOP_Inverter_Inputs_Input
1TOP_Inverter_Outputs_Output
#119
1TOP_Inverter_Inputs_Input
0TOP_Inverter_Outputs_Output
#120
0TOP_Inverter_Inputs_Input
1TOP_Inverter_Outputs_Output
#121
1TOP_Inverter_Inputs_Input
0TOP_Inverter_Outputs_Output
#122
0TOP_Inverter_Inputs_Input
1TOP_Inverter_Outputs_Output
#123
1TOP_Inverter_Inputs_Input
0TOP_Inverter_Outputs_Output
#124
0TOP_Inverter_Inputs_Input
1TOP_Inverter_Outputs_Output
#125
1TOP_Inverter_Inputs_Input
0TOP_Inverter_Outputs_Output
#126
0TOP_Inverter_Inputs_Input
1TOP_Inverter_Outputs_Output
#127
1TOP_Inverter_Inputs_Input
0TOP_Inverter_Outputs_Output
#128
0TOP_Inverter_Inputs_Input
1TOP_Inverter_Outputs_Output
#129
1TOP_Inverter_Inputs_Input
0TOP_Inverter_Outputs_Output
#130
0TOP_Inverter_Inputs_Input
1TOP_Inverter_Outputs_Output
#131
1TOP_Inverter_Inputs_Input
0TOP_Inverter_Outputs_Output
#132
0TOP_Inverter_Inputs_Input
1TOP_Inverter_Outputs_Output
#133
1TOP_Inverter_Inputs_Input
0TOP_Inverter_Outputs_Output
#134
0TOP_Inverter_Inputs_Input
1TOP_Inverter_Outputs_Output
#135
1TOP_Inverter_Inputs_Input
0TOP_Inverter_Outputs_Output
#136
0TOP_Inverter_Inputs_Input
1TOP_Inverter_Outputs_Output
#137
1TOP_Inverter_Inputs_Input
0TOP_Inverter_Outputs_Output
#138
0TOP_Inverter_Inputs_Input
1TOP_Inverter_Outputs_Output
#139
1TOP_Inverter_Inputs_Input
0TOP_Inverter_Outputs_Output
#140
0TOP_Inverter_Inputs_Input
1TOP_Inverter_Outputs_Output
#141
1TOP_Inverter_Inputs_Input
0TOP_Inverter_Outputs_Output
#142
0TOP_Inverter_Inputs_Input
1TOP_Inverter_Outputs_Output
#143
1TOP_Inverter_Inputs_Input
0TOP_Inverter_Outputs_Output
#144
0TOP_Inverter_Inputs_Input
1TOP_Inverter_Outputs_Output
#145
1TOP_Inverter_Inputs_Input
0TOP_Inverter_Outputs_Output
#146
0TOP_Inverter_Inputs_Input
1TOP_Inverter_Outputs_Output
#147
1TOP_Inverter_Inputs_Input
0TOP_Inverter_Outputs_Output
#148
0TOP_Inverter_Inputs_Input
1TOP_Inverter_Outputs_Output
#149
1TOP_Inverter_Inputs_Input
0TOP_Inverter_Outputs_Output
#150
0TOP_Inverter_Inputs_Input
1TOP_Inverter_Outputs_Output
#151
1TOP_Inverter_Inputs_Input
0TOP_Inverter_Outputs_Output
#152
0TOP_Inverter_Inputs_Input
1TOP_Inverter_Outputs_Output
#153
1TOP_Inverter_Inputs_Input
0TOP_Inverter_Outputs_Output
#154
0TOP_Inverter_Inputs_Input
1TOP_Inverter_Outputs_Output
#155
1TOP_Inverter_Inputs_Input
0TOP_Inverter_Outputs_Output
#156
0TOP_Inverter_Inputs_Input
1TOP_Inverter_Outputs_Output
#157
1TOP_Inverter_Inputs_Input
0TOP_Inverter_Outputs_Output
#158
0TOP_Inverter_Inputs_Input
1TOP_Inverter_Outputs_Output
#159
1TOP_Inverter_Inputs_Input
0TOP_Inverter_Outputs_Output
#160
0TOP_Inverter_Inputs_Input
1TOP_Inverter_Outputs_Output
#161
1TOP_Inverter_Inputs_Input
0TOP_Inverter_Outputs_Output
#162
0TOP_Inverter_Inputs_Input
1TOP_Inverter_Outputs_Output
#163
1TOP_Inverter_Inputs_Input
0TOP_Inverter_Outputs_Output
#164
0TOP_Inverter_Inputs_Input
1TOP_Inverter_Outputs_Output
#165
1TOP_Inverter_Inputs_Input
0TOP_Inverter_Outputs_Output
#166
0TOP_Inverter_Inputs_Input
1TOP_Inverter_Outputs_Output
#167
1TOP_Inverter_Inputs_Input
0TOP_Inverter_Outputs_Output
#168
0TOP_Inverter_Inputs_Input
1TOP_Inverter_Outputs_Output
#169
1TOP_Inverter_Inputs_Input
0TOP_Inverter_Outputs_Output
#170
0TOP_Inverter_Inputs_Input
1TOP_Inverter_Outputs_Output
#171
1TOP_Inverter_Inputs_Input
0TOP_Inverter_Outputs_Output
#172
0TOP_Inverter_Inputs_Input
1TOP_Inverter_Outputs_Output
#173
1TOP_Inverter_Inputs_Input
0TOP_Inverter_Outputs_Output
#174
0TOP_Inverter_Inputs_Input
1TOP_Inverter_Outputs_Output
#175
1TOP_Inverter_Inputs_Input
0TOP_Inverter_Outputs_Output
#176
0TOP_Inverter_Inputs_Input
1TOP_Inverter_Outputs_Output
#177
1TOP_Inverter_Inputs_Input
0TOP_Inverter_Outputs_Output
#178
0TOP_Inverter_Inputs_Input
1TOP_Inverter_Outputs_Output
#179
1TOP_Inverter_Inputs_Input
0TOP_Inverter_Outputs_Output
#180
0TOP_Inverter_Inputs_Input
1TOP_Inverter_Outputs_Output
#181
1TOP_Inverter_Inputs_Input
0TOP_Inverter_Outputs_Output
#182
0TOP_Inverter_Inputs_Input
1TOP_Inverter_Outputs_Output
#183
1TOP_Inverter_Inputs_Input
0TOP_Inverter_Outputs_Output
#184
0TOP_Inverter_Inputs_Input
1TOP_Inverter_Outputs_Output
#185
1TOP_Inverter_Inputs_Input
0TOP_Inverter_Outputs_Output
#186
0TOP_Inverter_Inputs_Input
1TOP_Inverter_Outputs_Output
#187
1TOP_Inverter_Inputs_Input
0TOP_Inverter_Outputs_Output
#188
0TOP_Inverter_Inputs_Input
1TOP_Inverter_Outputs_Output
#189
1TOP_Inverter_Inputs_Input
0TOP_Inverter_Outputs_Output
#190
0TOP_Inverter_Inputs_Input
1TOP_Inverter_Outputs_Output
#191
1TOP_Inverter_Inputs_Input
0TOP_Inverter_Outputs_Output
#192
0TOP_Inverter_Inputs_Input
1TOP_Inverter_Outputs_Output
#193
1TOP_Inverter_Inputs_Input
0TOP_Inverter_Outputs_Output
#194
0TOP_Inverter_Inputs_Input
1TOP_Inverter_Outputs_Output
#195
1TOP_Inverter_Inputs_Input
0TOP_Inverter_Outputs_Output
#196
0TOP_Inverter_Inputs_Input
1TOP_Inverter_Outputs_Output
#197
1TOP_Inverter_Inputs_Input
0TOP_Inverter_Outputs_Output
#198
0TOP_Inverter_Inputs_Input
1TOP_Inverter_Outputs_Output
#199
1TOP_Inverter_Inputs_Input
0TOP_Inverter_Outputs_Output
#200
0TOP_Inverter_Inputs_Input
1TOP_Inverter_Outputs_Output
#201
1TOP_Inverter_Inputs_Input
0TOP_Inverter_Outputs_Output
#202
0TOP_Inverter_Inputs_Input
1TOP_Inverter_Outputs_Output
#203
1TOP_Inverter_Inputs_Input
0TOP_Inverter_Outputs_Output
#204
0TOP_Inverter_Inputs_Input
1TOP_Inverter_Outputs_Output
#205
1TOP_Inverter_Inputs_Input
0TOP_Inverter_Outputs_Output
#206
0TOP_Inverter_Inputs_Input
1TOP_Inverter_Outputs_Output
#207
1TOP_Inverter_Inputs_Input
0TOP_Inverter_Outputs_Output
#208
0TOP_Inverter_Inputs_Input
1TOP_Inverter_Outputs_Output
#209
1TOP_Inverter_Inputs_Input
0TOP_Inverter_Outputs_Output
#210
0TOP_Inverter_Inputs_Input
1TOP_Inverter_Outputs_Output
#211
1TOP_Inverter_Inputs_Input
0TOP_Inverter_Outputs_Output
#212
0TOP_Inverter_Inputs_Input
1TOP_Inverter_Outputs_Output
#213
1TOP_Inverter_Inputs_Input
0TOP_Inverter_Outputs_Output
#214
0TOP_Inverter_Inputs_Input
1TOP_Inverter_Outputs_Output
#215
1TOP_Inverter_Inputs_Input
0TOP_Inverter_Outputs_Output
#216
0TOP_Inverter_Inputs_Input
1TOP_Inverter_Outputs_Output
#217
1TOP_Inverter_Inputs_Input
0TOP_Inverter_Outputs_Output
#218
0TOP_Inverter_Inputs_Input
1TOP_Inverter_Outputs_Output
#219
1TOP_Inverter_Inputs_Input
0TOP_Inverter_Outputs_Output
#220
0TOP_Inverter_Inputs_Input
1TOP_Inverter_Outputs_Output
#221
1TOP_Inverter_Inputs_Input
0TOP_Inverter_Outputs_Output
#222
0TOP_Inverter_Inputs_Input
1TOP_Inverter_Outputs_Output
#223
1TOP_Inverter_Inputs_Input
0TOP_Inverter_Outputs_Output
#224
0TOP_Inverter_Inputs_Input
1TOP_Inverter_Outputs_Output
#225
1TOP_Inverter_Inputs_Input
0TOP_Inverter_Outputs_Output
#226
0TOP_Inverter_Inputs_Input
1TOP_Inverter_Outputs_Output
#227
1TOP_Inverter_Inputs_Input
0TOP_Inverter_Outputs_Output
#228
0TOP_Inverter_Inputs_Input
1TOP_Inverter_Outputs_Output
#229
1TOP_Inverter_Inputs_Input
0TOP_Inverter_Outputs_Output
#230
0TOP_Inverter_Inputs_Input
1TOP_Inverter_Outputs_Output
#231
1TOP_Inverter_Inputs_Input
0TOP_Inverter_Outputs_Output
#232
0TOP_Inverter_Inputs_Input
1TOP_Inverter_Outputs_Output
#233
1TOP_Inverter_Inputs_Input
0TOP_Inverter_Outputs_Output
#234
0TOP_Inverter_Inputs_Input
1TOP_Inverter_Outputs_Output
#235
1TOP_Inverter_Inputs_Input
0TOP_Inverter_Outputs_Output
#236
0TOP_Inverter_Inputs_Input
1TOP_Inverter_Outputs_Output
#237
1TOP_Inverter_Inputs_Input
0TOP_Inverter_Outputs_Output
#238
0TOP_Inverter_Inputs_Input
1TOP_Inverter_Outputs_Output
#239
1TOP_Inverter_Inputs_Input
0TOP_Inverter_Outputs_Output
#240
0TOP_Inverter_Inputs_Input
1TOP_Inverter_Outputs_Output
#241
1TOP_Inverter_Inputs_Input
0TOP_Inverter_Outputs_Output
#242
0TOP_Inverter_Inputs_Input
1TOP_Inverter_Outputs_Output
#243
1TOP_Inverter_Inputs_Input
0TOP_Inverter_Outputs_Output
#244
0TOP_Inverter_Inputs_Input
1TOP_Inverter_Outputs_Output
#245
1TOP_Inverter_Inputs_Input
0TOP_Inverter_Outputs_Output
#246
0TOP_Inverter_Inputs_Input
1TOP_Inverter_Outputs_Output
#247
1TOP_Inverter_Inputs_Input
0TOP_Inverter_Outputs_Output
#248
0TOP_Inverter_Inputs_Input
1TOP_Inverter_Outputs_Output
#249
1TOP_Inverter_Inputs_Input
0TOP_Inverter_Outputs_Output
#250
0TOP_Inverter_Inputs_Input
1TOP_Inverter_Outputs_Output
#251
1TOP_Inverter_Inputs_Input
0TOP_Inverter_Outputs_Output
#252
0TOP_Inverter_Inputs_Input
1TOP_Inverter_Outputs_Output
#253
1TOP_Inverter_Inputs_Input
0TOP_Inverter_Outputs_Output
#254
0TOP_Inverter_Inputs_Input
1TOP_Inverter_Outputs_Output
#255
1TOP_Inverter_Inputs_Input
0TOP_Inverter_Outputs_Output
#256
0TOP_Inverter_Inputs_Input
1TOP_Inverter_Outputs_Output
#257
1TOP_Inverter_Inputs_Input
0TOP_Inverter_Outputs_Output
#258
0TOP_Inverter_Inputs_Input
1TOP_Inverter_Outputs_Output
#259
1TOP_Inverter_Inputs_Input
0TOP_Inverter_Outputs_Output
#260
0TOP_Inverter_Inputs_Input
1TOP_Inverter_Outputs_Output
#261
1TOP_Inverter_Inputs_Input
0TOP_Inverter_Outputs_Output
#262
0TOP_Inverter_Inputs_Input
1TOP_Inverter_Outputs_Output
#263
1TOP_Inverter_Inputs_Input
0TOP_Inverter_Outputs_Output
#264
0TOP_Inverter_Inputs_Input
1TOP_Inverter_Outputs_Output
#265
1TOP_Inverter_Inputs_Input
0TOP_Inverter_Outputs_Output
#266
0TOP_Inverter_Inputs_Input
1TOP_Inverter_Outputs_Output
#267
1TOP_Inverter_Inputs_Input
0TOP_Inverter_Outputs_Output
#268
0TOP_Inverter_Inputs_Input
1TOP_Inverter_Outputs_Output
#269
1TOP_Inverter_Inputs_Input
0TOP_Inverter_Outputs_Output
#270
0TOP_Inverter_Inputs_Input
1TOP_Inverter_Outputs_Output
#271
1TOP_Inverter_Inputs_Input
0TOP_Inverter_Outputs_Output
#272
0TOP_Inverter_Inputs_Input
1TOP_Inverter_Outputs_Output
#273
1TOP_Inverter_Inputs_Input
0TOP_Inverter_Outputs_Output
#274
0TOP_Inverter_Inputs_Input
1TOP_Inverter_Outputs_Output
#275
1TOP_Inverter_Inputs_Input
0TOP_Inverter_Outputs_Output
#276
0TOP_Inverter_Inputs_Input
1TOP_Inverter_Outputs_Output
#277
1TOP_Inverter_Inputs_Input
0TOP_Inverter_Outputs_Output
#278
0TOP_Inverter_Inputs_Input
1TOP_Inverter_Outputs_Output
#279
1TOP_Inverter_Inputs_Input
0TOP_Inverter_Outputs_Output
#280
0TOP_Inverter_Inputs_Input
1TOP_Inverter_Outputs_Output
#281
1TOP_Inverter_Inputs_Input
0TOP_Inverter_Outputs_Output
#282
0TOP_Inverter_Inputs_Input
1TOP_Inverter_Outputs_Output
#283
1TOP_Inverter_Inputs_Input
0TOP_Inverter_Outputs_Output
#284
0TOP_Inverter_Inputs_Input
1TOP_Inverter_Outputs_Output
#285
1TOP_Inverter_Inputs_Input
0TOP_Inverter_Outputs_Output
#286
0TOP_Inverter_Inputs_Input
1TOP_Inverter_Outputs_Output
#287
1TOP_Inverter_Inputs_Input
0TOP_Inverter_Outputs_Output
#288
0TOP_Inverter_Inputs_Input
1TOP_Inverter_Outputs_Output
#289
1TOP_Inverter_Inputs_Input
0TOP_Inverter_Outputs_Output
#290
0TOP_Inverter_Inputs_Input
1TOP_Inverter_Outputs_Output
#291
1TOP_Inverter_Inputs_Input
0TOP_Inverter_Outputs_Output
#292
0TOP_Inverter_Inputs_Input
1TOP_Inverter_Outputs_Output
#293
1TOP_Inverter_Inputs_Input
0TOP_Inverter_Outputs_Output
#294
0TOP_Inverter_Inputs_Input
1TOP_Inverter_Outputs_Output
#295
1TOP_Inverter_Inputs_Input
0TOP_Inverter_Outputs_Output
#296
0TOP_Inverter_Inputs_Input
1TOP_Inverter_Outputs_Output
#297
1TOP_Inverter_Inputs_Input
0TOP_Inverter_Outputs_Output
#298
0TOP_Inverter_Inputs_Input
1TOP_Inverter_Outputs_Output
#299
1TOP_Inverter_Inputs_Input
0TOP_Inverter_Outputs_Output
#300
0TOP_Inverter_Inputs_Input
1TOP_Inverter_Outputs_Output
#301
1TOP_Inverter_Inputs_Input
0TOP_Inverter_Outputs_Output
#302
0TOP_Inverter_Inputs_Input
1TOP_Inverter_Outputs_Output
#303
1TOP_Inverter_Inputs_Input
0TOP_Inverter_Outputs_Output
#304
0TOP_Inverter_Inputs_Input
1TOP_Inverter_Outputs_Output
#305
1TOP_Inverter_Inputs_Input
0TOP_Inverter_Outputs_Output
#306
0TOP_Inverter_Inputs_Input
1TOP_Inverter_Outputs_Output
#307
1TOP_Inverter_Inputs_Input
0TOP_Inverter_Outputs_Output
#308
0TOP_Inverter_Inputs_Input
1TOP_Inverter_Outputs_Output
#309
1TOP_Inverter_Inputs_Input
0TOP_Inverter_Outputs_Output
#310
0TOP_Inverter_Inputs_Input
1TOP_Inverter_Outputs_Output
#311
1TOP_Inverter_Inputs_Input
0TOP_Inverter_Outputs_Output
#312
0TOP_Inverter_Inputs_Input
1TOP_Inverter_Outputs_Output
#313
1TOP_Inverter_Inputs_Input
0TOP_Inverter_Outputs_Output
#314
0TOP_Inverter_Inputs_Input
1TOP_Inverter_Outputs_Output
#315
1TOP_Inverter_Inputs_Input
0TOP_Inverter_Outputs_Output
#316
0TOP_Inverter_Inputs_Input
1TOP_Inverter_Outputs_Output
#317
1TOP_Inverter_Inputs_Input
0TOP_Inverter_Outputs_Output
#318
0TOP_Inverter_Inputs_Input
1TOP_Inverter_Outputs_Output
#319
1TOP_Inverter_Inputs_Input
0TOP_Inverter_Outputs_Output
#320
0TOP_Inverter_Inputs_Input
1TOP_Inverter_Outputs_Output
#321
1TOP_Inverter_Inputs_Input
0TOP_Inverter_Outputs_Output
#322
0TOP_Inverter_Inputs_Input
1TOP_Inverter_Outputs_Output
#323
1TOP_Inverter_Inputs_Input
0TOP_Inverter_Outputs_Output
#324
0TOP_Inverter_Inputs_Input
1TOP_Inverter_Outputs_Output
#325
1TOP_Inverter_Inputs_Input
0TOP_Inverter_Outputs_Output
#326
0TOP_Inverter_Inputs_Input
1TOP_Inverter_Outputs_Output
#327
1TOP_Inverter_Inputs_Input
0TOP_Inverter_Outputs_Output
#328
0TOP_Inverter_Inputs_Input
1TOP_Inverter_Outputs_Output
#329
1TOP_Inverter_Inputs_Input
0TOP_Inverter_Outputs_Output
#330
0TOP_Inverter_Inputs_Input
1TOP_Inverter_Outputs_Output
#331
1TOP_Inverter_Inputs_Input
0TOP_Inverter_Outputs_Output
#332
0TOP_Inverter_Inputs_Input
1TOP_Inverter_Outputs_Output
#333
1TOP_Inverter_Inputs_Input
0TOP_Inverter_Outputs_Output
#334
0TOP_Inverter_Inputs_Input
1TOP_Inverter_Outputs_Output
#335
1TOP_Inverter_Inputs_Input
0TOP_Inverter_Outputs_Output
#336
0TOP_Inverter_Inputs_Input
1TOP_Inverter_Outputs_Output
#337
1TOP_Inverter_Inputs_Input
0TOP_Inverter_Outputs_Output
#338
0TOP_Inverter_Inputs_Input
1TOP_Inverter_Outputs_Output
#339
1TOP_Inverter_Inputs_Input
0TOP_Inverter_Outputs_Output
#340
0TOP_Inverter_Inputs_Input
1TOP_Inverter_Outputs_Output
#341
1TOP_Inverter_Inputs_Input
0TOP_Inverter_Outputs_Output
#342
0TOP_Inverter_Inputs_Input
1TOP_Inverter_Outputs_Output
#343
1TOP_Inverter_Inputs_Input
0TOP_Inverter_Outputs_Output
#344
0TOP_Inverter_Inputs_Input
1TOP_Inverter_Outputs_Output
#345
1TOP_Inverter_Inputs_Input
0TOP_Inverter_Outputs_Output
#346
0TOP_Inverter_Inputs_Input
1TOP_Inverter_Outputs_Output
#347
1TOP_Inverter_Inputs_Input
0TOP_Inverter_Outputs_Output
#348
0TOP_Inverter_Inputs_Input
1TOP_Inverter_Outputs_Output
#349
1TOP_Inverter_Inputs_Input
0TOP_Inverter_Outputs_Output
#350
0TOP_Inverter_Inputs_Input
1TOP_Inverter_Outputs_Output
#351
1TOP_Inverter_Inputs_Input
0TOP_Inverter_Outputs_Output
#352
0TOP_Inverter_Inputs_Input
1TOP_Inverter_Outputs_Output
#353
1TOP_Inverter_Inputs_Input
0TOP_Inverter_Outputs_Output
#354
0TOP_Inverter_Inputs_Input
1TOP_Inverter_Outputs_Output
#355
1TOP_Inverter_Inputs_Input
0TOP_Inverter_Outputs_Output
#356
0TOP_Inverter_Inputs_Input
1TOP_Inverter_Outputs_Output
#357
1TOP_Inverter_Inputs_Input
0TOP_Inverter_Outputs_Output
#358
0TOP_Inverter_Inputs_Input
1TOP_Inverter_Outputs_Output
#359
1TOP_Inverter_Inputs_Input
0TOP_Inverter_Outputs_Output
#360
0TOP_Inverter_Inputs_Input
1TOP_Inverter_Outputs_Output
#361
1TOP_Inverter_Inputs_Input
0TOP_Inverter_Outputs_Output
#362
0TOP_Inverter_Inputs_Input
1TOP_Inverter_Outputs_Output
#363
1TOP_Inverter_Inputs_Input
0TOP_Inverter_Outputs_Output
#364
0TOP_Inverter_Inputs_Input
1TOP_Inverter_Outputs_Output
#365
1TOP_Inverter_Inputs_Input
0TOP_Inverter_Outputs_Output
#366
0TOP_Inverter_Inputs_Input
1TOP_Inverter_Outputs_Output
#367
1TOP_Inverter_Inputs_Input
0TOP_Inverter_Outputs_Output
#368
0TOP_Inverter_Inputs_Input
1TOP_Inverter_Outputs_Output
#369
1TOP_Inverter_Inputs_Input
0TOP_Inverter_Outputs_Output
#370
0TOP_Inverter_Inputs_Input
1TOP_Inverter_Outputs_Output
#371
1TOP_Inverter_Inputs_Input
0TOP_Inverter_Outputs_Output
#372
0TOP_Inverter_Inputs_Input
1TOP_Inverter_Outputs_Output
#373
1TOP_Inverter_Inputs_Input
0TOP_Inverter_Outputs_Output
