rtl/rtl.tests/SimResults/StallControlTestPipelineModuleTest.vcd
$date
Monday, 26 February 2024 8:41:22 PM
$end
$version
Quokka VCD Generator
$end
$timescale
1s
$end
$scope module TOP $end
$scope module Control $end
$var wire 1 TOP_Control_Clock TOP_Control_Clock $end
$upscope
$end
$scope module Inputs $end
$var wire 1 TOP_Inputs_stallPipeline TOP_Inputs_stallPipeline $end
$var wire 1 TOP_Inputs_stallPrev TOP_Inputs_stallPrev $end
$var wire 1 TOP_Inputs_stallStage0 TOP_Inputs_stallStage0 $end
$var wire 1 TOP_Inputs_stallStage1 TOP_Inputs_stallStage1 $end
$var wire 1 TOP_Inputs_stallStage2 TOP_Inputs_stallStage2 $end
$var wire 1 TOP_Inputs_stallStage3 TOP_Inputs_stallStage3 $end
$upscope
$end
$scope module Outputs $end
$var wire 1 TOP_Outputs_outResult_pipelineStalled TOP_Outputs_outResult_pipelineStalled $end
$var wire 1 TOP_Outputs_outResult_pipelineWillStall TOP_Outputs_outResult_pipelineWillStall $end
$var wire 8 TOP_Outputs_outResult_stage0Counter TOP_Outputs_outResult_stage0Counter[7:0] $end
$var wire 1 TOP_Outputs_outResult_stage0Stalled TOP_Outputs_outResult_stage0Stalled $end
$var wire 1 TOP_Outputs_outResult_stage0WillStall TOP_Outputs_outResult_stage0WillStall $end
$var wire 8 TOP_Outputs_outResult_stage1Counter TOP_Outputs_outResult_stage1Counter[7:0] $end
$var wire 1 TOP_Outputs_outResult_stage1Stalled TOP_Outputs_outResult_stage1Stalled $end
$var wire 1 TOP_Outputs_outResult_stage1WillStall TOP_Outputs_outResult_stage1WillStall $end
$var wire 8 TOP_Outputs_outResult_stage2Counter TOP_Outputs_outResult_stage2Counter[7:0] $end
$var wire 1 TOP_Outputs_outResult_stage2Stalled TOP_Outputs_outResult_stage2Stalled $end
$var wire 1 TOP_Outputs_outResult_stage2WillStall TOP_Outputs_outResult_stage2WillStall $end
$var wire 8 TOP_Outputs_outResult_stage3Counter TOP_Outputs_outResult_stage3Counter[7:0] $end
$var wire 1 TOP_Outputs_outResult_stage3Stalled TOP_Outputs_outResult_stage3Stalled $end
$var wire 1 TOP_Outputs_outResult_stage3WillStall TOP_Outputs_outResult_stage3WillStall $end
$upscope
$end
$scope module Internals $end
$upscope
$end
$scope module State $end
$upscope
$end
$scope module NextState $end
$upscope
$end
$scope module Pipelines $end
$scope module Pipeline $end
$scope module Control $end
$var wire 1 TOP_Pipelines_Pipeline_Control_PipelineStalled TOP_Pipelines_Pipeline_Control_PipelineStalled $end
$upscope
$end
$scope module Preview $end
$var wire 1 TOP_Pipelines_Pipeline_Preview_PipelineWillStall TOP_Pipelines_Pipeline_Preview_PipelineWillStall $end
$upscope
$end
$scope module Stages $end
$scope module Stage0 $end
$scope module Inputs $end
$upscope
$end
$scope module State $end
$var wire 8 TOP_Pipelines_Pipeline_Stages_Stage0_State_stage0Counter TOP_Pipelines_Pipeline_Stages_Stage0_State_stage0Counter[7:0] $end
$upscope
$end
$scope module NextState $end
$var wire 8 TOP_Pipelines_Pipeline_Stages_Stage0_NextState_stage0Counter TOP_Pipelines_Pipeline_Stages_Stage0_NextState_stage0Counter[7:0] $end
$upscope
$end
$scope module Control $end
$var wire 1 TOP_Pipelines_Pipeline_Stages_Stage0_Control_StageStalled TOP_Pipelines_Pipeline_Stages_Stage0_Control_StageStalled $end
$upscope
$end
$scope module Request $end
$var wire 1 TOP_Pipelines_Pipeline_Stages_Stage0_Request_StallPipeline TOP_Pipelines_Pipeline_Stages_Stage0_Request_StallPipeline $end
$var wire 1 TOP_Pipelines_Pipeline_Stages_Stage0_Request_StallPrev TOP_Pipelines_Pipeline_Stages_Stage0_Request_StallPrev $end
$var wire 1 TOP_Pipelines_Pipeline_Stages_Stage0_Request_StallSelf TOP_Pipelines_Pipeline_Stages_Stage0_Request_StallSelf $end
$upscope
$end
$scope module Preview $end
$var wire 1 TOP_Pipelines_Pipeline_Stages_Stage0_Preview_StageWillStall TOP_Pipelines_Pipeline_Stages_Stage0_Preview_StageWillStall $end
$upscope
$end
$upscope
$end
$scope module Stage1 $end
$scope module Inputs $end
$upscope
$end
$scope module State $end
$var wire 8 TOP_Pipelines_Pipeline_Stages_Stage1_State_stage0Counter TOP_Pipelines_Pipeline_Stages_Stage1_State_stage0Counter[7:0] $end
$var wire 8 TOP_Pipelines_Pipeline_Stages_Stage1_State_stage1Counter TOP_Pipelines_Pipeline_Stages_Stage1_State_stage1Counter[7:0] $end
$upscope
$end
$scope module NextState $end
$var wire 8 TOP_Pipelines_Pipeline_Stages_Stage1_NextState_stage0Counter TOP_Pipelines_Pipeline_Stages_Stage1_NextState_stage0Counter[7:0] $end
$var wire 8 TOP_Pipelines_Pipeline_Stages_Stage1_NextState_stage1Counter TOP_Pipelines_Pipeline_Stages_Stage1_NextState_stage1Counter[7:0] $end
$upscope
$end
$scope module Control $end
$var wire 1 TOP_Pipelines_Pipeline_Stages_Stage1_Control_StageStalled TOP_Pipelines_Pipeline_Stages_Stage1_Control_StageStalled $end
$upscope
$end
$scope module Request $end
$var wire 1 TOP_Pipelines_Pipeline_Stages_Stage1_Request_StallPipeline TOP_Pipelines_Pipeline_Stages_Stage1_Request_StallPipeline $end
$var wire 1 TOP_Pipelines_Pipeline_Stages_Stage1_Request_StallPrev TOP_Pipelines_Pipeline_Stages_Stage1_Request_StallPrev $end
$var wire 1 TOP_Pipelines_Pipeline_Stages_Stage1_Request_StallSelf TOP_Pipelines_Pipeline_Stages_Stage1_Request_StallSelf $end
$upscope
$end
$scope module Preview $end
$var wire 1 TOP_Pipelines_Pipeline_Stages_Stage1_Preview_StageWillStall TOP_Pipelines_Pipeline_Stages_Stage1_Preview_StageWillStall $end
$upscope
$end
$upscope
$end
$scope module Stage2 $end
$scope module Inputs $end
$upscope
$end
$scope module State $end
$var wire 8 TOP_Pipelines_Pipeline_Stages_Stage2_State_stage0Counter TOP_Pipelines_Pipeline_Stages_Stage2_State_stage0Counter[7:0] $end
$var wire 8 TOP_Pipelines_Pipeline_Stages_Stage2_State_stage1Counter TOP_Pipelines_Pipeline_Stages_Stage2_State_stage1Counter[7:0] $end
$var wire 8 TOP_Pipelines_Pipeline_Stages_Stage2_State_stage2Counter TOP_Pipelines_Pipeline_Stages_Stage2_State_stage2Counter[7:0] $end
$upscope
$end
$scope module NextState $end
$var wire 8 TOP_Pipelines_Pipeline_Stages_Stage2_NextState_stage0Counter TOP_Pipelines_Pipeline_Stages_Stage2_NextState_stage0Counter[7:0] $end
$var wire 8 TOP_Pipelines_Pipeline_Stages_Stage2_NextState_stage1Counter TOP_Pipelines_Pipeline_Stages_Stage2_NextState_stage1Counter[7:0] $end
$var wire 8 TOP_Pipelines_Pipeline_Stages_Stage2_NextState_stage2Counter TOP_Pipelines_Pipeline_Stages_Stage2_NextState_stage2Counter[7:0] $end
$upscope
$end
$scope module Control $end
$var wire 1 TOP_Pipelines_Pipeline_Stages_Stage2_Control_StageStalled TOP_Pipelines_Pipeline_Stages_Stage2_Control_StageStalled $end
$upscope
$end
$scope module Request $end
$var wire 1 TOP_Pipelines_Pipeline_Stages_Stage2_Request_StallPipeline TOP_Pipelines_Pipeline_Stages_Stage2_Request_StallPipeline $end
$var wire 1 TOP_Pipelines_Pipeline_Stages_Stage2_Request_StallPrev TOP_Pipelines_Pipeline_Stages_Stage2_Request_StallPrev $end
$var wire 1 TOP_Pipelines_Pipeline_Stages_Stage2_Request_StallSelf TOP_Pipelines_Pipeline_Stages_Stage2_Request_StallSelf $end
$upscope
$end
$scope module Preview $end
$var wire 1 TOP_Pipelines_Pipeline_Stages_Stage2_Preview_StageWillStall TOP_Pipelines_Pipeline_Stages_Stage2_Preview_StageWillStall $end
$upscope
$end
$upscope
$end
$scope module Stage3 $end
$scope module Inputs $end
$upscope
$end
$scope module State $end
$var wire 8 TOP_Pipelines_Pipeline_Stages_Stage3_State_stage0Counter TOP_Pipelines_Pipeline_Stages_Stage3_State_stage0Counter[7:0] $end
$var wire 8 TOP_Pipelines_Pipeline_Stages_Stage3_State_stage1Counter TOP_Pipelines_Pipeline_Stages_Stage3_State_stage1Counter[7:0] $end
$var wire 8 TOP_Pipelines_Pipeline_Stages_Stage3_State_stage2Counter TOP_Pipelines_Pipeline_Stages_Stage3_State_stage2Counter[7:0] $end
$var wire 8 TOP_Pipelines_Pipeline_Stages_Stage3_State_stage3Counter TOP_Pipelines_Pipeline_Stages_Stage3_State_stage3Counter[7:0] $end
$upscope
$end
$scope module NextState $end
$var wire 8 TOP_Pipelines_Pipeline_Stages_Stage3_NextState_stage0Counter TOP_Pipelines_Pipeline_Stages_Stage3_NextState_stage0Counter[7:0] $end
$var wire 8 TOP_Pipelines_Pipeline_Stages_Stage3_NextState_stage1Counter TOP_Pipelines_Pipeline_Stages_Stage3_NextState_stage1Counter[7:0] $end
$var wire 8 TOP_Pipelines_Pipeline_Stages_Stage3_NextState_stage2Counter TOP_Pipelines_Pipeline_Stages_Stage3_NextState_stage2Counter[7:0] $end
$var wire 8 TOP_Pipelines_Pipeline_Stages_Stage3_NextState_stage3Counter TOP_Pipelines_Pipeline_Stages_Stage3_NextState_stage3Counter[7:0] $end
$upscope
$end
$scope module Control $end
$var wire 1 TOP_Pipelines_Pipeline_Stages_Stage3_Control_StageStalled TOP_Pipelines_Pipeline_Stages_Stage3_Control_StageStalled $end
$upscope
$end
$scope module Request $end
$var wire 1 TOP_Pipelines_Pipeline_Stages_Stage3_Request_StallPipeline TOP_Pipelines_Pipeline_Stages_Stage3_Request_StallPipeline $end
$var wire 1 TOP_Pipelines_Pipeline_Stages_Stage3_Request_StallPrev TOP_Pipelines_Pipeline_Stages_Stage3_Request_StallPrev $end
$var wire 1 TOP_Pipelines_Pipeline_Stages_Stage3_Request_StallSelf TOP_Pipelines_Pipeline_Stages_Stage3_Request_StallSelf $end
$upscope
$end
$scope module Preview $end
$var wire 1 TOP_Pipelines_Pipeline_Stages_Stage3_Preview_StageWillStall TOP_Pipelines_Pipeline_Stages_Stage3_Preview_StageWillStall $end
$upscope
$end
$upscope
$end
$upscope
$end
$upscope
$end
$upscope
$end
$upscope
$end
$enddefinitions
$end
#0
0TOP_Control_Clock
0TOP_Inputs_stallPipeline
0TOP_Inputs_stallPrev
0TOP_Inputs_stallStage0
0TOP_Inputs_stallStage1
0TOP_Inputs_stallStage2
0TOP_Inputs_stallStage3
0TOP_Outputs_outResult_pipelineStalled
0TOP_Outputs_outResult_pipelineWillStall
b00000000 TOP_Outputs_outResult_stage0Counter
0TOP_Outputs_outResult_stage0Stalled
0TOP_Outputs_outResult_stage0WillStall
b00000000 TOP_Outputs_outResult_stage1Counter
0TOP_Outputs_outResult_stage1Stalled
0TOP_Outputs_outResult_stage1WillStall
b00000000 TOP_Outputs_outResult_stage2Counter
0TOP_Outputs_outResult_stage2Stalled
0TOP_Outputs_outResult_stage2WillStall
b00000000 TOP_Outputs_outResult_stage3Counter
0TOP_Outputs_outResult_stage3Stalled
0TOP_Outputs_outResult_stage3WillStall
0TOP_Pipelines_Pipeline_Control_PipelineStalled
0TOP_Pipelines_Pipeline_Preview_PipelineWillStall
b00000000 TOP_Pipelines_Pipeline_Stages_Stage0_State_stage0Counter
b00000000 TOP_Pipelines_Pipeline_Stages_Stage0_NextState_stage0Counter
0TOP_Pipelines_Pipeline_Stages_Stage0_Control_StageStalled
0TOP_Pipelines_Pipeline_Stages_Stage0_Request_StallPipeline
0TOP_Pipelines_Pipeline_Stages_Stage0_Request_StallPrev
0TOP_Pipelines_Pipeline_Stages_Stage0_Request_StallSelf
0TOP_Pipelines_Pipeline_Stages_Stage0_Preview_StageWillStall
b00000000 TOP_Pipelines_Pipeline_Stages_Stage1_State_stage0Counter
b00000000 TOP_Pipelines_Pipeline_Stages_Stage1_State_stage1Counter
b00000000 TOP_Pipelines_Pipeline_Stages_Stage1_NextState_stage0Counter
b00000000 TOP_Pipelines_Pipeline_Stages_Stage1_NextState_stage1Counter
0TOP_Pipelines_Pipeline_Stages_Stage1_Control_StageStalled
0TOP_Pipelines_Pipeline_Stages_Stage1_Request_StallPipeline
0TOP_Pipelines_Pipeline_Stages_Stage1_Request_StallPrev
0TOP_Pipelines_Pipeline_Stages_Stage1_Request_StallSelf
0TOP_Pipelines_Pipeline_Stages_Stage1_Preview_StageWillStall
b00000000 TOP_Pipelines_Pipeline_Stages_Stage2_State_stage0Counter
b00000000 TOP_Pipelines_Pipeline_Stages_Stage2_State_stage1Counter
b00000000 TOP_Pipelines_Pipeline_Stages_Stage2_State_stage2Counter
b00000000 TOP_Pipelines_Pipeline_Stages_Stage2_NextState_stage0Counter
b00000000 TOP_Pipelines_Pipeline_Stages_Stage2_NextState_stage1Counter
b00000000 TOP_Pipelines_Pipeline_Stages_Stage2_NextState_stage2Counter
0TOP_Pipelines_Pipeline_Stages_Stage2_Control_StageStalled
0TOP_Pipelines_Pipeline_Stages_Stage2_Request_StallPipeline
0TOP_Pipelines_Pipeline_Stages_Stage2_Request_StallPrev
0TOP_Pipelines_Pipeline_Stages_Stage2_Request_StallSelf
0TOP_Pipelines_Pipeline_Stages_Stage2_Preview_StageWillStall
b00000000 TOP_Pipelines_Pipeline_Stages_Stage3_State_stage0Counter
b00000000 TOP_Pipelines_Pipeline_Stages_Stage3_State_stage1Counter
b00000000 TOP_Pipelines_Pipeline_Stages_Stage3_State_stage2Counter
b00000000 TOP_Pipelines_Pipeline_Stages_Stage3_State_stage3Counter
b00000000 TOP_Pipelines_Pipeline_Stages_Stage3_NextState_stage0Counter
b00000000 TOP_Pipelines_Pipeline_Stages_Stage3_NextState_stage1Counter
b00000000 TOP_Pipelines_Pipeline_Stages_Stage3_NextState_stage2Counter
b00000000 TOP_Pipelines_Pipeline_Stages_Stage3_NextState_stage3Counter
0TOP_Pipelines_Pipeline_Stages_Stage3_Control_StageStalled
0TOP_Pipelines_Pipeline_Stages_Stage3_Request_StallPipeline
0TOP_Pipelines_Pipeline_Stages_Stage3_Request_StallPrev
0TOP_Pipelines_Pipeline_Stages_Stage3_Request_StallSelf
0TOP_Pipelines_Pipeline_Stages_Stage3_Preview_StageWillStall
#1
b00000001 TOP_Pipelines_Pipeline_Stages_Stage0_NextState_stage0Counter
b00000001 TOP_Pipelines_Pipeline_Stages_Stage1_NextState_stage1Counter
b00000001 TOP_Pipelines_Pipeline_Stages_Stage2_NextState_stage2Counter
b00000001 TOP_Pipelines_Pipeline_Stages_Stage3_NextState_stage3Counter
#2000
1TOP_Control_Clock
b00000001 TOP_Outputs_outResult_stage3Counter
b00000001 TOP_Pipelines_Pipeline_Stages_Stage0_State_stage0Counter
b00000001 TOP_Pipelines_Pipeline_Stages_Stage1_State_stage1Counter
b00000001 TOP_Pipelines_Pipeline_Stages_Stage2_State_stage2Counter
b00000001 TOP_Pipelines_Pipeline_Stages_Stage3_State_stage3Counter
#2001
b00000010 TOP_Pipelines_Pipeline_Stages_Stage0_NextState_stage0Counter
b00000001 TOP_Pipelines_Pipeline_Stages_Stage1_NextState_stage0Counter
b00000010 TOP_Pipelines_Pipeline_Stages_Stage1_NextState_stage1Counter
b00000001 TOP_Pipelines_Pipeline_Stages_Stage2_NextState_stage1Counter
b00000010 TOP_Pipelines_Pipeline_Stages_Stage2_NextState_stage2Counter
b00000001 TOP_Pipelines_Pipeline_Stages_Stage3_NextState_stage2Counter
b00000010 TOP_Pipelines_Pipeline_Stages_Stage3_NextState_stage3Counter
#3000
0TOP_Control_Clock
#4000
1TOP_Control_Clock
b00000001 TOP_Outputs_outResult_stage2Counter
b00000010 TOP_Outputs_outResult_stage3Counter
b00000010 TOP_Pipelines_Pipeline_Stages_Stage0_State_stage0Counter
b00000001 TOP_Pipelines_Pipeline_Stages_Stage1_State_stage0Counter
b00000010 TOP_Pipelines_Pipeline_Stages_Stage1_State_stage1Counter
b00000001 TOP_Pipelines_Pipeline_Stages_Stage2_State_stage1Counter
b00000010 TOP_Pipelines_Pipeline_Stages_Stage2_State_stage2Counter
b00000001 TOP_Pipelines_Pipeline_Stages_Stage3_State_stage2Counter
b00000010 TOP_Pipelines_Pipeline_Stages_Stage3_State_stage3Counter
#4001
b00000011 TOP_Pipelines_Pipeline_Stages_Stage0_NextState_stage0Counter
b00000010 TOP_Pipelines_Pipeline_Stages_Stage1_NextState_stage0Counter
b00000011 TOP_Pipelines_Pipeline_Stages_Stage1_NextState_stage1Counter
b00000001 TOP_Pipelines_Pipeline_Stages_Stage2_NextState_stage0Counter
b00000010 TOP_Pipelines_Pipeline_Stages_Stage2_NextState_stage1Counter
b00000011 TOP_Pipelines_Pipeline_Stages_Stage2_NextState_stage2Counter
b00000001 TOP_Pipelines_Pipeline_Stages_Stage3_NextState_stage1Counter
b00000010 TOP_Pipelines_Pipeline_Stages_Stage3_NextState_stage2Counter
b00000011 TOP_Pipelines_Pipeline_Stages_Stage3_NextState_stage3Counter
#5000
0TOP_Control_Clock
#6000
1TOP_Control_Clock
b00000001 TOP_Outputs_outResult_stage1Counter
b00000010 TOP_Outputs_outResult_stage2Counter
b00000011 TOP_Outputs_outResult_stage3Counter
b00000011 TOP_Pipelines_Pipeline_Stages_Stage0_State_stage0Counter
b00000010 TOP_Pipelines_Pipeline_Stages_Stage1_State_stage0Counter
b00000011 TOP_Pipelines_Pipeline_Stages_Stage1_State_stage1Counter
b00000001 TOP_Pipelines_Pipeline_Stages_Stage2_State_stage0Counter
b00000010 TOP_Pipelines_Pipeline_Stages_Stage2_State_stage1Counter
b00000011 TOP_Pipelines_Pipeline_Stages_Stage2_State_stage2Counter
b00000001 TOP_Pipelines_Pipeline_Stages_Stage3_State_stage1Counter
b00000010 TOP_Pipelines_Pipeline_Stages_Stage3_State_stage2Counter
b00000011 TOP_Pipelines_Pipeline_Stages_Stage3_State_stage3Counter
#6001
b00000100 TOP_Pipelines_Pipeline_Stages_Stage0_NextState_stage0Counter
b00000011 TOP_Pipelines_Pipeline_Stages_Stage1_NextState_stage0Counter
b00000100 TOP_Pipelines_Pipeline_Stages_Stage1_NextState_stage1Counter
b00000010 TOP_Pipelines_Pipeline_Stages_Stage2_NextState_stage0Counter
b00000011 TOP_Pipelines_Pipeline_Stages_Stage2_NextState_stage1Counter
b00000100 TOP_Pipelines_Pipeline_Stages_Stage2_NextState_stage2Counter
b00000001 TOP_Pipelines_Pipeline_Stages_Stage3_NextState_stage0Counter
b00000010 TOP_Pipelines_Pipeline_Stages_Stage3_NextState_stage1Counter
b00000011 TOP_Pipelines_Pipeline_Stages_Stage3_NextState_stage2Counter
b00000100 TOP_Pipelines_Pipeline_Stages_Stage3_NextState_stage3Counter
#7000
0TOP_Control_Clock
#8000
1TOP_Control_Clock
b00000001 TOP_Outputs_outResult_stage0Counter
b00000010 TOP_Outputs_outResult_stage1Counter
b00000011 TOP_Outputs_outResult_stage2Counter
b00000100 TOP_Outputs_outResult_stage3Counter
b00000100 TOP_Pipelines_Pipeline_Stages_Stage0_State_stage0Counter
b00000011 TOP_Pipelines_Pipeline_Stages_Stage1_State_stage0Counter
b00000100 TOP_Pipelines_Pipeline_Stages_Stage1_State_stage1Counter
b00000010 TOP_Pipelines_Pipeline_Stages_Stage2_State_stage0Counter
b00000011 TOP_Pipelines_Pipeline_Stages_Stage2_State_stage1Counter
b00000100 TOP_Pipelines_Pipeline_Stages_Stage2_State_stage2Counter
b00000001 TOP_Pipelines_Pipeline_Stages_Stage3_State_stage0Counter
b00000010 TOP_Pipelines_Pipeline_Stages_Stage3_State_stage1Counter
b00000011 TOP_Pipelines_Pipeline_Stages_Stage3_State_stage2Counter
b00000100 TOP_Pipelines_Pipeline_Stages_Stage3_State_stage3Counter
#8001
b00000101 TOP_Pipelines_Pipeline_Stages_Stage0_NextState_stage0Counter
b00000100 TOP_Pipelines_Pipeline_Stages_Stage1_NextState_stage0Counter
b00000101 TOP_Pipelines_Pipeline_Stages_Stage1_NextState_stage1Counter
b00000011 TOP_Pipelines_Pipeline_Stages_Stage2_NextState_stage0Counter
b00000100 TOP_Pipelines_Pipeline_Stages_Stage2_NextState_stage1Counter
b00000101 TOP_Pipelines_Pipeline_Stages_Stage2_NextState_stage2Counter
b00000010 TOP_Pipelines_Pipeline_Stages_Stage3_NextState_stage0Counter
b00000011 TOP_Pipelines_Pipeline_Stages_Stage3_NextState_stage1Counter
b00000100 TOP_Pipelines_Pipeline_Stages_Stage3_NextState_stage2Counter
b00000101 TOP_Pipelines_Pipeline_Stages_Stage3_NextState_stage3Counter
#9000
0TOP_Control_Clock
#9001
1TOP_Inputs_stallStage3
1TOP_Outputs_outResult_pipelineWillStall
1TOP_Outputs_outResult_stage0WillStall
1TOP_Outputs_outResult_stage1WillStall
1TOP_Outputs_outResult_stage2WillStall
1TOP_Outputs_outResult_stage3WillStall
1TOP_Pipelines_Pipeline_Preview_PipelineWillStall
1TOP_Pipelines_Pipeline_Stages_Stage0_Preview_StageWillStall
1TOP_Pipelines_Pipeline_Stages_Stage1_Preview_StageWillStall
1TOP_Pipelines_Pipeline_Stages_Stage2_Preview_StageWillStall
1TOP_Pipelines_Pipeline_Stages_Stage3_Request_StallSelf
1TOP_Pipelines_Pipeline_Stages_Stage3_Preview_StageWillStall
#10000
1TOP_Control_Clock
1TOP_Outputs_outResult_pipelineStalled
0TOP_Outputs_outResult_pipelineWillStall
1TOP_Outputs_outResult_stage0Stalled
0TOP_Outputs_outResult_stage0WillStall
1TOP_Outputs_outResult_stage1Stalled
0TOP_Outputs_outResult_stage1WillStall
1TOP_Outputs_outResult_stage2Stalled
0TOP_Outputs_outResult_stage2WillStall
1TOP_Outputs_outResult_stage3Stalled
0TOP_Outputs_outResult_stage3WillStall
1TOP_Pipelines_Pipeline_Control_PipelineStalled
0TOP_Pipelines_Pipeline_Preview_PipelineWillStall
b00000100 TOP_Pipelines_Pipeline_Stages_Stage0_NextState_stage0Counter
1TOP_Pipelines_Pipeline_Stages_Stage0_Control_StageStalled
0TOP_Pipelines_Pipeline_Stages_Stage0_Preview_StageWillStall
b00000011 TOP_Pipelines_Pipeline_Stages_Stage1_NextState_stage0Counter
b00000100 TOP_Pipelines_Pipeline_Stages_Stage1_NextState_stage1Counter
1TOP_Pipelines_Pipeline_Stages_Stage1_Control_StageStalled
0TOP_Pipelines_Pipeline_Stages_Stage1_Preview_StageWillStall
b00000010 TOP_Pipelines_Pipeline_Stages_Stage2_NextState_stage0Counter
b00000011 TOP_Pipelines_Pipeline_Stages_Stage2_NextState_stage1Counter
b00000100 TOP_Pipelines_Pipeline_Stages_Stage2_NextState_stage2Counter
1TOP_Pipelines_Pipeline_Stages_Stage2_Control_StageStalled
0TOP_Pipelines_Pipeline_Stages_Stage2_Preview_StageWillStall
b00000001 TOP_Pipelines_Pipeline_Stages_Stage3_NextState_stage0Counter
b00000010 TOP_Pipelines_Pipeline_Stages_Stage3_NextState_stage1Counter
b00000011 TOP_Pipelines_Pipeline_Stages_Stage3_NextState_stage2Counter
b00000100 TOP_Pipelines_Pipeline_Stages_Stage3_NextState_stage3Counter
1TOP_Pipelines_Pipeline_Stages_Stage3_Control_StageStalled
0TOP_Pipelines_Pipeline_Stages_Stage3_Request_StallSelf
0TOP_Pipelines_Pipeline_Stages_Stage3_Preview_StageWillStall
#10001
1TOP_Outputs_outResult_pipelineWillStall
1TOP_Outputs_outResult_stage0WillStall
1TOP_Outputs_outResult_stage1WillStall
1TOP_Outputs_outResult_stage2WillStall
1TOP_Outputs_outResult_stage3WillStall
1TOP_Pipelines_Pipeline_Preview_PipelineWillStall
b00000101 TOP_Pipelines_Pipeline_Stages_Stage0_NextState_stage0Counter
1TOP_Pipelines_Pipeline_Stages_Stage0_Preview_StageWillStall
b00000100 TOP_Pipelines_Pipeline_Stages_Stage1_NextState_stage0Counter
b00000101 TOP_Pipelines_Pipeline_Stages_Stage1_NextState_stage1Counter
1TOP_Pipelines_Pipeline_Stages_Stage1_Preview_StageWillStall
b00000011 TOP_Pipelines_Pipeline_Stages_Stage2_NextState_stage0Counter
b00000100 TOP_Pipelines_Pipeline_Stages_Stage2_NextState_stage1Counter
b00000101 TOP_Pipelines_Pipeline_Stages_Stage2_NextState_stage2Counter
1TOP_Pipelines_Pipeline_Stages_Stage2_Preview_StageWillStall
b00000010 TOP_Pipelines_Pipeline_Stages_Stage3_NextState_stage0Counter
b00000011 TOP_Pipelines_Pipeline_Stages_Stage3_NextState_stage1Counter
b00000100 TOP_Pipelines_Pipeline_Stages_Stage3_NextState_stage2Counter
b00000101 TOP_Pipelines_Pipeline_Stages_Stage3_NextState_stage3Counter
1TOP_Pipelines_Pipeline_Stages_Stage3_Request_StallSelf
1TOP_Pipelines_Pipeline_Stages_Stage3_Preview_StageWillStall
#11000
0TOP_Control_Clock
#11001
1TOP_Inputs_stallPipeline
1TOP_Pipelines_Pipeline_Stages_Stage3_Request_StallPipeline
0TOP_Pipelines_Pipeline_Stages_Stage3_Request_StallSelf
#12000
1TOP_Control_Clock
0TOP_Outputs_outResult_pipelineWillStall
0TOP_Outputs_outResult_stage0WillStall
0TOP_Outputs_outResult_stage1WillStall
0TOP_Outputs_outResult_stage2WillStall
0TOP_Outputs_outResult_stage3WillStall
0TOP_Pipelines_Pipeline_Preview_PipelineWillStall
b00000100 TOP_Pipelines_Pipeline_Stages_Stage0_NextState_stage0Counter
0TOP_Pipelines_Pipeline_Stages_Stage0_Preview_StageWillStall
b00000011 TOP_Pipelines_Pipeline_Stages_Stage1_NextState_stage0Counter
b00000100 TOP_Pipelines_Pipeline_Stages_Stage1_NextState_stage1Counter
0TOP_Pipelines_Pipeline_Stages_Stage1_Preview_StageWillStall
b00000010 TOP_Pipelines_Pipeline_Stages_Stage2_NextState_stage0Counter
b00000011 TOP_Pipelines_Pipeline_Stages_Stage2_NextState_stage1Counter
b00000100 TOP_Pipelines_Pipeline_Stages_Stage2_NextState_stage2Counter
0TOP_Pipelines_Pipeline_Stages_Stage2_Preview_StageWillStall
b00000001 TOP_Pipelines_Pipeline_Stages_Stage3_NextState_stage0Counter
b00000010 TOP_Pipelines_Pipeline_Stages_Stage3_NextState_stage1Counter
b00000011 TOP_Pipelines_Pipeline_Stages_Stage3_NextState_stage2Counter
b00000100 TOP_Pipelines_Pipeline_Stages_Stage3_NextState_stage3Counter
0TOP_Pipelines_Pipeline_Stages_Stage3_Request_StallPipeline
0TOP_Pipelines_Pipeline_Stages_Stage3_Preview_StageWillStall
#12001
1TOP_Outputs_outResult_pipelineWillStall
1TOP_Outputs_outResult_stage0WillStall
1TOP_Outputs_outResult_stage1WillStall
1TOP_Outputs_outResult_stage2WillStall
1TOP_Outputs_outResult_stage3WillStall
1TOP_Pipelines_Pipeline_Preview_PipelineWillStall
b00000101 TOP_Pipelines_Pipeline_Stages_Stage0_NextState_stage0Counter
1TOP_Pipelines_Pipeline_Stages_Stage0_Preview_StageWillStall
b00000100 TOP_Pipelines_Pipeline_Stages_Stage1_NextState_stage0Counter
b00000101 TOP_Pipelines_Pipeline_Stages_Stage1_NextState_stage1Counter
1TOP_Pipelines_Pipeline_Stages_Stage1_Preview_StageWillStall
b00000011 TOP_Pipelines_Pipeline_Stages_Stage2_NextState_stage0Counter
b00000100 TOP_Pipelines_Pipeline_Stages_Stage2_NextState_stage1Counter
b00000101 TOP_Pipelines_Pipeline_Stages_Stage2_NextState_stage2Counter
1TOP_Pipelines_Pipeline_Stages_Stage2_Preview_StageWillStall
b00000010 TOP_Pipelines_Pipeline_Stages_Stage3_NextState_stage0Counter
b00000011 TOP_Pipelines_Pipeline_Stages_Stage3_NextState_stage1Counter
b00000100 TOP_Pipelines_Pipeline_Stages_Stage3_NextState_stage2Counter
b00000101 TOP_Pipelines_Pipeline_Stages_Stage3_NextState_stage3Counter
1TOP_Pipelines_Pipeline_Stages_Stage3_Request_StallPipeline
1TOP_Pipelines_Pipeline_Stages_Stage3_Preview_StageWillStall
#13000
0TOP_Control_Clock
#13001
0TOP_Inputs_stallPipeline
1TOP_Inputs_stallPrev
0TOP_Outputs_outResult_pipelineWillStall
0TOP_Outputs_outResult_stage3WillStall
0TOP_Pipelines_Pipeline_Preview_PipelineWillStall
0TOP_Pipelines_Pipeline_Stages_Stage3_Request_StallPipeline
1TOP_Pipelines_Pipeline_Stages_Stage3_Request_StallPrev
0TOP_Pipelines_Pipeline_Stages_Stage3_Preview_StageWillStall
