rtl/rtl.tests/SimResults/StallControlPipelineModuleTest_StallPrev.vcd
$date
Friday, 7 May 2021 5:18:55 PM
$end
$version
Quokka VCD Generator
$end
$timescale
1s
$end
$scope module TOP $end
$scope module Control $end
$var wire 1 TOP_Control_Clock TOP_Control_Clock $end
$upscope
$end
$scope module Inputs $end
$var wire 8 TOP_Inputs_inData TOP_Inputs_inData[7:0] $end
$var wire 1 TOP_Inputs_inReady TOP_Inputs_inReady $end
$var wire 1 TOP_Inputs_inProcessed TOP_Inputs_inProcessed $end
$upscope
$end
$scope module Outputs $end
$var wire 1 TOP_Outputs_outResult_ready TOP_Outputs_outResult_ready $end
$var wire 16 TOP_Outputs_outResult_result TOP_Outputs_outResult_result[15:0] $end
$var wire 1 TOP_Outputs_outResult_pipelineWillStall TOP_Outputs_outResult_pipelineWillStall $end
$var wire 1 TOP_Outputs_outResult_pipelineStalled TOP_Outputs_outResult_pipelineStalled $end
$var wire 1 TOP_Outputs_outResult_stage0WillStall TOP_Outputs_outResult_stage0WillStall $end
$var wire 1 TOP_Outputs_outResult_stage0Stalled TOP_Outputs_outResult_stage0Stalled $end
$var wire 1 TOP_Outputs_outResult_stage1WillStall TOP_Outputs_outResult_stage1WillStall $end
$var wire 1 TOP_Outputs_outResult_stage1Stalled TOP_Outputs_outResult_stage1Stalled $end
$var wire 1 TOP_Outputs_outResult_stage2WillStall TOP_Outputs_outResult_stage2WillStall $end
$var wire 1 TOP_Outputs_outResult_stage2Stalled TOP_Outputs_outResult_stage2Stalled $end
$upscope
$end
$scope module Internals $end
$upscope
$end
$scope module State $end
$upscope
$end
$scope module NextState $end
$upscope
$end
$scope module Pipelines $end
$scope module Pipeline $end
$scope module Control $end
$var wire 1 TOP_Pipelines_Pipeline_Control_PipelineStalled TOP_Pipelines_Pipeline_Control_PipelineStalled $end
$upscope
$end
$scope module Preview $end
$var wire 1 TOP_Pipelines_Pipeline_Preview_PipelineWillStall TOP_Pipelines_Pipeline_Preview_PipelineWillStall $end
$upscope
$end
$scope module Stages $end
$scope module Stage0 $end
$scope module Inputs $end
$upscope
$end
$scope module State $end
$var wire 1 TOP_Pipelines_Pipeline_Stages_Stage0_State_ready TOP_Pipelines_Pipeline_Stages_Stage0_State_ready $end
$var wire 8 TOP_Pipelines_Pipeline_Stages_Stage0_State_data TOP_Pipelines_Pipeline_Stages_Stage0_State_data[7:0] $end
$upscope
$end
$scope module NextState $end
$var wire 1 TOP_Pipelines_Pipeline_Stages_Stage0_NextState_ready TOP_Pipelines_Pipeline_Stages_Stage0_NextState_ready $end
$var wire 8 TOP_Pipelines_Pipeline_Stages_Stage0_NextState_data TOP_Pipelines_Pipeline_Stages_Stage0_NextState_data[7:0] $end
$upscope
$end
$scope module Control $end
$var wire 1 TOP_Pipelines_Pipeline_Stages_Stage0_Control_StageStalled TOP_Pipelines_Pipeline_Stages_Stage0_Control_StageStalled $end
$upscope
$end
$scope module Request $end
$var wire 1 TOP_Pipelines_Pipeline_Stages_Stage0_Request_StallPipeline TOP_Pipelines_Pipeline_Stages_Stage0_Request_StallPipeline $end
$var wire 1 TOP_Pipelines_Pipeline_Stages_Stage0_Request_StallSelf TOP_Pipelines_Pipeline_Stages_Stage0_Request_StallSelf $end
$var wire 1 TOP_Pipelines_Pipeline_Stages_Stage0_Request_StallPrev TOP_Pipelines_Pipeline_Stages_Stage0_Request_StallPrev $end
$upscope
$end
$scope module Preview $end
$var wire 1 TOP_Pipelines_Pipeline_Stages_Stage0_Preview_StageWillStall TOP_Pipelines_Pipeline_Stages_Stage0_Preview_StageWillStall $end
$upscope
$end
$upscope
$end
$scope module Stage1 $end
$scope module Inputs $end
$upscope
$end
$scope module State $end
$var wire 1 TOP_Pipelines_Pipeline_Stages_Stage1_State_ready TOP_Pipelines_Pipeline_Stages_Stage1_State_ready $end
$var wire 8 TOP_Pipelines_Pipeline_Stages_Stage1_State_data TOP_Pipelines_Pipeline_Stages_Stage1_State_data[7:0] $end
$var wire 8 TOP_Pipelines_Pipeline_Stages_Stage1_State_counter TOP_Pipelines_Pipeline_Stages_Stage1_State_counter[7:0] $end
$upscope
$end
$scope module NextState $end
$var wire 1 TOP_Pipelines_Pipeline_Stages_Stage1_NextState_ready TOP_Pipelines_Pipeline_Stages_Stage1_NextState_ready $end
$var wire 8 TOP_Pipelines_Pipeline_Stages_Stage1_NextState_data TOP_Pipelines_Pipeline_Stages_Stage1_NextState_data[7:0] $end
$var wire 8 TOP_Pipelines_Pipeline_Stages_Stage1_NextState_counter TOP_Pipelines_Pipeline_Stages_Stage1_NextState_counter[7:0] $end
$upscope
$end
$scope module Control $end
$var wire 1 TOP_Pipelines_Pipeline_Stages_Stage1_Control_StageStalled TOP_Pipelines_Pipeline_Stages_Stage1_Control_StageStalled $end
$upscope
$end
$scope module Request $end
$var wire 1 TOP_Pipelines_Pipeline_Stages_Stage1_Request_StallPipeline TOP_Pipelines_Pipeline_Stages_Stage1_Request_StallPipeline $end
$var wire 1 TOP_Pipelines_Pipeline_Stages_Stage1_Request_StallSelf TOP_Pipelines_Pipeline_Stages_Stage1_Request_StallSelf $end
$var wire 1 TOP_Pipelines_Pipeline_Stages_Stage1_Request_StallPrev TOP_Pipelines_Pipeline_Stages_Stage1_Request_StallPrev $end
$upscope
$end
$scope module Preview $end
$var wire 1 TOP_Pipelines_Pipeline_Stages_Stage1_Preview_StageWillStall TOP_Pipelines_Pipeline_Stages_Stage1_Preview_StageWillStall $end
$upscope
$end
$upscope
$end
$scope module Stage2 $end
$scope module Inputs $end
$upscope
$end
$scope module State $end
$var wire 1 TOP_Pipelines_Pipeline_Stages_Stage2_State_ready TOP_Pipelines_Pipeline_Stages_Stage2_State_ready $end
$var wire 8 TOP_Pipelines_Pipeline_Stages_Stage2_State_result TOP_Pipelines_Pipeline_Stages_Stage2_State_result[7:0] $end
$upscope
$end
$scope module NextState $end
$var wire 1 TOP_Pipelines_Pipeline_Stages_Stage2_NextState_ready TOP_Pipelines_Pipeline_Stages_Stage2_NextState_ready $end
$var wire 8 TOP_Pipelines_Pipeline_Stages_Stage2_NextState_result TOP_Pipelines_Pipeline_Stages_Stage2_NextState_result[7:0] $end
$upscope
$end
$scope module Control $end
$var wire 1 TOP_Pipelines_Pipeline_Stages_Stage2_Control_StageStalled TOP_Pipelines_Pipeline_Stages_Stage2_Control_StageStalled $end
$upscope
$end
$scope module Request $end
$var wire 1 TOP_Pipelines_Pipeline_Stages_Stage2_Request_StallPipeline TOP_Pipelines_Pipeline_Stages_Stage2_Request_StallPipeline $end
$var wire 1 TOP_Pipelines_Pipeline_Stages_Stage2_Request_StallSelf TOP_Pipelines_Pipeline_Stages_Stage2_Request_StallSelf $end
$var wire 1 TOP_Pipelines_Pipeline_Stages_Stage2_Request_StallPrev TOP_Pipelines_Pipeline_Stages_Stage2_Request_StallPrev $end
$upscope
$end
$scope module Preview $end
$var wire 1 TOP_Pipelines_Pipeline_Stages_Stage2_Preview_StageWillStall TOP_Pipelines_Pipeline_Stages_Stage2_Preview_StageWillStall $end
$upscope
$end
$upscope
$end
$upscope
$end
$upscope
$end
$upscope
$end
$upscope
$end
$enddefinitions
$end
#0
1TOP_Control_Clock
b00000000 TOP_Inputs_inData
0TOP_Inputs_inReady
0TOP_Inputs_inProcessed
0TOP_Outputs_outResult_ready
b0000000000000000 TOP_Outputs_outResult_result
1TOP_Outputs_outResult_pipelineWillStall
0TOP_Outputs_outResult_pipelineStalled
1TOP_Outputs_outResult_stage0WillStall
0TOP_Outputs_outResult_stage0Stalled
1TOP_Outputs_outResult_stage1WillStall
0TOP_Outputs_outResult_stage1Stalled
1TOP_Outputs_outResult_stage2WillStall
0TOP_Outputs_outResult_stage2Stalled
0TOP_Pipelines_Pipeline_Control_PipelineStalled
1TOP_Pipelines_Pipeline_Preview_PipelineWillStall
0TOP_Pipelines_Pipeline_Stages_Stage0_State_ready
b00000000 TOP_Pipelines_Pipeline_Stages_Stage0_State_data
0TOP_Pipelines_Pipeline_Stages_Stage0_NextState_ready
b00000000 TOP_Pipelines_Pipeline_Stages_Stage0_NextState_data
0TOP_Pipelines_Pipeline_Stages_Stage0_Control_StageStalled
0TOP_Pipelines_Pipeline_Stages_Stage0_Request_StallPipeline
1TOP_Pipelines_Pipeline_Stages_Stage0_Request_StallSelf
0TOP_Pipelines_Pipeline_Stages_Stage0_Request_StallPrev
1TOP_Pipelines_Pipeline_Stages_Stage0_Preview_StageWillStall
0TOP_Pipelines_Pipeline_Stages_Stage1_State_ready
b00000000 TOP_Pipelines_Pipeline_Stages_Stage1_State_data
b00000000 TOP_Pipelines_Pipeline_Stages_Stage1_State_counter
0TOP_Pipelines_Pipeline_Stages_Stage1_NextState_ready
b00000000 TOP_Pipelines_Pipeline_Stages_Stage1_NextState_data
b00000000 TOP_Pipelines_Pipeline_Stages_Stage1_NextState_counter
0TOP_Pipelines_Pipeline_Stages_Stage1_Control_StageStalled
0TOP_Pipelines_Pipeline_Stages_Stage1_Request_StallPipeline
0TOP_Pipelines_Pipeline_Stages_Stage1_Request_StallSelf
0TOP_Pipelines_Pipeline_Stages_Stage1_Request_StallPrev
1TOP_Pipelines_Pipeline_Stages_Stage1_Preview_StageWillStall
0TOP_Pipelines_Pipeline_Stages_Stage2_State_ready
b00000000 TOP_Pipelines_Pipeline_Stages_Stage2_State_result
0TOP_Pipelines_Pipeline_Stages_Stage2_NextState_ready
b00000000 TOP_Pipelines_Pipeline_Stages_Stage2_NextState_result
0TOP_Pipelines_Pipeline_Stages_Stage2_Control_StageStalled
1TOP_Pipelines_Pipeline_Stages_Stage2_Request_StallPipeline
0TOP_Pipelines_Pipeline_Stages_Stage2_Request_StallSelf
0TOP_Pipelines_Pipeline_Stages_Stage2_Request_StallPrev
1TOP_Pipelines_Pipeline_Stages_Stage2_Preview_StageWillStall
#1
b00000011 TOP_Inputs_inData
1TOP_Inputs_inReady
1TOP_Inputs_inProcessed
0TOP_Outputs_outResult_pipelineWillStall
0TOP_Outputs_outResult_stage0WillStall
0TOP_Outputs_outResult_stage1WillStall
0TOP_Outputs_outResult_stage2WillStall
0TOP_Pipelines_Pipeline_Preview_PipelineWillStall
1TOP_Pipelines_Pipeline_Stages_Stage0_NextState_ready
b00000011 TOP_Pipelines_Pipeline_Stages_Stage0_NextState_data
0TOP_Pipelines_Pipeline_Stages_Stage0_Request_StallSelf
0TOP_Pipelines_Pipeline_Stages_Stage0_Preview_StageWillStall
b00000001 TOP_Pipelines_Pipeline_Stages_Stage1_NextState_data
0TOP_Pipelines_Pipeline_Stages_Stage1_Preview_StageWillStall
0TOP_Pipelines_Pipeline_Stages_Stage2_Request_StallPipeline
0TOP_Pipelines_Pipeline_Stages_Stage2_Preview_StageWillStall
#1000
0TOP_Control_Clock
#2000
1TOP_Control_Clock
1TOP_Pipelines_Pipeline_Stages_Stage0_State_ready
b00000011 TOP_Pipelines_Pipeline_Stages_Stage0_State_data
b00000001 TOP_Pipelines_Pipeline_Stages_Stage1_State_data
#2001
b00000000 TOP_Inputs_inData
0TOP_Inputs_inReady
1TOP_Outputs_outResult_stage0WillStall
0TOP_Pipelines_Pipeline_Stages_Stage0_NextState_ready
b00000000 TOP_Pipelines_Pipeline_Stages_Stage0_NextState_data
1TOP_Pipelines_Pipeline_Stages_Stage0_Request_StallSelf
1TOP_Pipelines_Pipeline_Stages_Stage0_Preview_StageWillStall
b00000100 TOP_Pipelines_Pipeline_Stages_Stage1_NextState_data
b00000001 TOP_Pipelines_Pipeline_Stages_Stage1_NextState_counter
1TOP_Pipelines_Pipeline_Stages_Stage1_Request_StallPrev
b00000001 TOP_Pipelines_Pipeline_Stages_Stage2_NextState_result
#3000
0TOP_Control_Clock
#4000
1TOP_Control_Clock
b0000000000000001 TOP_Outputs_outResult_result
0TOP_Outputs_outResult_stage0WillStall
1TOP_Outputs_outResult_stage0Stalled
1TOP_Pipelines_Pipeline_Stages_Stage0_NextState_ready
b00000011 TOP_Pipelines_Pipeline_Stages_Stage0_NextState_data
1TOP_Pipelines_Pipeline_Stages_Stage0_Control_StageStalled
0TOP_Pipelines_Pipeline_Stages_Stage0_Request_StallSelf
0TOP_Pipelines_Pipeline_Stages_Stage0_Preview_StageWillStall
b00000100 TOP_Pipelines_Pipeline_Stages_Stage1_State_data
b00000001 TOP_Pipelines_Pipeline_Stages_Stage1_State_counter
0TOP_Pipelines_Pipeline_Stages_Stage1_Request_StallPrev
b00000001 TOP_Pipelines_Pipeline_Stages_Stage2_State_result
#4001
1TOP_Outputs_outResult_stage0WillStall
0TOP_Pipelines_Pipeline_Stages_Stage0_NextState_ready
b00000000 TOP_Pipelines_Pipeline_Stages_Stage0_NextState_data
1TOP_Pipelines_Pipeline_Stages_Stage0_Request_StallSelf
1TOP_Pipelines_Pipeline_Stages_Stage0_Preview_StageWillStall
b00000010 TOP_Pipelines_Pipeline_Stages_Stage1_NextState_counter
1TOP_Pipelines_Pipeline_Stages_Stage1_Request_StallPrev
b00000101 TOP_Pipelines_Pipeline_Stages_Stage2_NextState_result
#5000
0TOP_Control_Clock
#6000
1TOP_Control_Clock
b0000000000000101 TOP_Outputs_outResult_result
0TOP_Outputs_outResult_stage0WillStall
1TOP_Pipelines_Pipeline_Stages_Stage0_NextState_ready
b00000011 TOP_Pipelines_Pipeline_Stages_Stage0_NextState_data
0TOP_Pipelines_Pipeline_Stages_Stage0_Request_StallSelf
0TOP_Pipelines_Pipeline_Stages_Stage0_Preview_StageWillStall
b00000010 TOP_Pipelines_Pipeline_Stages_Stage1_State_counter
0TOP_Pipelines_Pipeline_Stages_Stage1_Request_StallPrev
b00000101 TOP_Pipelines_Pipeline_Stages_Stage2_State_result
#6001
1TOP_Outputs_outResult_stage0WillStall
0TOP_Pipelines_Pipeline_Stages_Stage0_NextState_ready
b00000000 TOP_Pipelines_Pipeline_Stages_Stage0_NextState_data
1TOP_Pipelines_Pipeline_Stages_Stage0_Request_StallSelf
1TOP_Pipelines_Pipeline_Stages_Stage0_Preview_StageWillStall
b00000011 TOP_Pipelines_Pipeline_Stages_Stage1_NextState_counter
1TOP_Pipelines_Pipeline_Stages_Stage1_Request_StallPrev
b00001001 TOP_Pipelines_Pipeline_Stages_Stage2_NextState_result
#7000
0TOP_Control_Clock
#8000
1TOP_Control_Clock
b0000000000001001 TOP_Outputs_outResult_result
0TOP_Outputs_outResult_stage0WillStall
1TOP_Pipelines_Pipeline_Stages_Stage0_NextState_ready
b00000011 TOP_Pipelines_Pipeline_Stages_Stage0_NextState_data
0TOP_Pipelines_Pipeline_Stages_Stage0_Request_StallSelf
0TOP_Pipelines_Pipeline_Stages_Stage0_Preview_StageWillStall
b00000011 TOP_Pipelines_Pipeline_Stages_Stage1_State_counter
0TOP_Pipelines_Pipeline_Stages_Stage1_Request_StallPrev
b00001001 TOP_Pipelines_Pipeline_Stages_Stage2_State_result
#8001
1TOP_Inputs_inReady
b00000000 TOP_Pipelines_Pipeline_Stages_Stage0_NextState_data
1TOP_Pipelines_Pipeline_Stages_Stage1_NextState_ready
b00000000 TOP_Pipelines_Pipeline_Stages_Stage1_NextState_counter
b00001101 TOP_Pipelines_Pipeline_Stages_Stage2_NextState_result
#9000
0TOP_Control_Clock
#10000
1TOP_Control_Clock
b0000000000001101 TOP_Outputs_outResult_result
0TOP_Outputs_outResult_stage0Stalled
b00000000 TOP_Pipelines_Pipeline_Stages_Stage0_State_data
0TOP_Pipelines_Pipeline_Stages_Stage0_Control_StageStalled
1TOP_Pipelines_Pipeline_Stages_Stage1_State_ready
b00000000 TOP_Pipelines_Pipeline_Stages_Stage1_State_counter
b00001101 TOP_Pipelines_Pipeline_Stages_Stage2_State_result
#10001
b00000001 TOP_Pipelines_Pipeline_Stages_Stage1_NextState_data
1TOP_Pipelines_Pipeline_Stages_Stage2_NextState_ready
b00010001 TOP_Pipelines_Pipeline_Stages_Stage2_NextState_result
#11000
0TOP_Control_Clock
#12000
1TOP_Control_Clock
1TOP_Outputs_outResult_ready
b0000000000010001 TOP_Outputs_outResult_result
b00000001 TOP_Pipelines_Pipeline_Stages_Stage1_State_data
1TOP_Pipelines_Pipeline_Stages_Stage2_State_ready
b00010001 TOP_Pipelines_Pipeline_Stages_Stage2_State_result
#12001
0TOP_Inputs_inReady
1TOP_Outputs_outResult_stage0WillStall
0TOP_Pipelines_Pipeline_Stages_Stage0_NextState_ready
1TOP_Pipelines_Pipeline_Stages_Stage0_Request_StallSelf
1TOP_Pipelines_Pipeline_Stages_Stage0_Preview_StageWillStall
b00010010 TOP_Pipelines_Pipeline_Stages_Stage2_NextState_result
#13000
0TOP_Control_Clock
#14000
1TOP_Control_Clock
b0000000000010010 TOP_Outputs_outResult_result
0TOP_Outputs_outResult_stage0WillStall
1TOP_Outputs_outResult_stage0Stalled
1TOP_Pipelines_Pipeline_Stages_Stage0_NextState_ready
1TOP_Pipelines_Pipeline_Stages_Stage0_Control_StageStalled
0TOP_Pipelines_Pipeline_Stages_Stage0_Request_StallSelf
0TOP_Pipelines_Pipeline_Stages_Stage0_Preview_StageWillStall
b00010010 TOP_Pipelines_Pipeline_Stages_Stage2_State_result
