rtl/rtl.tests/SimResults/VGAAlienArtModuleTest.vcd
$date
Sunday, 4 July 2021 8:05:40 PM
$end
$version
Quokka VCD Generator
$end
$timescale
1s
$end
$scope module TOP $end
$scope module Control $end
$var wire 1 TOP_Control_Clock TOP_Control_Clock $end
$upscope
$end
$scope module Inputs $end
$upscope
$end
$scope module Outputs $end
$var wire 1 TOP_Outputs_R TOP_Outputs_R $end
$var wire 1 TOP_Outputs_G TOP_Outputs_G $end
$var wire 1 TOP_Outputs_B TOP_Outputs_B $end
$var wire 1 TOP_Outputs_OutVisible TOP_Outputs_OutVisible $end
$var wire 1 TOP_Outputs_VSync TOP_Outputs_VSync $end
$var wire 1 TOP_Outputs_HSync TOP_Outputs_HSync $end
$upscope
$end
$scope module State $end
$upscope
$end
$scope module NextState $end
$upscope
$end
$upscope
$end
$enddefinitions
$end
#0
1TOP_Control_Clock
0TOP_Outputs_R
0TOP_Outputs_G
0TOP_Outputs_B
0TOP_Outputs_OutVisible
0TOP_Outputs_VSync
0TOP_Outputs_HSync
#1000
0TOP_Control_Clock
#2000
1TOP_Control_Clock
#3000
0TOP_Control_Clock
#4000
1TOP_Control_Clock
#5000
0TOP_Control_Clock
#6000
1TOP_Control_Clock
#7000
0TOP_Control_Clock
#8000
1TOP_Control_Clock
#9000
0TOP_Control_Clock
#10000
1TOP_Control_Clock
#11000
0TOP_Control_Clock
#12000
1TOP_Control_Clock
#13000
0TOP_Control_Clock
#14000
1TOP_Control_Clock
#15000
0TOP_Control_Clock
#16000
1TOP_Control_Clock
#17000
0TOP_Control_Clock
#18000
1TOP_Control_Clock
#19000
0TOP_Control_Clock
#20000
1TOP_Control_Clock
#21000
0TOP_Control_Clock
#22000
1TOP_Control_Clock
#23000
0TOP_Control_Clock
#24000
1TOP_Control_Clock
#25000
0TOP_Control_Clock
#26000
1TOP_Control_Clock
#27000
0TOP_Control_Clock
#28000
1TOP_Control_Clock
#29000
0TOP_Control_Clock
#30000
1TOP_Control_Clock
#31000
0TOP_Control_Clock
#32000
1TOP_Control_Clock
#33000
0TOP_Control_Clock
#34000
1TOP_Control_Clock
#35000
0TOP_Control_Clock
#36000
1TOP_Control_Clock
#37000
0TOP_Control_Clock
#38000
1TOP_Control_Clock
#39000
0TOP_Control_Clock
#40000
1TOP_Control_Clock
#41000
0TOP_Control_Clock
#42000
1TOP_Control_Clock
#43000
0TOP_Control_Clock
#44000
1TOP_Control_Clock
#45000
0TOP_Control_Clock
#46000
1TOP_Control_Clock
#47000
0TOP_Control_Clock
#48000
1TOP_Control_Clock
#49000
0TOP_Control_Clock
#50000
1TOP_Control_Clock
#51000
0TOP_Control_Clock
#52000
1TOP_Control_Clock
#53000
0TOP_Control_Clock
#54000
1TOP_Control_Clock
#55000
0TOP_Control_Clock
#56000
1TOP_Control_Clock
#57000
0TOP_Control_Clock
#58000
1TOP_Control_Clock
#59000
0TOP_Control_Clock
#60000
1TOP_Control_Clock
#61000
0TOP_Control_Clock
#62000
1TOP_Control_Clock
#63000
0TOP_Control_Clock
#64000
1TOP_Control_Clock
#65000
0TOP_Control_Clock
#66000
1TOP_Control_Clock
#67000
0TOP_Control_Clock
#68000
1TOP_Control_Clock
1TOP_Outputs_OutVisible
1TOP_Outputs_VSync
1TOP_Outputs_HSync
#69000
0TOP_Control_Clock
#70000
1TOP_Control_Clock
1TOP_Outputs_R
#71000
0TOP_Control_Clock
#72000
1TOP_Control_Clock
#73000
0TOP_Control_Clock
#74000
1TOP_Control_Clock
#75000
0TOP_Control_Clock
#76000
1TOP_Control_Clock
#77000
0TOP_Control_Clock
#78000
1TOP_Control_Clock
#79000
0TOP_Control_Clock
#80000
1TOP_Control_Clock
#81000
0TOP_Control_Clock
#82000
1TOP_Control_Clock
#83000
0TOP_Control_Clock
#84000
1TOP_Control_Clock
#85000
0TOP_Control_Clock
#86000
1TOP_Control_Clock
0TOP_Outputs_R
#87000
0TOP_Control_Clock
#88000
1TOP_Control_Clock
1TOP_Outputs_R
#89000
0TOP_Control_Clock
#90000
1TOP_Control_Clock
#91000
0TOP_Control_Clock
#92000
1TOP_Control_Clock
#93000
0TOP_Control_Clock
#94000
1TOP_Control_Clock
#95000
0TOP_Control_Clock
#96000
1TOP_Control_Clock
#97000
0TOP_Control_Clock
#98000
1TOP_Control_Clock
#99000
0TOP_Control_Clock
#100000
1TOP_Control_Clock
#101000
0TOP_Control_Clock
#102000
1TOP_Control_Clock
#103000
0TOP_Control_Clock
#104000
1TOP_Control_Clock
0TOP_Outputs_R
#105000
0TOP_Control_Clock
#106000
1TOP_Control_Clock
1TOP_Outputs_R
#107000
0TOP_Control_Clock
#108000
1TOP_Control_Clock
#109000
0TOP_Control_Clock
#110000
1TOP_Control_Clock
#111000
0TOP_Control_Clock
#112000
1TOP_Control_Clock
#113000
0TOP_Control_Clock
#114000
1TOP_Control_Clock
#115000
0TOP_Control_Clock
#116000
1TOP_Control_Clock
#117000
0TOP_Control_Clock
#118000
1TOP_Control_Clock
#119000
0TOP_Control_Clock
#120000
1TOP_Control_Clock
#121000
0TOP_Control_Clock
#122000
1TOP_Control_Clock
0TOP_Outputs_R
#123000
0TOP_Control_Clock
#124000
1TOP_Control_Clock
1TOP_Outputs_R
#125000
0TOP_Control_Clock
#126000
1TOP_Control_Clock
#127000
0TOP_Control_Clock
#128000
1TOP_Control_Clock
#129000
0TOP_Control_Clock
#130000
1TOP_Control_Clock
#131000
0TOP_Control_Clock
#132000
1TOP_Control_Clock
#133000
0TOP_Control_Clock
#134000
1TOP_Control_Clock
#135000
0TOP_Control_Clock
#136000
1TOP_Control_Clock
#137000
0TOP_Control_Clock
#138000
1TOP_Control_Clock
#139000
0TOP_Control_Clock
#140000
1TOP_Control_Clock
0TOP_Outputs_R
#141000
0TOP_Control_Clock
#142000
1TOP_Control_Clock
1TOP_Outputs_R
#143000
0TOP_Control_Clock
#144000
1TOP_Control_Clock
#145000
0TOP_Control_Clock
#146000
1TOP_Control_Clock
#147000
0TOP_Control_Clock
#148000
1TOP_Control_Clock
#149000
0TOP_Control_Clock
#150000
1TOP_Control_Clock
#151000
0TOP_Control_Clock
#152000
1TOP_Control_Clock
#153000
0TOP_Control_Clock
#154000
1TOP_Control_Clock
#155000
0TOP_Control_Clock
#156000
1TOP_Control_Clock
#157000
0TOP_Control_Clock
#158000
1TOP_Control_Clock
0TOP_Outputs_R
#159000
0TOP_Control_Clock
#160000
1TOP_Control_Clock
1TOP_Outputs_R
#161000
0TOP_Control_Clock
#162000
1TOP_Control_Clock
#163000
0TOP_Control_Clock
#164000
1TOP_Control_Clock
#165000
0TOP_Control_Clock
#166000
1TOP_Control_Clock
#167000
0TOP_Control_Clock
#168000
1TOP_Control_Clock
#169000
0TOP_Control_Clock
#170000
1TOP_Control_Clock
#171000
0TOP_Control_Clock
#172000
1TOP_Control_Clock
#173000
0TOP_Control_Clock
#174000
1TOP_Control_Clock
#175000
0TOP_Control_Clock
#176000
1TOP_Control_Clock
0TOP_Outputs_R
#177000
0TOP_Control_Clock
#178000
1TOP_Control_Clock
1TOP_Outputs_R
#179000
0TOP_Control_Clock
#180000
1TOP_Control_Clock
#181000
0TOP_Control_Clock
#182000
1TOP_Control_Clock
#183000
0TOP_Control_Clock
#184000
1TOP_Control_Clock
#185000
0TOP_Control_Clock
#186000
1TOP_Control_Clock
#187000
0TOP_Control_Clock
#188000
1TOP_Control_Clock
#189000
0TOP_Control_Clock
#190000
1TOP_Control_Clock
#191000
0TOP_Control_Clock
#192000
1TOP_Control_Clock
#193000
0TOP_Control_Clock
#194000
1TOP_Control_Clock
0TOP_Outputs_R
#195000
0TOP_Control_Clock
#196000
1TOP_Control_Clock
1TOP_Outputs_R
#197000
0TOP_Control_Clock
#198000
1TOP_Control_Clock
#199000
0TOP_Control_Clock
#200000
1TOP_Control_Clock
#201000
0TOP_Control_Clock
#202000
1TOP_Control_Clock
#203000
0TOP_Control_Clock
#204000
1TOP_Control_Clock
#205000
0TOP_Control_Clock
#206000
1TOP_Control_Clock
#207000
0TOP_Control_Clock
#208000
1TOP_Control_Clock
#209000
0TOP_Control_Clock
#210000
1TOP_Control_Clock
#211000
0TOP_Control_Clock
#212000
1TOP_Control_Clock
0TOP_Outputs_R
#213000
0TOP_Control_Clock
#214000
1TOP_Control_Clock
1TOP_Outputs_R
#215000
0TOP_Control_Clock
#216000
1TOP_Control_Clock
#217000
0TOP_Control_Clock
#218000
1TOP_Control_Clock
#219000
0TOP_Control_Clock
#220000
1TOP_Control_Clock
#221000
0TOP_Control_Clock
#222000
1TOP_Control_Clock
#223000
0TOP_Control_Clock
#224000
1TOP_Control_Clock
#225000
0TOP_Control_Clock
#226000
1TOP_Control_Clock
#227000
0TOP_Control_Clock
#228000
1TOP_Control_Clock
#229000
0TOP_Control_Clock
#230000
1TOP_Control_Clock
0TOP_Outputs_R
#231000
0TOP_Control_Clock
#232000
1TOP_Control_Clock
1TOP_Outputs_R
#233000
0TOP_Control_Clock
#234000
1TOP_Control_Clock
#235000
0TOP_Control_Clock
#236000
1TOP_Control_Clock
#237000
0TOP_Control_Clock
#238000
1TOP_Control_Clock
#239000
0TOP_Control_Clock
#240000
1TOP_Control_Clock
#241000
0TOP_Control_Clock
#242000
1TOP_Control_Clock
#243000
0TOP_Control_Clock
#244000
1TOP_Control_Clock
#245000
0TOP_Control_Clock
#246000
1TOP_Control_Clock
#247000
0TOP_Control_Clock
#248000
1TOP_Control_Clock
0TOP_Outputs_R
#249000
0TOP_Control_Clock
#250000
1TOP_Control_Clock
1TOP_Outputs_R
#251000
0TOP_Control_Clock
#252000
1TOP_Control_Clock
#253000
0TOP_Control_Clock
#254000
1TOP_Control_Clock
#255000
0TOP_Control_Clock
#256000
1TOP_Control_Clock
#257000
0TOP_Control_Clock
#258000
1TOP_Control_Clock
#259000
0TOP_Control_Clock
#260000
1TOP_Control_Clock
#261000
0TOP_Control_Clock
#262000
1TOP_Control_Clock
#263000
0TOP_Control_Clock
#264000
1TOP_Control_Clock
#265000
0TOP_Control_Clock
#266000
1TOP_Control_Clock
0TOP_Outputs_R
#267000
0TOP_Control_Clock
#268000
1TOP_Control_Clock
1TOP_Outputs_R
#269000
0TOP_Control_Clock
#270000
1TOP_Control_Clock
#271000
0TOP_Control_Clock
#272000
1TOP_Control_Clock
#273000
0TOP_Control_Clock
#274000
1TOP_Control_Clock
#275000
0TOP_Control_Clock
#276000
1TOP_Control_Clock
#277000
0TOP_Control_Clock
#278000
1TOP_Control_Clock
#279000
0TOP_Control_Clock
#280000
1TOP_Control_Clock
#281000
0TOP_Control_Clock
#282000
1TOP_Control_Clock
#283000
0TOP_Control_Clock
#284000
1TOP_Control_Clock
0TOP_Outputs_R
#285000
0TOP_Control_Clock
#286000
1TOP_Control_Clock
1TOP_Outputs_R
#287000
0TOP_Control_Clock
#288000
1TOP_Control_Clock
#289000
0TOP_Control_Clock
#290000
1TOP_Control_Clock
#291000
0TOP_Control_Clock
#292000
1TOP_Control_Clock
#293000
0TOP_Control_Clock
#294000
1TOP_Control_Clock
#295000
0TOP_Control_Clock
#296000
1TOP_Control_Clock
#297000
0TOP_Control_Clock
#298000
1TOP_Control_Clock
#299000
0TOP_Control_Clock
#300000
1TOP_Control_Clock
#301000
0TOP_Control_Clock
#302000
1TOP_Control_Clock
0TOP_Outputs_R
#303000
0TOP_Control_Clock
#304000
1TOP_Control_Clock
1TOP_Outputs_R
#305000
0TOP_Control_Clock
#306000
1TOP_Control_Clock
#307000
0TOP_Control_Clock
#308000
1TOP_Control_Clock
#309000
0TOP_Control_Clock
#310000
1TOP_Control_Clock
#311000
0TOP_Control_Clock
#312000
1TOP_Control_Clock
#313000
0TOP_Control_Clock
#314000
1TOP_Control_Clock
#315000
0TOP_Control_Clock
#316000
1TOP_Control_Clock
#317000
0TOP_Control_Clock
#318000
1TOP_Control_Clock
#319000
0TOP_Control_Clock
#320000
1TOP_Control_Clock
0TOP_Outputs_R
#321000
0TOP_Control_Clock
#322000
1TOP_Control_Clock
1TOP_Outputs_R
#323000
0TOP_Control_Clock
#324000
1TOP_Control_Clock
#325000
0TOP_Control_Clock
#326000
1TOP_Control_Clock
#327000
0TOP_Control_Clock
#328000
1TOP_Control_Clock
#329000
0TOP_Control_Clock
#330000
1TOP_Control_Clock
#331000
0TOP_Control_Clock
#332000
1TOP_Control_Clock
#333000
0TOP_Control_Clock
#334000
1TOP_Control_Clock
#335000
0TOP_Control_Clock
#336000
1TOP_Control_Clock
#337000
0TOP_Control_Clock
#338000
1TOP_Control_Clock
0TOP_Outputs_R
#339000
0TOP_Control_Clock
#340000
1TOP_Control_Clock
1TOP_Outputs_R
#341000
0TOP_Control_Clock
#342000
1TOP_Control_Clock
#343000
0TOP_Control_Clock
#344000
1TOP_Control_Clock
#345000
0TOP_Control_Clock
#346000
1TOP_Control_Clock
#347000
0TOP_Control_Clock
#348000
1TOP_Control_Clock
#349000
0TOP_Control_Clock
#350000
1TOP_Control_Clock
#351000
0TOP_Control_Clock
#352000
1TOP_Control_Clock
#353000
0TOP_Control_Clock
#354000
1TOP_Control_Clock
#355000
0TOP_Control_Clock
#356000
1TOP_Control_Clock
0TOP_Outputs_R
#357000
0TOP_Control_Clock
#358000
1TOP_Control_Clock
1TOP_Outputs_R
#359000
0TOP_Control_Clock
#360000
1TOP_Control_Clock
#361000
0TOP_Control_Clock
#362000
1TOP_Control_Clock
#363000
0TOP_Control_Clock
#364000
1TOP_Control_Clock
#365000
0TOP_Control_Clock
#366000
1TOP_Control_Clock
#367000
0TOP_Control_Clock
#368000
1TOP_Control_Clock
#369000
0TOP_Control_Clock
#370000
1TOP_Control_Clock
#371000
0TOP_Control_Clock
#372000
1TOP_Control_Clock
#373000
0TOP_Control_Clock
#374000
1TOP_Control_Clock
0TOP_Outputs_R
#375000
0TOP_Control_Clock
#376000
1TOP_Control_Clock
1TOP_Outputs_R
#377000
0TOP_Control_Clock
#378000
1TOP_Control_Clock
#379000
0TOP_Control_Clock
#380000
1TOP_Control_Clock
#381000
0TOP_Control_Clock
#382000
1TOP_Control_Clock
#383000
0TOP_Control_Clock
#384000
1TOP_Control_Clock
#385000
0TOP_Control_Clock
#386000
1TOP_Control_Clock
#387000
0TOP_Control_Clock
#388000
1TOP_Control_Clock
#389000
0TOP_Control_Clock
#390000
1TOP_Control_Clock
#391000
0TOP_Control_Clock
#392000
1TOP_Control_Clock
0TOP_Outputs_R
#393000
0TOP_Control_Clock
#394000
1TOP_Control_Clock
1TOP_Outputs_R
#395000
0TOP_Control_Clock
#396000
1TOP_Control_Clock
#397000
0TOP_Control_Clock
#398000
1TOP_Control_Clock
#399000
0TOP_Control_Clock
#400000
1TOP_Control_Clock
#401000
0TOP_Control_Clock
#402000
1TOP_Control_Clock
#403000
0TOP_Control_Clock
#404000
1TOP_Control_Clock
#405000
0TOP_Control_Clock
#406000
1TOP_Control_Clock
#407000
0TOP_Control_Clock
#408000
1TOP_Control_Clock
#409000
0TOP_Control_Clock
#410000
1TOP_Control_Clock
0TOP_Outputs_R
#411000
0TOP_Control_Clock
#412000
1TOP_Control_Clock
1TOP_Outputs_R
#413000
0TOP_Control_Clock
#414000
1TOP_Control_Clock
#415000
0TOP_Control_Clock
#416000
1TOP_Control_Clock
#417000
0TOP_Control_Clock
#418000
1TOP_Control_Clock
#419000
0TOP_Control_Clock
#420000
1TOP_Control_Clock
#421000
0TOP_Control_Clock
#422000
1TOP_Control_Clock
#423000
0TOP_Control_Clock
#424000
1TOP_Control_Clock
#425000
0TOP_Control_Clock
#426000
1TOP_Control_Clock
#427000
0TOP_Control_Clock
#428000
1TOP_Control_Clock
0TOP_Outputs_R
#429000
0TOP_Control_Clock
#430000
1TOP_Control_Clock
1TOP_Outputs_R
#431000
0TOP_Control_Clock
#432000
1TOP_Control_Clock
#433000
0TOP_Control_Clock
#434000
1TOP_Control_Clock
#435000
0TOP_Control_Clock
#436000
1TOP_Control_Clock
#437000
0TOP_Control_Clock
#438000
1TOP_Control_Clock
#439000
0TOP_Control_Clock
#440000
1TOP_Control_Clock
#441000
0TOP_Control_Clock
#442000
1TOP_Control_Clock
#443000
0TOP_Control_Clock
#444000
1TOP_Control_Clock
#445000
0TOP_Control_Clock
#446000
1TOP_Control_Clock
0TOP_Outputs_R
#447000
0TOP_Control_Clock
#448000
1TOP_Control_Clock
1TOP_Outputs_R
#449000
0TOP_Control_Clock
#450000
1TOP_Control_Clock
#451000
0TOP_Control_Clock
#452000
1TOP_Control_Clock
#453000
0TOP_Control_Clock
#454000
1TOP_Control_Clock
#455000
0TOP_Control_Clock
#456000
1TOP_Control_Clock
#457000
0TOP_Control_Clock
#458000
1TOP_Control_Clock
#459000
0TOP_Control_Clock
#460000
1TOP_Control_Clock
#461000
0TOP_Control_Clock
#462000
1TOP_Control_Clock
#463000
0TOP_Control_Clock
#464000
1TOP_Control_Clock
0TOP_Outputs_R
#465000
0TOP_Control_Clock
#466000
1TOP_Control_Clock
1TOP_Outputs_R
#467000
0TOP_Control_Clock
#468000
1TOP_Control_Clock
#469000
0TOP_Control_Clock
#470000
1TOP_Control_Clock
#471000
0TOP_Control_Clock
#472000
1TOP_Control_Clock
#473000
0TOP_Control_Clock
#474000
1TOP_Control_Clock
#475000
0TOP_Control_Clock
#476000
1TOP_Control_Clock
#477000
0TOP_Control_Clock
#478000
1TOP_Control_Clock
#479000
0TOP_Control_Clock
#480000
1TOP_Control_Clock
#481000
0TOP_Control_Clock
#482000
1TOP_Control_Clock
0TOP_Outputs_R
#483000
0TOP_Control_Clock
#484000
1TOP_Control_Clock
1TOP_Outputs_R
#485000
0TOP_Control_Clock
#486000
1TOP_Control_Clock
#487000
0TOP_Control_Clock
#488000
1TOP_Control_Clock
#489000
0TOP_Control_Clock
#490000
1TOP_Control_Clock
#491000
0TOP_Control_Clock
#492000
1TOP_Control_Clock
#493000
0TOP_Control_Clock
#494000
1TOP_Control_Clock
#495000
0TOP_Control_Clock
#496000
1TOP_Control_Clock
#497000
0TOP_Control_Clock
#498000
1TOP_Control_Clock
#499000
0TOP_Control_Clock
#500000
1TOP_Control_Clock
0TOP_Outputs_R
#501000
0TOP_Control_Clock
#502000
1TOP_Control_Clock
1TOP_Outputs_R
#503000
0TOP_Control_Clock
#504000
1TOP_Control_Clock
#505000
0TOP_Control_Clock
#506000
1TOP_Control_Clock
#507000
0TOP_Control_Clock
#508000
1TOP_Control_Clock
#509000
0TOP_Control_Clock
#510000
1TOP_Control_Clock
#511000
0TOP_Control_Clock
#512000
1TOP_Control_Clock
#513000
0TOP_Control_Clock
#514000
1TOP_Control_Clock
#515000
0TOP_Control_Clock
#516000
1TOP_Control_Clock
#517000
0TOP_Control_Clock
#518000
1TOP_Control_Clock
0TOP_Outputs_R
#519000
0TOP_Control_Clock
#520000
1TOP_Control_Clock
1TOP_Outputs_R
#521000
0TOP_Control_Clock
#522000
1TOP_Control_Clock
#523000
0TOP_Control_Clock
#524000
1TOP_Control_Clock
#525000
0TOP_Control_Clock
#526000
1TOP_Control_Clock
#527000
0TOP_Control_Clock
#528000
1TOP_Control_Clock
#529000
0TOP_Control_Clock
#530000
1TOP_Control_Clock
#531000
0TOP_Control_Clock
#532000
1TOP_Control_Clock
#533000
0TOP_Control_Clock
#534000
1TOP_Control_Clock
#535000
0TOP_Control_Clock
#536000
1TOP_Control_Clock
0TOP_Outputs_R
#537000
0TOP_Control_Clock
#538000
1TOP_Control_Clock
1TOP_Outputs_R
#539000
0TOP_Control_Clock
#540000
1TOP_Control_Clock
#541000
0TOP_Control_Clock
#542000
1TOP_Control_Clock
#543000
0TOP_Control_Clock
#544000
1TOP_Control_Clock
#545000
0TOP_Control_Clock
#546000
1TOP_Control_Clock
#547000
0TOP_Control_Clock
#548000
1TOP_Control_Clock
#549000
0TOP_Control_Clock
#550000
1TOP_Control_Clock
#551000
0TOP_Control_Clock
#552000
1TOP_Control_Clock
#553000
0TOP_Control_Clock
#554000
1TOP_Control_Clock
0TOP_Outputs_R
#555000
0TOP_Control_Clock
#556000
1TOP_Control_Clock
1TOP_Outputs_R
#557000
0TOP_Control_Clock
#558000
1TOP_Control_Clock
#559000
0TOP_Control_Clock
#560000
1TOP_Control_Clock
#561000
0TOP_Control_Clock
#562000
1TOP_Control_Clock
#563000
0TOP_Control_Clock
#564000
1TOP_Control_Clock
#565000
0TOP_Control_Clock
#566000
1TOP_Control_Clock
#567000
0TOP_Control_Clock
#568000
1TOP_Control_Clock
#569000
0TOP_Control_Clock
#570000
1TOP_Control_Clock
#571000
0TOP_Control_Clock
#572000
1TOP_Control_Clock
0TOP_Outputs_R
#573000
0TOP_Control_Clock
#574000
1TOP_Control_Clock
1TOP_Outputs_R
#575000
0TOP_Control_Clock
#576000
1TOP_Control_Clock
#577000
0TOP_Control_Clock
#578000
1TOP_Control_Clock
#579000
0TOP_Control_Clock
#580000
1TOP_Control_Clock
#581000
0TOP_Control_Clock
#582000
1TOP_Control_Clock
#583000
0TOP_Control_Clock
#584000
1TOP_Control_Clock
#585000
0TOP_Control_Clock
#586000
1TOP_Control_Clock
#587000
0TOP_Control_Clock
#588000
1TOP_Control_Clock
#589000
0TOP_Control_Clock
#590000
1TOP_Control_Clock
0TOP_Outputs_R
#591000
0TOP_Control_Clock
#592000
1TOP_Control_Clock
1TOP_Outputs_R
#593000
0TOP_Control_Clock
#594000
1TOP_Control_Clock
#595000
0TOP_Control_Clock
#596000
1TOP_Control_Clock
#597000
0TOP_Control_Clock
#598000
1TOP_Control_Clock
#599000
0TOP_Control_Clock
#600000
1TOP_Control_Clock
#601000
0TOP_Control_Clock
#602000
1TOP_Control_Clock
#603000
0TOP_Control_Clock
#604000
1TOP_Control_Clock
#605000
0TOP_Control_Clock
#606000
1TOP_Control_Clock
#607000
0TOP_Control_Clock
#608000
1TOP_Control_Clock
0TOP_Outputs_R
#609000
0TOP_Control_Clock
#610000
1TOP_Control_Clock
1TOP_Outputs_R
#611000
0TOP_Control_Clock
#612000
1TOP_Control_Clock
#613000
0TOP_Control_Clock
#614000
1TOP_Control_Clock
#615000
0TOP_Control_Clock
#616000
1TOP_Control_Clock
#617000
0TOP_Control_Clock
#618000
1TOP_Control_Clock
#619000
0TOP_Control_Clock
#620000
1TOP_Control_Clock
#621000
0TOP_Control_Clock
#622000
1TOP_Control_Clock
#623000
0TOP_Control_Clock
#624000
1TOP_Control_Clock
#625000
0TOP_Control_Clock
#626000
1TOP_Control_Clock
0TOP_Outputs_R
#627000
0TOP_Control_Clock
#628000
1TOP_Control_Clock
1TOP_Outputs_R
#629000
0TOP_Control_Clock
#630000
1TOP_Control_Clock
#631000
0TOP_Control_Clock
#632000
1TOP_Control_Clock
#633000
0TOP_Control_Clock
#634000
1TOP_Control_Clock
#635000
0TOP_Control_Clock
#636000
1TOP_Control_Clock
#637000
0TOP_Control_Clock
#638000
1TOP_Control_Clock
#639000
0TOP_Control_Clock
#640000
1TOP_Control_Clock
#641000
0TOP_Control_Clock
#642000
1TOP_Control_Clock
#643000
0TOP_Control_Clock
#644000
1TOP_Control_Clock
0TOP_Outputs_R
#645000
0TOP_Control_Clock
#646000
1TOP_Control_Clock
1TOP_Outputs_R
#647000
0TOP_Control_Clock
#648000
1TOP_Control_Clock
#649000
0TOP_Control_Clock
#650000
1TOP_Control_Clock
#651000
0TOP_Control_Clock
#652000
1TOP_Control_Clock
#653000
0TOP_Control_Clock
#654000
1TOP_Control_Clock
#655000
0TOP_Control_Clock
#656000
1TOP_Control_Clock
#657000
0TOP_Control_Clock
#658000
1TOP_Control_Clock
#659000
0TOP_Control_Clock
#660000
1TOP_Control_Clock
#661000
0TOP_Control_Clock
#662000
1TOP_Control_Clock
0TOP_Outputs_R
#663000
0TOP_Control_Clock
#664000
1TOP_Control_Clock
1TOP_Outputs_R
#665000
0TOP_Control_Clock
#666000
1TOP_Control_Clock
#667000
0TOP_Control_Clock
#668000
1TOP_Control_Clock
#669000
0TOP_Control_Clock
#670000
1TOP_Control_Clock
#671000
0TOP_Control_Clock
#672000
1TOP_Control_Clock
#673000
0TOP_Control_Clock
#674000
1TOP_Control_Clock
#675000
0TOP_Control_Clock
#676000
1TOP_Control_Clock
#677000
0TOP_Control_Clock
#678000
1TOP_Control_Clock
#679000
0TOP_Control_Clock
#680000
1TOP_Control_Clock
0TOP_Outputs_R
#681000
0TOP_Control_Clock
#682000
1TOP_Control_Clock
1TOP_Outputs_R
#683000
0TOP_Control_Clock
#684000
1TOP_Control_Clock
#685000
0TOP_Control_Clock
#686000
1TOP_Control_Clock
#687000
0TOP_Control_Clock
#688000
1TOP_Control_Clock
#689000
0TOP_Control_Clock
#690000
1TOP_Control_Clock
#691000
0TOP_Control_Clock
#692000
1TOP_Control_Clock
#693000
0TOP_Control_Clock
#694000
1TOP_Control_Clock
#695000
0TOP_Control_Clock
#696000
1TOP_Control_Clock
#697000
0TOP_Control_Clock
#698000
1TOP_Control_Clock
0TOP_Outputs_R
#699000
0TOP_Control_Clock
#700000
1TOP_Control_Clock
1TOP_Outputs_R
#701000
0TOP_Control_Clock
#702000
1TOP_Control_Clock
#703000
0TOP_Control_Clock
#704000
1TOP_Control_Clock
#705000
0TOP_Control_Clock
#706000
1TOP_Control_Clock
#707000
0TOP_Control_Clock
#708000
1TOP_Control_Clock
#709000
0TOP_Control_Clock
#710000
1TOP_Control_Clock
#711000
0TOP_Control_Clock
#712000
1TOP_Control_Clock
#713000
0TOP_Control_Clock
#714000
1TOP_Control_Clock
#715000
0TOP_Control_Clock
#716000
1TOP_Control_Clock
0TOP_Outputs_R
#717000
0TOP_Control_Clock
#718000
1TOP_Control_Clock
1TOP_Outputs_R
#719000
0TOP_Control_Clock
#720000
1TOP_Control_Clock
#721000
0TOP_Control_Clock
#722000
1TOP_Control_Clock
#723000
0TOP_Control_Clock
#724000
1TOP_Control_Clock
#725000
0TOP_Control_Clock
#726000
1TOP_Control_Clock
#727000
0TOP_Control_Clock
#728000
1TOP_Control_Clock
#729000
0TOP_Control_Clock
#730000
1TOP_Control_Clock
#731000
0TOP_Control_Clock
#732000
1TOP_Control_Clock
#733000
0TOP_Control_Clock
#734000
1TOP_Control_Clock
0TOP_Outputs_R
#735000
0TOP_Control_Clock
#736000
1TOP_Control_Clock
1TOP_Outputs_R
#737000
0TOP_Control_Clock
#738000
1TOP_Control_Clock
#739000
0TOP_Control_Clock
#740000
1TOP_Control_Clock
#741000
0TOP_Control_Clock
#742000
1TOP_Control_Clock
#743000
0TOP_Control_Clock
#744000
1TOP_Control_Clock
#745000
0TOP_Control_Clock
#746000
1TOP_Control_Clock
#747000
0TOP_Control_Clock
#748000
1TOP_Control_Clock
#749000
0TOP_Control_Clock
#750000
1TOP_Control_Clock
#751000
0TOP_Control_Clock
#752000
1TOP_Control_Clock
0TOP_Outputs_R
#753000
0TOP_Control_Clock
#754000
1TOP_Control_Clock
1TOP_Outputs_R
#755000
0TOP_Control_Clock
#756000
1TOP_Control_Clock
#757000
0TOP_Control_Clock
#758000
1TOP_Control_Clock
#759000
0TOP_Control_Clock
#760000
1TOP_Control_Clock
#761000
0TOP_Control_Clock
#762000
1TOP_Control_Clock
#763000
0TOP_Control_Clock
#764000
1TOP_Control_Clock
#765000
0TOP_Control_Clock
#766000
1TOP_Control_Clock
#767000
0TOP_Control_Clock
#768000
1TOP_Control_Clock
#769000
0TOP_Control_Clock
#770000
1TOP_Control_Clock
0TOP_Outputs_R
#771000
0TOP_Control_Clock
#772000
1TOP_Control_Clock
1TOP_Outputs_R
#773000
0TOP_Control_Clock
#774000
1TOP_Control_Clock
#775000
0TOP_Control_Clock
#776000
1TOP_Control_Clock
#777000
0TOP_Control_Clock
#778000
1TOP_Control_Clock
#779000
0TOP_Control_Clock
#780000
1TOP_Control_Clock
#781000
0TOP_Control_Clock
#782000
1TOP_Control_Clock
#783000
0TOP_Control_Clock
#784000
1TOP_Control_Clock
#785000
0TOP_Control_Clock
#786000
1TOP_Control_Clock
#787000
0TOP_Control_Clock
#788000
1TOP_Control_Clock
0TOP_Outputs_R
#789000
0TOP_Control_Clock
#790000
1TOP_Control_Clock
1TOP_Outputs_R
#791000
0TOP_Control_Clock
#792000
1TOP_Control_Clock
#793000
0TOP_Control_Clock
#794000
1TOP_Control_Clock
#795000
0TOP_Control_Clock
#796000
1TOP_Control_Clock
#797000
0TOP_Control_Clock
#798000
1TOP_Control_Clock
#799000
0TOP_Control_Clock
#800000
1TOP_Control_Clock
#801000
0TOP_Control_Clock
#802000
1TOP_Control_Clock
#803000
0TOP_Control_Clock
#804000
1TOP_Control_Clock
#805000
0TOP_Control_Clock
#806000
1TOP_Control_Clock
0TOP_Outputs_R
#807000
0TOP_Control_Clock
#808000
1TOP_Control_Clock
1TOP_Outputs_R
#809000
0TOP_Control_Clock
#810000
1TOP_Control_Clock
#811000
0TOP_Control_Clock
#812000
1TOP_Control_Clock
#813000
0TOP_Control_Clock
#814000
1TOP_Control_Clock
#815000
0TOP_Control_Clock
#816000
1TOP_Control_Clock
#817000
0TOP_Control_Clock
#818000
1TOP_Control_Clock
#819000
0TOP_Control_Clock
#820000
1TOP_Control_Clock
#821000
0TOP_Control_Clock
#822000
1TOP_Control_Clock
#823000
0TOP_Control_Clock
#824000
1TOP_Control_Clock
0TOP_Outputs_R
#825000
0TOP_Control_Clock
#826000
1TOP_Control_Clock
1TOP_Outputs_R
#827000
0TOP_Control_Clock
#828000
1TOP_Control_Clock
#829000
0TOP_Control_Clock
#830000
1TOP_Control_Clock
#831000
0TOP_Control_Clock
#832000
1TOP_Control_Clock
#833000
0TOP_Control_Clock
#834000
1TOP_Control_Clock
#835000
0TOP_Control_Clock
#836000
1TOP_Control_Clock
#837000
0TOP_Control_Clock
