rtl/rtl.tests/SimResults/VGASyncModule_HSyncTest.vcd
$date
Sunday, 26 June 2022 9:01:42 PM
$end
$version
Quokka VCD Generator
$end
$timescale
1s
$end
$scope module TOP $end
$scope module Control $end
$var wire 1 TOP_Control_Clock TOP_Control_Clock $end
$upscope
$end
$scope module Inputs $end
$var wire 1 TOP_Inputs_Enabled TOP_Inputs_Enabled $end
$upscope
$end
$scope module Outputs $end
$var wire 1 TOP_Outputs_OutVisible TOP_Outputs_OutVisible $end
$var wire 1 TOP_Outputs_OutFP TOP_Outputs_OutFP $end
$var wire 1 TOP_Outputs_OutSP TOP_Outputs_OutSP $end
$var wire 1 TOP_Outputs_OutBP TOP_Outputs_OutBP $end
$var wire 1 TOP_Outputs_OutMax TOP_Outputs_OutMax $end
$var wire 10 TOP_Outputs_OutCounter TOP_Outputs_OutCounter[9:0] $end
$upscope
$end
$scope module Internals $end
$var wire 1 TOP_Internals_internalIsMax TOP_Internals_internalIsMax $end
$var wire 32 TOP_Internals_visible TOP_Internals_visible[31:0] $end
$var wire 32 TOP_Internals_fp TOP_Internals_fp[31:0] $end
$var wire 32 TOP_Internals_sp TOP_Internals_sp[31:0] $end
$var wire 32 TOP_Internals_bp TOP_Internals_bp[31:0] $end
$var wire 32 TOP_Internals_max TOP_Internals_max[31:0] $end
$var wire 32 TOP_Internals_capacity TOP_Internals_capacity[31:0] $end
$upscope
$end
$scope module State $end
$var wire 10 TOP_State_counter TOP_State_counter[9:0] $end
$upscope
$end
$scope module NextState $end
$var wire 10 TOP_NextState_counter TOP_NextState_counter[9:0] $end
$upscope
$end
$scope module Pipelines $end
$upscope
$end
$upscope
$end
$enddefinitions
$end
#0
0TOP_Control_Clock
0TOP_Inputs_Enabled
1TOP_Outputs_OutVisible
0TOP_Outputs_OutFP
0TOP_Outputs_OutSP
0TOP_Outputs_OutBP
0TOP_Outputs_OutMax
b0000000000 TOP_Outputs_OutCounter
0TOP_Internals_internalIsMax
b00000000000000000000001010000000 TOP_Internals_visible
b00000000000000000000001010010000 TOP_Internals_fp
b00000000000000000000001011110000 TOP_Internals_sp
b00000000000000000000001100100000 TOP_Internals_bp
b00000000000000000000001100011111 TOP_Internals_max
b00000000000000000000000000001010 TOP_Internals_capacity
b0000000000 TOP_State_counter
b0000000000 TOP_NextState_counter
#1001
1TOP_Inputs_Enabled
b0000000001 TOP_NextState_counter
#2002
1TOP_Control_Clock
b0000000001 TOP_Outputs_OutCounter
b0000000001 TOP_State_counter
#2001
b0000000010 TOP_NextState_counter
#3002
0TOP_Control_Clock
#4002
1TOP_Control_Clock
b0000000010 TOP_Outputs_OutCounter
b0000000010 TOP_State_counter
#4001
b0000000011 TOP_NextState_counter
#5002
0TOP_Control_Clock
#6002
1TOP_Control_Clock
b0000000011 TOP_Outputs_OutCounter
b0000000011 TOP_State_counter
#6001
b0000000100 TOP_NextState_counter
#7002
0TOP_Control_Clock
#8002
1TOP_Control_Clock
b0000000100 TOP_Outputs_OutCounter
b0000000100 TOP_State_counter
#8001
b0000000101 TOP_NextState_counter
#9002
0TOP_Control_Clock
#10002
1TOP_Control_Clock
b0000000101 TOP_Outputs_OutCounter
b0000000101 TOP_State_counter
#10001
b0000000110 TOP_NextState_counter
#11002
0TOP_Control_Clock
#12002
1TOP_Control_Clock
b0000000110 TOP_Outputs_OutCounter
b0000000110 TOP_State_counter
#12001
b0000000111 TOP_NextState_counter
#13002
0TOP_Control_Clock
#14002
1TOP_Control_Clock
b0000000111 TOP_Outputs_OutCounter
b0000000111 TOP_State_counter
#14001
b0000001000 TOP_NextState_counter
#15002
0TOP_Control_Clock
#16002
1TOP_Control_Clock
b0000001000 TOP_Outputs_OutCounter
b0000001000 TOP_State_counter
#16001
b0000001001 TOP_NextState_counter
#17002
0TOP_Control_Clock
#18002
1TOP_Control_Clock
b0000001001 TOP_Outputs_OutCounter
b0000001001 TOP_State_counter
#18001
b0000001010 TOP_NextState_counter
#19002
0TOP_Control_Clock
#20002
1TOP_Control_Clock
b0000001010 TOP_Outputs_OutCounter
b0000001010 TOP_State_counter
#20001
b0000001011 TOP_NextState_counter
#21002
0TOP_Control_Clock
#22002
1TOP_Control_Clock
b0000001011 TOP_Outputs_OutCounter
b0000001011 TOP_State_counter
#22001
b0000001100 TOP_NextState_counter
#23002
0TOP_Control_Clock
#24002
1TOP_Control_Clock
b0000001100 TOP_Outputs_OutCounter
b0000001100 TOP_State_counter
#24001
b0000001101 TOP_NextState_counter
#25002
0TOP_Control_Clock
#26002
1TOP_Control_Clock
b0000001101 TOP_Outputs_OutCounter
b0000001101 TOP_State_counter
#26001
b0000001110 TOP_NextState_counter
#27002
0TOP_Control_Clock
#28002
1TOP_Control_Clock
b0000001110 TOP_Outputs_OutCounter
b0000001110 TOP_State_counter
#28001
b0000001111 TOP_NextState_counter
#29002
0TOP_Control_Clock
#30002
1TOP_Control_Clock
b0000001111 TOP_Outputs_OutCounter
b0000001111 TOP_State_counter
#30001
b0000010000 TOP_NextState_counter
#31002
0TOP_Control_Clock
#32002
1TOP_Control_Clock
b0000010000 TOP_Outputs_OutCounter
b0000010000 TOP_State_counter
#32001
b0000010001 TOP_NextState_counter
#33002
0TOP_Control_Clock
#34002
1TOP_Control_Clock
b0000010001 TOP_Outputs_OutCounter
b0000010001 TOP_State_counter
#34001
b0000010010 TOP_NextState_counter
#35002
0TOP_Control_Clock
#36002
1TOP_Control_Clock
b0000010010 TOP_Outputs_OutCounter
b0000010010 TOP_State_counter
#36001
b0000010011 TOP_NextState_counter
#37002
0TOP_Control_Clock
#38002
1TOP_Control_Clock
b0000010011 TOP_Outputs_OutCounter
b0000010011 TOP_State_counter
#38001
b0000010100 TOP_NextState_counter
#39002
0TOP_Control_Clock
#40002
1TOP_Control_Clock
b0000010100 TOP_Outputs_OutCounter
b0000010100 TOP_State_counter
#40001
b0000010101 TOP_NextState_counter
#41002
0TOP_Control_Clock
#42002
1TOP_Control_Clock
b0000010101 TOP_Outputs_OutCounter
b0000010101 TOP_State_counter
#42001
b0000010110 TOP_NextState_counter
#43002
0TOP_Control_Clock
#44002
1TOP_Control_Clock
b0000010110 TOP_Outputs_OutCounter
b0000010110 TOP_State_counter
#44001
b0000010111 TOP_NextState_counter
#45002
0TOP_Control_Clock
#46002
1TOP_Control_Clock
b0000010111 TOP_Outputs_OutCounter
b0000010111 TOP_State_counter
#46001
b0000011000 TOP_NextState_counter
#47002
0TOP_Control_Clock
#48002
1TOP_Control_Clock
b0000011000 TOP_Outputs_OutCounter
b0000011000 TOP_State_counter
#48001
b0000011001 TOP_NextState_counter
#49002
0TOP_Control_Clock
#50002
1TOP_Control_Clock
b0000011001 TOP_Outputs_OutCounter
b0000011001 TOP_State_counter
#50001
b0000011010 TOP_NextState_counter
#51002
0TOP_Control_Clock
#52002
1TOP_Control_Clock
b0000011010 TOP_Outputs_OutCounter
b0000011010 TOP_State_counter
#52001
b0000011011 TOP_NextState_counter
#53002
0TOP_Control_Clock
#54002
1TOP_Control_Clock
b0000011011 TOP_Outputs_OutCounter
b0000011011 TOP_State_counter
#54001
b0000011100 TOP_NextState_counter
#55002
0TOP_Control_Clock
#56002
1TOP_Control_Clock
b0000011100 TOP_Outputs_OutCounter
b0000011100 TOP_State_counter
#56001
b0000011101 TOP_NextState_counter
#57002
0TOP_Control_Clock
#58002
1TOP_Control_Clock
b0000011101 TOP_Outputs_OutCounter
b0000011101 TOP_State_counter
#58001
b0000011110 TOP_NextState_counter
#59002
0TOP_Control_Clock
#60002
1TOP_Control_Clock
b0000011110 TOP_Outputs_OutCounter
b0000011110 TOP_State_counter
#60001
b0000011111 TOP_NextState_counter
#61002
0TOP_Control_Clock
#62002
1TOP_Control_Clock
b0000011111 TOP_Outputs_OutCounter
b0000011111 TOP_State_counter
#62001
b0000100000 TOP_NextState_counter
#63002
0TOP_Control_Clock
#64002
1TOP_Control_Clock
b0000100000 TOP_Outputs_OutCounter
b0000100000 TOP_State_counter
#64001
b0000100001 TOP_NextState_counter
#65002
0TOP_Control_Clock
#66002
1TOP_Control_Clock
b0000100001 TOP_Outputs_OutCounter
b0000100001 TOP_State_counter
#66001
b0000100010 TOP_NextState_counter
#67002
0TOP_Control_Clock
#68002
1TOP_Control_Clock
b0000100010 TOP_Outputs_OutCounter
b0000100010 TOP_State_counter
#68001
b0000100011 TOP_NextState_counter
#69002
0TOP_Control_Clock
#70002
1TOP_Control_Clock
b0000100011 TOP_Outputs_OutCounter
b0000100011 TOP_State_counter
#70001
b0000100100 TOP_NextState_counter
#71002
0TOP_Control_Clock
#72002
1TOP_Control_Clock
b0000100100 TOP_Outputs_OutCounter
b0000100100 TOP_State_counter
#72001
b0000100101 TOP_NextState_counter
#73002
0TOP_Control_Clock
#74002
1TOP_Control_Clock
b0000100101 TOP_Outputs_OutCounter
b0000100101 TOP_State_counter
#74001
b0000100110 TOP_NextState_counter
#75002
0TOP_Control_Clock
#76002
1TOP_Control_Clock
b0000100110 TOP_Outputs_OutCounter
b0000100110 TOP_State_counter
#76001
b0000100111 TOP_NextState_counter
#77002
0TOP_Control_Clock
#78002
1TOP_Control_Clock
b0000100111 TOP_Outputs_OutCounter
b0000100111 TOP_State_counter
#78001
b0000101000 TOP_NextState_counter
#79002
0TOP_Control_Clock
#80002
1TOP_Control_Clock
b0000101000 TOP_Outputs_OutCounter
b0000101000 TOP_State_counter
#80001
b0000101001 TOP_NextState_counter
#81002
0TOP_Control_Clock
#82002
1TOP_Control_Clock
b0000101001 TOP_Outputs_OutCounter
b0000101001 TOP_State_counter
#82001
b0000101010 TOP_NextState_counter
#83002
0TOP_Control_Clock
#84002
1TOP_Control_Clock
b0000101010 TOP_Outputs_OutCounter
b0000101010 TOP_State_counter
#84001
b0000101011 TOP_NextState_counter
#85002
0TOP_Control_Clock
#86002
1TOP_Control_Clock
b0000101011 TOP_Outputs_OutCounter
b0000101011 TOP_State_counter
#86001
b0000101100 TOP_NextState_counter
#87002
0TOP_Control_Clock
#88002
1TOP_Control_Clock
b0000101100 TOP_Outputs_OutCounter
b0000101100 TOP_State_counter
#88001
b0000101101 TOP_NextState_counter
#89002
0TOP_Control_Clock
#90002
1TOP_Control_Clock
b0000101101 TOP_Outputs_OutCounter
b0000101101 TOP_State_counter
#90001
b0000101110 TOP_NextState_counter
#91002
0TOP_Control_Clock
#92002
1TOP_Control_Clock
b0000101110 TOP_Outputs_OutCounter
b0000101110 TOP_State_counter
#92001
b0000101111 TOP_NextState_counter
#93002
0TOP_Control_Clock
#94002
1TOP_Control_Clock
b0000101111 TOP_Outputs_OutCounter
b0000101111 TOP_State_counter
#94001
b0000110000 TOP_NextState_counter
#95002
0TOP_Control_Clock
#96002
1TOP_Control_Clock
b0000110000 TOP_Outputs_OutCounter
b0000110000 TOP_State_counter
#96001
b0000110001 TOP_NextState_counter
#97002
0TOP_Control_Clock
#98002
1TOP_Control_Clock
b0000110001 TOP_Outputs_OutCounter
b0000110001 TOP_State_counter
#98001
b0000110010 TOP_NextState_counter
#99002
0TOP_Control_Clock
#100002
1TOP_Control_Clock
b0000110010 TOP_Outputs_OutCounter
b0000110010 TOP_State_counter
#100001
b0000110011 TOP_NextState_counter
#101002
0TOP_Control_Clock
#102002
1TOP_Control_Clock
b0000110011 TOP_Outputs_OutCounter
b0000110011 TOP_State_counter
#102001
b0000110100 TOP_NextState_counter
#103002
0TOP_Control_Clock
#104002
1TOP_Control_Clock
b0000110100 TOP_Outputs_OutCounter
b0000110100 TOP_State_counter
#104001
b0000110101 TOP_NextState_counter
#105002
0TOP_Control_Clock
#106002
1TOP_Control_Clock
b0000110101 TOP_Outputs_OutCounter
b0000110101 TOP_State_counter
#106001
b0000110110 TOP_NextState_counter
#107002
0TOP_Control_Clock
#108002
1TOP_Control_Clock
b0000110110 TOP_Outputs_OutCounter
b0000110110 TOP_State_counter
#108001
b0000110111 TOP_NextState_counter
#109002
0TOP_Control_Clock
#110002
1TOP_Control_Clock
b0000110111 TOP_Outputs_OutCounter
b0000110111 TOP_State_counter
#110001
b0000111000 TOP_NextState_counter
#111002
0TOP_Control_Clock
#112002
1TOP_Control_Clock
b0000111000 TOP_Outputs_OutCounter
b0000111000 TOP_State_counter
#112001
b0000111001 TOP_NextState_counter
#113002
0TOP_Control_Clock
#114002
1TOP_Control_Clock
b0000111001 TOP_Outputs_OutCounter
b0000111001 TOP_State_counter
#114001
b0000111010 TOP_NextState_counter
#115002
0TOP_Control_Clock
#116002
1TOP_Control_Clock
b0000111010 TOP_Outputs_OutCounter
b0000111010 TOP_State_counter
#116001
b0000111011 TOP_NextState_counter
#117002
0TOP_Control_Clock
#118002
1TOP_Control_Clock
b0000111011 TOP_Outputs_OutCounter
b0000111011 TOP_State_counter
#118001
b0000111100 TOP_NextState_counter
#119002
0TOP_Control_Clock
#120002
1TOP_Control_Clock
b0000111100 TOP_Outputs_OutCounter
b0000111100 TOP_State_counter
#120001
b0000111101 TOP_NextState_counter
#121002
0TOP_Control_Clock
#122002
1TOP_Control_Clock
b0000111101 TOP_Outputs_OutCounter
b0000111101 TOP_State_counter
#122001
b0000111110 TOP_NextState_counter
#123002
0TOP_Control_Clock
#124002
1TOP_Control_Clock
b0000111110 TOP_Outputs_OutCounter
b0000111110 TOP_State_counter
#124001
b0000111111 TOP_NextState_counter
#125002
0TOP_Control_Clock
#126002
1TOP_Control_Clock
b0000111111 TOP_Outputs_OutCounter
b0000111111 TOP_State_counter
#126001
b0001000000 TOP_NextState_counter
#127002
0TOP_Control_Clock
#128002
1TOP_Control_Clock
b0001000000 TOP_Outputs_OutCounter
b0001000000 TOP_State_counter
#128001
b0001000001 TOP_NextState_counter
#129002
0TOP_Control_Clock
#130002
1TOP_Control_Clock
b0001000001 TOP_Outputs_OutCounter
b0001000001 TOP_State_counter
#130001
b0001000010 TOP_NextState_counter
#131002
0TOP_Control_Clock
#132002
1TOP_Control_Clock
b0001000010 TOP_Outputs_OutCounter
b0001000010 TOP_State_counter
#132001
b0001000011 TOP_NextState_counter
#133002
0TOP_Control_Clock
#134002
1TOP_Control_Clock
b0001000011 TOP_Outputs_OutCounter
b0001000011 TOP_State_counter
#134001
b0001000100 TOP_NextState_counter
#135002
0TOP_Control_Clock
#136002
1TOP_Control_Clock
b0001000100 TOP_Outputs_OutCounter
b0001000100 TOP_State_counter
#136001
b0001000101 TOP_NextState_counter
#137002
0TOP_Control_Clock
#138002
1TOP_Control_Clock
b0001000101 TOP_Outputs_OutCounter
b0001000101 TOP_State_counter
#138001
b0001000110 TOP_NextState_counter
#139002
0TOP_Control_Clock
#140002
1TOP_Control_Clock
b0001000110 TOP_Outputs_OutCounter
b0001000110 TOP_State_counter
#140001
b0001000111 TOP_NextState_counter
#141002
0TOP_Control_Clock
#142002
1TOP_Control_Clock
b0001000111 TOP_Outputs_OutCounter
b0001000111 TOP_State_counter
#142001
b0001001000 TOP_NextState_counter
#143002
0TOP_Control_Clock
#144002
1TOP_Control_Clock
b0001001000 TOP_Outputs_OutCounter
b0001001000 TOP_State_counter
#144001
b0001001001 TOP_NextState_counter
#145002
0TOP_Control_Clock
#146002
1TOP_Control_Clock
b0001001001 TOP_Outputs_OutCounter
b0001001001 TOP_State_counter
#146001
b0001001010 TOP_NextState_counter
#147002
0TOP_Control_Clock
#148002
1TOP_Control_Clock
b0001001010 TOP_Outputs_OutCounter
b0001001010 TOP_State_counter
#148001
b0001001011 TOP_NextState_counter
#149002
0TOP_Control_Clock
#150002
1TOP_Control_Clock
b0001001011 TOP_Outputs_OutCounter
b0001001011 TOP_State_counter
#150001
b0001001100 TOP_NextState_counter
#151002
0TOP_Control_Clock
#152002
1TOP_Control_Clock
b0001001100 TOP_Outputs_OutCounter
b0001001100 TOP_State_counter
#152001
b0001001101 TOP_NextState_counter
#153002
0TOP_Control_Clock
#154002
1TOP_Control_Clock
b0001001101 TOP_Outputs_OutCounter
b0001001101 TOP_State_counter
#154001
b0001001110 TOP_NextState_counter
#155002
0TOP_Control_Clock
#156002
1TOP_Control_Clock
b0001001110 TOP_Outputs_OutCounter
b0001001110 TOP_State_counter
#156001
b0001001111 TOP_NextState_counter
#157002
0TOP_Control_Clock
#158002
1TOP_Control_Clock
b0001001111 TOP_Outputs_OutCounter
b0001001111 TOP_State_counter
#158001
b0001010000 TOP_NextState_counter
#159002
0TOP_Control_Clock
#160002
1TOP_Control_Clock
b0001010000 TOP_Outputs_OutCounter
b0001010000 TOP_State_counter
#160001
b0001010001 TOP_NextState_counter
#161002
0TOP_Control_Clock
#162002
1TOP_Control_Clock
b0001010001 TOP_Outputs_OutCounter
b0001010001 TOP_State_counter
#162001
b0001010010 TOP_NextState_counter
#163002
0TOP_Control_Clock
#164002
1TOP_Control_Clock
b0001010010 TOP_Outputs_OutCounter
b0001010010 TOP_State_counter
#164001
b0001010011 TOP_NextState_counter
#165002
0TOP_Control_Clock
#166002
1TOP_Control_Clock
b0001010011 TOP_Outputs_OutCounter
b0001010011 TOP_State_counter
#166001
b0001010100 TOP_NextState_counter
#167002
0TOP_Control_Clock
#168002
1TOP_Control_Clock
b0001010100 TOP_Outputs_OutCounter
b0001010100 TOP_State_counter
#168001
b0001010101 TOP_NextState_counter
#169002
0TOP_Control_Clock
#170002
1TOP_Control_Clock
b0001010101 TOP_Outputs_OutCounter
b0001010101 TOP_State_counter
#170001
b0001010110 TOP_NextState_counter
#171002
0TOP_Control_Clock
#172002
1TOP_Control_Clock
b0001010110 TOP_Outputs_OutCounter
b0001010110 TOP_State_counter
#172001
b0001010111 TOP_NextState_counter
#173002
0TOP_Control_Clock
#174002
1TOP_Control_Clock
b0001010111 TOP_Outputs_OutCounter
b0001010111 TOP_State_counter
#174001
b0001011000 TOP_NextState_counter
#175002
0TOP_Control_Clock
#176002
1TOP_Control_Clock
b0001011000 TOP_Outputs_OutCounter
b0001011000 TOP_State_counter
#176001
b0001011001 TOP_NextState_counter
#177002
0TOP_Control_Clock
#178002
1TOP_Control_Clock
b0001011001 TOP_Outputs_OutCounter
b0001011001 TOP_State_counter
#178001
b0001011010 TOP_NextState_counter
#179002
0TOP_Control_Clock
#180002
1TOP_Control_Clock
b0001011010 TOP_Outputs_OutCounter
b0001011010 TOP_State_counter
#180001
b0001011011 TOP_NextState_counter
#181002
0TOP_Control_Clock
#182002
1TOP_Control_Clock
b0001011011 TOP_Outputs_OutCounter
b0001011011 TOP_State_counter
#182001
b0001011100 TOP_NextState_counter
#183002
0TOP_Control_Clock
#184002
1TOP_Control_Clock
b0001011100 TOP_Outputs_OutCounter
b0001011100 TOP_State_counter
#184001
b0001011101 TOP_NextState_counter
#185002
0TOP_Control_Clock
#186002
1TOP_Control_Clock
b0001011101 TOP_Outputs_OutCounter
b0001011101 TOP_State_counter
#186001
b0001011110 TOP_NextState_counter
#187002
0TOP_Control_Clock
#188002
1TOP_Control_Clock
b0001011110 TOP_Outputs_OutCounter
b0001011110 TOP_State_counter
#188001
b0001011111 TOP_NextState_counter
#189002
0TOP_Control_Clock
#190002
1TOP_Control_Clock
b0001011111 TOP_Outputs_OutCounter
b0001011111 TOP_State_counter
#190001
b0001100000 TOP_NextState_counter
#191002
0TOP_Control_Clock
#192002
1TOP_Control_Clock
b0001100000 TOP_Outputs_OutCounter
b0001100000 TOP_State_counter
#192001
b0001100001 TOP_NextState_counter
#193002
0TOP_Control_Clock
#194002
1TOP_Control_Clock
b0001100001 TOP_Outputs_OutCounter
b0001100001 TOP_State_counter
#194001
b0001100010 TOP_NextState_counter
#195002
0TOP_Control_Clock
#196002
1TOP_Control_Clock
b0001100010 TOP_Outputs_OutCounter
b0001100010 TOP_State_counter
#196001
b0001100011 TOP_NextState_counter
#197002
0TOP_Control_Clock
#198002
1TOP_Control_Clock
b0001100011 TOP_Outputs_OutCounter
b0001100011 TOP_State_counter
#198001
b0001100100 TOP_NextState_counter
#199002
0TOP_Control_Clock
#200002
1TOP_Control_Clock
b0001100100 TOP_Outputs_OutCounter
b0001100100 TOP_State_counter
#200001
b0001100101 TOP_NextState_counter
#201002
0TOP_Control_Clock
#202002
1TOP_Control_Clock
b0001100101 TOP_Outputs_OutCounter
b0001100101 TOP_State_counter
#202001
b0001100110 TOP_NextState_counter
#203002
0TOP_Control_Clock
#204002
1TOP_Control_Clock
b0001100110 TOP_Outputs_OutCounter
b0001100110 TOP_State_counter
#204001
b0001100111 TOP_NextState_counter
#205002
0TOP_Control_Clock
#206002
1TOP_Control_Clock
b0001100111 TOP_Outputs_OutCounter
b0001100111 TOP_State_counter
#206001
b0001101000 TOP_NextState_counter
#207002
0TOP_Control_Clock
#208002
1TOP_Control_Clock
b0001101000 TOP_Outputs_OutCounter
b0001101000 TOP_State_counter
#208001
b0001101001 TOP_NextState_counter
#209002
0TOP_Control_Clock
#210002
1TOP_Control_Clock
b0001101001 TOP_Outputs_OutCounter
b0001101001 TOP_State_counter
#210001
b0001101010 TOP_NextState_counter
#211002
0TOP_Control_Clock
#212002
1TOP_Control_Clock
b0001101010 TOP_Outputs_OutCounter
b0001101010 TOP_State_counter
#212001
b0001101011 TOP_NextState_counter
#213002
0TOP_Control_Clock
#214002
1TOP_Control_Clock
b0001101011 TOP_Outputs_OutCounter
b0001101011 TOP_State_counter
#214001
b0001101100 TOP_NextState_counter
#215002
0TOP_Control_Clock
#216002
1TOP_Control_Clock
b0001101100 TOP_Outputs_OutCounter
b0001101100 TOP_State_counter
#216001
b0001101101 TOP_NextState_counter
#217002
0TOP_Control_Clock
#218002
1TOP_Control_Clock
b0001101101 TOP_Outputs_OutCounter
b0001101101 TOP_State_counter
#218001
b0001101110 TOP_NextState_counter
#219002
0TOP_Control_Clock
#220002
1TOP_Control_Clock
b0001101110 TOP_Outputs_OutCounter
b0001101110 TOP_State_counter
#220001
b0001101111 TOP_NextState_counter
#221002
0TOP_Control_Clock
#222002
1TOP_Control_Clock
b0001101111 TOP_Outputs_OutCounter
b0001101111 TOP_State_counter
#222001
b0001110000 TOP_NextState_counter
#223002
0TOP_Control_Clock
#224002
1TOP_Control_Clock
b0001110000 TOP_Outputs_OutCounter
b0001110000 TOP_State_counter
#224001
b0001110001 TOP_NextState_counter
#225002
0TOP_Control_Clock
#226002
1TOP_Control_Clock
b0001110001 TOP_Outputs_OutCounter
b0001110001 TOP_State_counter
#226001
b0001110010 TOP_NextState_counter
#227002
0TOP_Control_Clock
#228002
1TOP_Control_Clock
b0001110010 TOP_Outputs_OutCounter
b0001110010 TOP_State_counter
#228001
b0001110011 TOP_NextState_counter
#229002
0TOP_Control_Clock
#230002
1TOP_Control_Clock
b0001110011 TOP_Outputs_OutCounter
b0001110011 TOP_State_counter
#230001
b0001110100 TOP_NextState_counter
#231002
0TOP_Control_Clock
#232002
1TOP_Control_Clock
b0001110100 TOP_Outputs_OutCounter
b0001110100 TOP_State_counter
#232001
b0001110101 TOP_NextState_counter
#233002
0TOP_Control_Clock
#234002
1TOP_Control_Clock
b0001110101 TOP_Outputs_OutCounter
b0001110101 TOP_State_counter
#234001
b0001110110 TOP_NextState_counter
#235002
0TOP_Control_Clock
#236002
1TOP_Control_Clock
b0001110110 TOP_Outputs_OutCounter
b0001110110 TOP_State_counter
#236001
b0001110111 TOP_NextState_counter
#237002
0TOP_Control_Clock
#238002
1TOP_Control_Clock
b0001110111 TOP_Outputs_OutCounter
b0001110111 TOP_State_counter
#238001
b0001111000 TOP_NextState_counter
#239002
0TOP_Control_Clock
#240002
1TOP_Control_Clock
b0001111000 TOP_Outputs_OutCounter
b0001111000 TOP_State_counter
#240001
b0001111001 TOP_NextState_counter
#241002
0TOP_Control_Clock
#242002
1TOP_Control_Clock
b0001111001 TOP_Outputs_OutCounter
b0001111001 TOP_State_counter
#242001
b0001111010 TOP_NextState_counter
#243002
0TOP_Control_Clock
#244002
1TOP_Control_Clock
b0001111010 TOP_Outputs_OutCounter
b0001111010 TOP_State_counter
#244001
b0001111011 TOP_NextState_counter
#245002
0TOP_Control_Clock
#246002
1TOP_Control_Clock
b0001111011 TOP_Outputs_OutCounter
b0001111011 TOP_State_counter
#246001
b0001111100 TOP_NextState_counter
#247002
0TOP_Control_Clock
#248002
1TOP_Control_Clock
b0001111100 TOP_Outputs_OutCounter
b0001111100 TOP_State_counter
#248001
b0001111101 TOP_NextState_counter
#249002
0TOP_Control_Clock
#250002
1TOP_Control_Clock
b0001111101 TOP_Outputs_OutCounter
b0001111101 TOP_State_counter
#250001
b0001111110 TOP_NextState_counter
#251002
0TOP_Control_Clock
#252002
1TOP_Control_Clock
b0001111110 TOP_Outputs_OutCounter
b0001111110 TOP_State_counter
#252001
b0001111111 TOP_NextState_counter
#253002
0TOP_Control_Clock
#254002
1TOP_Control_Clock
b0001111111 TOP_Outputs_OutCounter
b0001111111 TOP_State_counter
#254001
b0010000000 TOP_NextState_counter
#255002
0TOP_Control_Clock
#256002
1TOP_Control_Clock
b0010000000 TOP_Outputs_OutCounter
b0010000000 TOP_State_counter
#256001
b0010000001 TOP_NextState_counter
#257002
0TOP_Control_Clock
#258002
1TOP_Control_Clock
b0010000001 TOP_Outputs_OutCounter
b0010000001 TOP_State_counter
#258001
b0010000010 TOP_NextState_counter
#259002
0TOP_Control_Clock
#260002
1TOP_Control_Clock
b0010000010 TOP_Outputs_OutCounter
b0010000010 TOP_State_counter
#260001
b0010000011 TOP_NextState_counter
#261002
0TOP_Control_Clock
#262002
1TOP_Control_Clock
b0010000011 TOP_Outputs_OutCounter
b0010000011 TOP_State_counter
#262001
b0010000100 TOP_NextState_counter
#263002
0TOP_Control_Clock
#264002
1TOP_Control_Clock
b0010000100 TOP_Outputs_OutCounter
b0010000100 TOP_State_counter
#264001
b0010000101 TOP_NextState_counter
#265002
0TOP_Control_Clock
#266002
1TOP_Control_Clock
b0010000101 TOP_Outputs_OutCounter
b0010000101 TOP_State_counter
#266001
b0010000110 TOP_NextState_counter
#267002
0TOP_Control_Clock
#268002
1TOP_Control_Clock
b0010000110 TOP_Outputs_OutCounter
b0010000110 TOP_State_counter
#268001
b0010000111 TOP_NextState_counter
#269002
0TOP_Control_Clock
#270002
1TOP_Control_Clock
b0010000111 TOP_Outputs_OutCounter
b0010000111 TOP_State_counter
#270001
b0010001000 TOP_NextState_counter
#271002
0TOP_Control_Clock
#272002
1TOP_Control_Clock
b0010001000 TOP_Outputs_OutCounter
b0010001000 TOP_State_counter
#272001
b0010001001 TOP_NextState_counter
#273002
0TOP_Control_Clock
#274002
1TOP_Control_Clock
b0010001001 TOP_Outputs_OutCounter
b0010001001 TOP_State_counter
#274001
b0010001010 TOP_NextState_counter
#275002
0TOP_Control_Clock
#276002
1TOP_Control_Clock
b0010001010 TOP_Outputs_OutCounter
b0010001010 TOP_State_counter
#276001
b0010001011 TOP_NextState_counter
#277002
0TOP_Control_Clock
#278002
1TOP_Control_Clock
b0010001011 TOP_Outputs_OutCounter
b0010001011 TOP_State_counter
#278001
b0010001100 TOP_NextState_counter
#279002
0TOP_Control_Clock
#280002
1TOP_Control_Clock
b0010001100 TOP_Outputs_OutCounter
b0010001100 TOP_State_counter
#280001
b0010001101 TOP_NextState_counter
#281002
0TOP_Control_Clock
#282002
1TOP_Control_Clock
b0010001101 TOP_Outputs_OutCounter
b0010001101 TOP_State_counter
#282001
b0010001110 TOP_NextState_counter
#283002
0TOP_Control_Clock
#284002
1TOP_Control_Clock
b0010001110 TOP_Outputs_OutCounter
b0010001110 TOP_State_counter
#284001
b0010001111 TOP_NextState_counter
#285002
0TOP_Control_Clock
#286002
1TOP_Control_Clock
b0010001111 TOP_Outputs_OutCounter
b0010001111 TOP_State_counter
#286001
b0010010000 TOP_NextState_counter
#287002
0TOP_Control_Clock
#288002
1TOP_Control_Clock
b0010010000 TOP_Outputs_OutCounter
b0010010000 TOP_State_counter
#288001
b0010010001 TOP_NextState_counter
#289002
0TOP_Control_Clock
#290002
1TOP_Control_Clock
b0010010001 TOP_Outputs_OutCounter
b0010010001 TOP_State_counter
#290001
b0010010010 TOP_NextState_counter
#291002
0TOP_Control_Clock
#292002
1TOP_Control_Clock
b0010010010 TOP_Outputs_OutCounter
b0010010010 TOP_State_counter
#292001
b0010010011 TOP_NextState_counter
#293002
0TOP_Control_Clock
#294002
1TOP_Control_Clock
b0010010011 TOP_Outputs_OutCounter
b0010010011 TOP_State_counter
#294001
b0010010100 TOP_NextState_counter
#295002
0TOP_Control_Clock
#296002
1TOP_Control_Clock
b0010010100 TOP_Outputs_OutCounter
b0010010100 TOP_State_counter
#296001
b0010010101 TOP_NextState_counter
#297002
0TOP_Control_Clock
#298002
1TOP_Control_Clock
b0010010101 TOP_Outputs_OutCounter
b0010010101 TOP_State_counter
#298001
b0010010110 TOP_NextState_counter
#299002
0TOP_Control_Clock
#300002
1TOP_Control_Clock
b0010010110 TOP_Outputs_OutCounter
b0010010110 TOP_State_counter
#300001
b0010010111 TOP_NextState_counter
#301002
0TOP_Control_Clock
#302002
1TOP_Control_Clock
b0010010111 TOP_Outputs_OutCounter
b0010010111 TOP_State_counter
#302001
b0010011000 TOP_NextState_counter
#303002
0TOP_Control_Clock
#304002
1TOP_Control_Clock
b0010011000 TOP_Outputs_OutCounter
b0010011000 TOP_State_counter
#304001
b0010011001 TOP_NextState_counter
#305002
0TOP_Control_Clock
#306002
1TOP_Control_Clock
b0010011001 TOP_Outputs_OutCounter
b0010011001 TOP_State_counter
#306001
b0010011010 TOP_NextState_counter
#307002
0TOP_Control_Clock
#308002
1TOP_Control_Clock
b0010011010 TOP_Outputs_OutCounter
b0010011010 TOP_State_counter
#308001
b0010011011 TOP_NextState_counter
#309002
0TOP_Control_Clock
#310002
1TOP_Control_Clock
b0010011011 TOP_Outputs_OutCounter
b0010011011 TOP_State_counter
#310001
b0010011100 TOP_NextState_counter
