rtl/rtl.tests/SimResults/VGASyncModule_VSyncTest.vcd
$date
Sunday, 28 August 2022 8:10:50 PM
$end
$version
Quokka VCD Generator
$end
$timescale
1s
$end
$scope module TOP $end
$scope module Control $end
$var wire 1 TOP_Control_Clock TOP_Control_Clock $end
$upscope
$end
$scope module Inputs $end
$var wire 1 TOP_Inputs_Enabled TOP_Inputs_Enabled $end
$upscope
$end
$scope module Outputs $end
$var wire 1 TOP_Outputs_OutVisible TOP_Outputs_OutVisible $end
$var wire 1 TOP_Outputs_OutFP TOP_Outputs_OutFP $end
$var wire 1 TOP_Outputs_OutSP TOP_Outputs_OutSP $end
$var wire 1 TOP_Outputs_OutBP TOP_Outputs_OutBP $end
$var wire 1 TOP_Outputs_OutMax TOP_Outputs_OutMax $end
$var wire 10 TOP_Outputs_OutCounter TOP_Outputs_OutCounter[9:0] $end
$upscope
$end
$scope module Internals $end
$var wire 1 TOP_Internals_internalIsMax TOP_Internals_internalIsMax $end
$var wire 32 TOP_Internals_visible TOP_Internals_visible[31:0] $end
$var wire 32 TOP_Internals_fp TOP_Internals_fp[31:0] $end
$var wire 32 TOP_Internals_sp TOP_Internals_sp[31:0] $end
$var wire 32 TOP_Internals_bp TOP_Internals_bp[31:0] $end
$var wire 32 TOP_Internals_max TOP_Internals_max[31:0] $end
$var wire 32 TOP_Internals_capacity TOP_Internals_capacity[31:0] $end
$upscope
$end
$scope module State $end
$var wire 10 TOP_State_counter TOP_State_counter[9:0] $end
$upscope
$end
$scope module NextState $end
$var wire 10 TOP_NextState_counter TOP_NextState_counter[9:0] $end
$upscope
$end
$scope module Pipelines $end
$upscope
$end
$upscope
$end
$enddefinitions
$end
#0
0TOP_Control_Clock
0TOP_Inputs_Enabled
1TOP_Outputs_OutVisible
0TOP_Outputs_OutFP
0TOP_Outputs_OutSP
0TOP_Outputs_OutBP
0TOP_Outputs_OutMax
b0000000000 TOP_Outputs_OutCounter
0TOP_Internals_internalIsMax
b00000000000000000000000111100000 TOP_Internals_visible
b00000000000000000000000111101010 TOP_Internals_fp
b00000000000000000000000111101100 TOP_Internals_sp
b00000000000000000000001000001101 TOP_Internals_bp
b00000000000000000000001000001100 TOP_Internals_max
b00000000000000000000000000001010 TOP_Internals_capacity
b0000000000 TOP_State_counter
b0000000000 TOP_NextState_counter
#1001
1TOP_Inputs_Enabled
b0000000001 TOP_NextState_counter
#2000
1TOP_Control_Clock
b0000000001 TOP_Outputs_OutCounter
b0000000001 TOP_State_counter
#2001
b0000000010 TOP_NextState_counter
#3000
0TOP_Control_Clock
#4000
1TOP_Control_Clock
b0000000010 TOP_Outputs_OutCounter
b0000000010 TOP_State_counter
#4001
b0000000011 TOP_NextState_counter
#5000
0TOP_Control_Clock
#6000
1TOP_Control_Clock
b0000000011 TOP_Outputs_OutCounter
b0000000011 TOP_State_counter
#6001
b0000000100 TOP_NextState_counter
#7000
0TOP_Control_Clock
#8000
1TOP_Control_Clock
b0000000100 TOP_Outputs_OutCounter
b0000000100 TOP_State_counter
#8001
b0000000101 TOP_NextState_counter
#9000
0TOP_Control_Clock
#10000
1TOP_Control_Clock
b0000000101 TOP_Outputs_OutCounter
b0000000101 TOP_State_counter
#10001
b0000000110 TOP_NextState_counter
#11000
0TOP_Control_Clock
#12000
1TOP_Control_Clock
b0000000110 TOP_Outputs_OutCounter
b0000000110 TOP_State_counter
#12001
b0000000111 TOP_NextState_counter
#13000
0TOP_Control_Clock
#14000
1TOP_Control_Clock
b0000000111 TOP_Outputs_OutCounter
b0000000111 TOP_State_counter
#14001
b0000001000 TOP_NextState_counter
#15000
0TOP_Control_Clock
#16000
1TOP_Control_Clock
b0000001000 TOP_Outputs_OutCounter
b0000001000 TOP_State_counter
#16001
b0000001001 TOP_NextState_counter
#17000
0TOP_Control_Clock
#18000
1TOP_Control_Clock
b0000001001 TOP_Outputs_OutCounter
b0000001001 TOP_State_counter
#18001
b0000001010 TOP_NextState_counter
#19000
0TOP_Control_Clock
#20000
1TOP_Control_Clock
b0000001010 TOP_Outputs_OutCounter
b0000001010 TOP_State_counter
#20001
b0000001011 TOP_NextState_counter
#21000
0TOP_Control_Clock
#22000
1TOP_Control_Clock
b0000001011 TOP_Outputs_OutCounter
b0000001011 TOP_State_counter
#22001
b0000001100 TOP_NextState_counter
#23000
0TOP_Control_Clock
#24000
1TOP_Control_Clock
b0000001100 TOP_Outputs_OutCounter
b0000001100 TOP_State_counter
#24001
b0000001101 TOP_NextState_counter
#25000
0TOP_Control_Clock
#26000
1TOP_Control_Clock
b0000001101 TOP_Outputs_OutCounter
b0000001101 TOP_State_counter
#26001
b0000001110 TOP_NextState_counter
#27000
0TOP_Control_Clock
#28000
1TOP_Control_Clock
b0000001110 TOP_Outputs_OutCounter
b0000001110 TOP_State_counter
#28001
b0000001111 TOP_NextState_counter
#29000
0TOP_Control_Clock
#30000
1TOP_Control_Clock
b0000001111 TOP_Outputs_OutCounter
b0000001111 TOP_State_counter
#30001
b0000010000 TOP_NextState_counter
#31000
0TOP_Control_Clock
#32000
1TOP_Control_Clock
b0000010000 TOP_Outputs_OutCounter
b0000010000 TOP_State_counter
#32001
b0000010001 TOP_NextState_counter
#33000
0TOP_Control_Clock
#34000
1TOP_Control_Clock
b0000010001 TOP_Outputs_OutCounter
b0000010001 TOP_State_counter
#34001
b0000010010 TOP_NextState_counter
#35000
0TOP_Control_Clock
#36000
1TOP_Control_Clock
b0000010010 TOP_Outputs_OutCounter
b0000010010 TOP_State_counter
#36001
b0000010011 TOP_NextState_counter
#37000
0TOP_Control_Clock
#38000
1TOP_Control_Clock
b0000010011 TOP_Outputs_OutCounter
b0000010011 TOP_State_counter
#38001
b0000010100 TOP_NextState_counter
#39000
0TOP_Control_Clock
#40000
1TOP_Control_Clock
b0000010100 TOP_Outputs_OutCounter
b0000010100 TOP_State_counter
#40001
b0000010101 TOP_NextState_counter
#41000
0TOP_Control_Clock
#42000
1TOP_Control_Clock
b0000010101 TOP_Outputs_OutCounter
b0000010101 TOP_State_counter
#42001
b0000010110 TOP_NextState_counter
#43000
0TOP_Control_Clock
#44000
1TOP_Control_Clock
b0000010110 TOP_Outputs_OutCounter
b0000010110 TOP_State_counter
#44001
b0000010111 TOP_NextState_counter
#45000
0TOP_Control_Clock
#46000
1TOP_Control_Clock
b0000010111 TOP_Outputs_OutCounter
b0000010111 TOP_State_counter
#46001
b0000011000 TOP_NextState_counter
#47000
0TOP_Control_Clock
#48000
1TOP_Control_Clock
b0000011000 TOP_Outputs_OutCounter
b0000011000 TOP_State_counter
#48001
b0000011001 TOP_NextState_counter
#49000
0TOP_Control_Clock
#50000
1TOP_Control_Clock
b0000011001 TOP_Outputs_OutCounter
b0000011001 TOP_State_counter
#50001
b0000011010 TOP_NextState_counter
#51000
0TOP_Control_Clock
#52000
1TOP_Control_Clock
b0000011010 TOP_Outputs_OutCounter
b0000011010 TOP_State_counter
#52001
b0000011011 TOP_NextState_counter
#53000
0TOP_Control_Clock
#54000
1TOP_Control_Clock
b0000011011 TOP_Outputs_OutCounter
b0000011011 TOP_State_counter
#54001
b0000011100 TOP_NextState_counter
#55000
0TOP_Control_Clock
#56000
1TOP_Control_Clock
b0000011100 TOP_Outputs_OutCounter
b0000011100 TOP_State_counter
#56001
b0000011101 TOP_NextState_counter
#57000
0TOP_Control_Clock
#58000
1TOP_Control_Clock
b0000011101 TOP_Outputs_OutCounter
b0000011101 TOP_State_counter
#58001
b0000011110 TOP_NextState_counter
#59000
0TOP_Control_Clock
#60000
1TOP_Control_Clock
b0000011110 TOP_Outputs_OutCounter
b0000011110 TOP_State_counter
#60001
b0000011111 TOP_NextState_counter
#61000
0TOP_Control_Clock
#62000
1TOP_Control_Clock
b0000011111 TOP_Outputs_OutCounter
b0000011111 TOP_State_counter
#62001
b0000100000 TOP_NextState_counter
#63000
0TOP_Control_Clock
#64000
1TOP_Control_Clock
b0000100000 TOP_Outputs_OutCounter
b0000100000 TOP_State_counter
#64001
b0000100001 TOP_NextState_counter
#65000
0TOP_Control_Clock
#66000
1TOP_Control_Clock
b0000100001 TOP_Outputs_OutCounter
b0000100001 TOP_State_counter
#66001
b0000100010 TOP_NextState_counter
#67000
0TOP_Control_Clock
#68000
1TOP_Control_Clock
b0000100010 TOP_Outputs_OutCounter
b0000100010 TOP_State_counter
#68001
b0000100011 TOP_NextState_counter
#69000
0TOP_Control_Clock
#70000
1TOP_Control_Clock
b0000100011 TOP_Outputs_OutCounter
b0000100011 TOP_State_counter
#70001
b0000100100 TOP_NextState_counter
#71000
0TOP_Control_Clock
#72000
1TOP_Control_Clock
b0000100100 TOP_Outputs_OutCounter
b0000100100 TOP_State_counter
#72001
b0000100101 TOP_NextState_counter
#73000
0TOP_Control_Clock
#74000
1TOP_Control_Clock
b0000100101 TOP_Outputs_OutCounter
b0000100101 TOP_State_counter
#74001
b0000100110 TOP_NextState_counter
#75000
0TOP_Control_Clock
#76000
1TOP_Control_Clock
b0000100110 TOP_Outputs_OutCounter
b0000100110 TOP_State_counter
#76001
b0000100111 TOP_NextState_counter
#77000
0TOP_Control_Clock
#78000
1TOP_Control_Clock
b0000100111 TOP_Outputs_OutCounter
b0000100111 TOP_State_counter
#78001
b0000101000 TOP_NextState_counter
#79000
0TOP_Control_Clock
#80000
1TOP_Control_Clock
b0000101000 TOP_Outputs_OutCounter
b0000101000 TOP_State_counter
#80001
b0000101001 TOP_NextState_counter
#81000
0TOP_Control_Clock
#82000
1TOP_Control_Clock
b0000101001 TOP_Outputs_OutCounter
b0000101001 TOP_State_counter
#82001
b0000101010 TOP_NextState_counter
#83000
0TOP_Control_Clock
#84000
1TOP_Control_Clock
b0000101010 TOP_Outputs_OutCounter
b0000101010 TOP_State_counter
#84001
b0000101011 TOP_NextState_counter
#85000
0TOP_Control_Clock
#86000
1TOP_Control_Clock
b0000101011 TOP_Outputs_OutCounter
b0000101011 TOP_State_counter
#86001
b0000101100 TOP_NextState_counter
#87000
0TOP_Control_Clock
#88000
1TOP_Control_Clock
b0000101100 TOP_Outputs_OutCounter
b0000101100 TOP_State_counter
#88001
b0000101101 TOP_NextState_counter
#89000
0TOP_Control_Clock
#90000
1TOP_Control_Clock
b0000101101 TOP_Outputs_OutCounter
b0000101101 TOP_State_counter
#90001
b0000101110 TOP_NextState_counter
#91000
0TOP_Control_Clock
#92000
1TOP_Control_Clock
b0000101110 TOP_Outputs_OutCounter
b0000101110 TOP_State_counter
#92001
b0000101111 TOP_NextState_counter
#93000
0TOP_Control_Clock
#94000
1TOP_Control_Clock
b0000101111 TOP_Outputs_OutCounter
b0000101111 TOP_State_counter
#94001
b0000110000 TOP_NextState_counter
#95000
0TOP_Control_Clock
#96000
1TOP_Control_Clock
b0000110000 TOP_Outputs_OutCounter
b0000110000 TOP_State_counter
#96001
b0000110001 TOP_NextState_counter
#97000
0TOP_Control_Clock
#98000
1TOP_Control_Clock
b0000110001 TOP_Outputs_OutCounter
b0000110001 TOP_State_counter
#98001
b0000110010 TOP_NextState_counter
#99000
0TOP_Control_Clock
#100000
1TOP_Control_Clock
b0000110010 TOP_Outputs_OutCounter
b0000110010 TOP_State_counter
#100001
b0000110011 TOP_NextState_counter
#101000
0TOP_Control_Clock
#102000
1TOP_Control_Clock
b0000110011 TOP_Outputs_OutCounter
b0000110011 TOP_State_counter
#102001
b0000110100 TOP_NextState_counter
#103000
0TOP_Control_Clock
#104000
1TOP_Control_Clock
b0000110100 TOP_Outputs_OutCounter
b0000110100 TOP_State_counter
#104001
b0000110101 TOP_NextState_counter
#105000
0TOP_Control_Clock
#106000
1TOP_Control_Clock
b0000110101 TOP_Outputs_OutCounter
b0000110101 TOP_State_counter
#106001
b0000110110 TOP_NextState_counter
#107000
0TOP_Control_Clock
#108000
1TOP_Control_Clock
b0000110110 TOP_Outputs_OutCounter
b0000110110 TOP_State_counter
#108001
b0000110111 TOP_NextState_counter
#109000
0TOP_Control_Clock
#110000
1TOP_Control_Clock
b0000110111 TOP_Outputs_OutCounter
b0000110111 TOP_State_counter
#110001
b0000111000 TOP_NextState_counter
#111000
0TOP_Control_Clock
#112000
1TOP_Control_Clock
b0000111000 TOP_Outputs_OutCounter
b0000111000 TOP_State_counter
#112001
b0000111001 TOP_NextState_counter
#113000
0TOP_Control_Clock
#114000
1TOP_Control_Clock
b0000111001 TOP_Outputs_OutCounter
b0000111001 TOP_State_counter
#114001
b0000111010 TOP_NextState_counter
#115000
0TOP_Control_Clock
#116000
1TOP_Control_Clock
b0000111010 TOP_Outputs_OutCounter
b0000111010 TOP_State_counter
#116001
b0000111011 TOP_NextState_counter
#117000
0TOP_Control_Clock
#118000
1TOP_Control_Clock
b0000111011 TOP_Outputs_OutCounter
b0000111011 TOP_State_counter
#118001
b0000111100 TOP_NextState_counter
#119000
0TOP_Control_Clock
#120000
1TOP_Control_Clock
b0000111100 TOP_Outputs_OutCounter
b0000111100 TOP_State_counter
#120001
b0000111101 TOP_NextState_counter
#121000
0TOP_Control_Clock
#122000
1TOP_Control_Clock
b0000111101 TOP_Outputs_OutCounter
b0000111101 TOP_State_counter
#122001
b0000111110 TOP_NextState_counter
#123000
0TOP_Control_Clock
#124000
1TOP_Control_Clock
b0000111110 TOP_Outputs_OutCounter
b0000111110 TOP_State_counter
#124001
b0000111111 TOP_NextState_counter
#125000
0TOP_Control_Clock
#126000
1TOP_Control_Clock
b0000111111 TOP_Outputs_OutCounter
b0000111111 TOP_State_counter
#126001
b0001000000 TOP_NextState_counter
#127000
0TOP_Control_Clock
#128000
1TOP_Control_Clock
b0001000000 TOP_Outputs_OutCounter
b0001000000 TOP_State_counter
#128001
b0001000001 TOP_NextState_counter
#129000
0TOP_Control_Clock
#130000
1TOP_Control_Clock
b0001000001 TOP_Outputs_OutCounter
b0001000001 TOP_State_counter
#130001
b0001000010 TOP_NextState_counter
#131000
0TOP_Control_Clock
#132000
1TOP_Control_Clock
b0001000010 TOP_Outputs_OutCounter
b0001000010 TOP_State_counter
#132001
b0001000011 TOP_NextState_counter
#133000
0TOP_Control_Clock
#134000
1TOP_Control_Clock
b0001000011 TOP_Outputs_OutCounter
b0001000011 TOP_State_counter
#134001
b0001000100 TOP_NextState_counter
#135000
0TOP_Control_Clock
#136000
1TOP_Control_Clock
b0001000100 TOP_Outputs_OutCounter
b0001000100 TOP_State_counter
#136001
b0001000101 TOP_NextState_counter
#137000
0TOP_Control_Clock
#138000
1TOP_Control_Clock
b0001000101 TOP_Outputs_OutCounter
b0001000101 TOP_State_counter
#138001
b0001000110 TOP_NextState_counter
#139000
0TOP_Control_Clock
#140000
1TOP_Control_Clock
b0001000110 TOP_Outputs_OutCounter
b0001000110 TOP_State_counter
#140001
b0001000111 TOP_NextState_counter
#141000
0TOP_Control_Clock
#142000
1TOP_Control_Clock
b0001000111 TOP_Outputs_OutCounter
b0001000111 TOP_State_counter
#142001
b0001001000 TOP_NextState_counter
#143000
0TOP_Control_Clock
#144000
1TOP_Control_Clock
b0001001000 TOP_Outputs_OutCounter
b0001001000 TOP_State_counter
#144001
b0001001001 TOP_NextState_counter
#145000
0TOP_Control_Clock
#146000
1TOP_Control_Clock
b0001001001 TOP_Outputs_OutCounter
b0001001001 TOP_State_counter
#146001
b0001001010 TOP_NextState_counter
#147000
0TOP_Control_Clock
#148000
1TOP_Control_Clock
b0001001010 TOP_Outputs_OutCounter
b0001001010 TOP_State_counter
#148001
b0001001011 TOP_NextState_counter
#149000
0TOP_Control_Clock
#150000
1TOP_Control_Clock
b0001001011 TOP_Outputs_OutCounter
b0001001011 TOP_State_counter
#150001
b0001001100 TOP_NextState_counter
#151000
0TOP_Control_Clock
#152000
1TOP_Control_Clock
b0001001100 TOP_Outputs_OutCounter
b0001001100 TOP_State_counter
#152001
b0001001101 TOP_NextState_counter
#153000
0TOP_Control_Clock
#154000
1TOP_Control_Clock
b0001001101 TOP_Outputs_OutCounter
b0001001101 TOP_State_counter
#154001
b0001001110 TOP_NextState_counter
#155000
0TOP_Control_Clock
#156000
1TOP_Control_Clock
b0001001110 TOP_Outputs_OutCounter
b0001001110 TOP_State_counter
#156001
b0001001111 TOP_NextState_counter
#157000
0TOP_Control_Clock
#158000
1TOP_Control_Clock
b0001001111 TOP_Outputs_OutCounter
b0001001111 TOP_State_counter
#158001
b0001010000 TOP_NextState_counter
#159000
0TOP_Control_Clock
#160000
1TOP_Control_Clock
b0001010000 TOP_Outputs_OutCounter
b0001010000 TOP_State_counter
#160001
b0001010001 TOP_NextState_counter
#161000
0TOP_Control_Clock
#162000
1TOP_Control_Clock
b0001010001 TOP_Outputs_OutCounter
b0001010001 TOP_State_counter
#162001
b0001010010 TOP_NextState_counter
#163000
0TOP_Control_Clock
#164000
1TOP_Control_Clock
b0001010010 TOP_Outputs_OutCounter
b0001010010 TOP_State_counter
#164001
b0001010011 TOP_NextState_counter
#165000
0TOP_Control_Clock
#166000
1TOP_Control_Clock
b0001010011 TOP_Outputs_OutCounter
b0001010011 TOP_State_counter
#166001
b0001010100 TOP_NextState_counter
#167000
0TOP_Control_Clock
#168000
1TOP_Control_Clock
b0001010100 TOP_Outputs_OutCounter
b0001010100 TOP_State_counter
#168001
b0001010101 TOP_NextState_counter
#169000
0TOP_Control_Clock
#170000
1TOP_Control_Clock
b0001010101 TOP_Outputs_OutCounter
b0001010101 TOP_State_counter
#170001
b0001010110 TOP_NextState_counter
#171000
0TOP_Control_Clock
#172000
1TOP_Control_Clock
b0001010110 TOP_Outputs_OutCounter
b0001010110 TOP_State_counter
#172001
b0001010111 TOP_NextState_counter
#173000
0TOP_Control_Clock
#174000
1TOP_Control_Clock
b0001010111 TOP_Outputs_OutCounter
b0001010111 TOP_State_counter
#174001
b0001011000 TOP_NextState_counter
#175000
0TOP_Control_Clock
#176000
1TOP_Control_Clock
b0001011000 TOP_Outputs_OutCounter
b0001011000 TOP_State_counter
#176001
b0001011001 TOP_NextState_counter
#177000
0TOP_Control_Clock
#178000
1TOP_Control_Clock
b0001011001 TOP_Outputs_OutCounter
b0001011001 TOP_State_counter
#178001
b0001011010 TOP_NextState_counter
#179000
0TOP_Control_Clock
#180000
1TOP_Control_Clock
b0001011010 TOP_Outputs_OutCounter
b0001011010 TOP_State_counter
#180001
b0001011011 TOP_NextState_counter
#181000
0TOP_Control_Clock
#182000
1TOP_Control_Clock
b0001011011 TOP_Outputs_OutCounter
b0001011011 TOP_State_counter
#182001
b0001011100 TOP_NextState_counter
#183000
0TOP_Control_Clock
#184000
1TOP_Control_Clock
b0001011100 TOP_Outputs_OutCounter
b0001011100 TOP_State_counter
#184001
b0001011101 TOP_NextState_counter
#185000
0TOP_Control_Clock
#186000
1TOP_Control_Clock
b0001011101 TOP_Outputs_OutCounter
b0001011101 TOP_State_counter
#186001
b0001011110 TOP_NextState_counter
#187000
0TOP_Control_Clock
#188000
1TOP_Control_Clock
b0001011110 TOP_Outputs_OutCounter
b0001011110 TOP_State_counter
#188001
b0001011111 TOP_NextState_counter
#189000
0TOP_Control_Clock
#190000
1TOP_Control_Clock
b0001011111 TOP_Outputs_OutCounter
b0001011111 TOP_State_counter
#190001
b0001100000 TOP_NextState_counter
#191000
0TOP_Control_Clock
#192000
1TOP_Control_Clock
b0001100000 TOP_Outputs_OutCounter
b0001100000 TOP_State_counter
#192001
b0001100001 TOP_NextState_counter
#193000
0TOP_Control_Clock
#194000
1TOP_Control_Clock
b0001100001 TOP_Outputs_OutCounter
b0001100001 TOP_State_counter
#194001
b0001100010 TOP_NextState_counter
#195000
0TOP_Control_Clock
#196000
1TOP_Control_Clock
b0001100010 TOP_Outputs_OutCounter
b0001100010 TOP_State_counter
#196001
b0001100011 TOP_NextState_counter
#197000
0TOP_Control_Clock
#198000
1TOP_Control_Clock
b0001100011 TOP_Outputs_OutCounter
b0001100011 TOP_State_counter
#198001
b0001100100 TOP_NextState_counter
#199000
0TOP_Control_Clock
#200000
1TOP_Control_Clock
b0001100100 TOP_Outputs_OutCounter
b0001100100 TOP_State_counter
#200001
b0001100101 TOP_NextState_counter
#201000
0TOP_Control_Clock
#202000
1TOP_Control_Clock
b0001100101 TOP_Outputs_OutCounter
b0001100101 TOP_State_counter
#202001
b0001100110 TOP_NextState_counter
#203000
0TOP_Control_Clock
#204000
1TOP_Control_Clock
b0001100110 TOP_Outputs_OutCounter
b0001100110 TOP_State_counter
#204001
b0001100111 TOP_NextState_counter
#205000
0TOP_Control_Clock
#206000
1TOP_Control_Clock
b0001100111 TOP_Outputs_OutCounter
b0001100111 TOP_State_counter
#206001
b0001101000 TOP_NextState_counter
#207000
0TOP_Control_Clock
#208000
1TOP_Control_Clock
b0001101000 TOP_Outputs_OutCounter
b0001101000 TOP_State_counter
#208001
b0001101001 TOP_NextState_counter
#209000
0TOP_Control_Clock
#210000
1TOP_Control_Clock
b0001101001 TOP_Outputs_OutCounter
b0001101001 TOP_State_counter
#210001
b0001101010 TOP_NextState_counter
#211000
0TOP_Control_Clock
#212000
1TOP_Control_Clock
b0001101010 TOP_Outputs_OutCounter
b0001101010 TOP_State_counter
#212001
b0001101011 TOP_NextState_counter
#213000
0TOP_Control_Clock
#214000
1TOP_Control_Clock
b0001101011 TOP_Outputs_OutCounter
b0001101011 TOP_State_counter
#214001
b0001101100 TOP_NextState_counter
#215000
0TOP_Control_Clock
#216000
1TOP_Control_Clock
b0001101100 TOP_Outputs_OutCounter
b0001101100 TOP_State_counter
#216001
b0001101101 TOP_NextState_counter
#217000
0TOP_Control_Clock
#218000
1TOP_Control_Clock
b0001101101 TOP_Outputs_OutCounter
b0001101101 TOP_State_counter
#218001
b0001101110 TOP_NextState_counter
#219000
0TOP_Control_Clock
#220000
1TOP_Control_Clock
b0001101110 TOP_Outputs_OutCounter
b0001101110 TOP_State_counter
#220001
b0001101111 TOP_NextState_counter
#221000
0TOP_Control_Clock
#222000
1TOP_Control_Clock
b0001101111 TOP_Outputs_OutCounter
b0001101111 TOP_State_counter
#222001
b0001110000 TOP_NextState_counter
#223000
0TOP_Control_Clock
#224000
1TOP_Control_Clock
b0001110000 TOP_Outputs_OutCounter
b0001110000 TOP_State_counter
#224001
b0001110001 TOP_NextState_counter
#225000
0TOP_Control_Clock
#226000
1TOP_Control_Clock
b0001110001 TOP_Outputs_OutCounter
b0001110001 TOP_State_counter
#226001
b0001110010 TOP_NextState_counter
#227000
0TOP_Control_Clock
#228000
1TOP_Control_Clock
b0001110010 TOP_Outputs_OutCounter
b0001110010 TOP_State_counter
#228001
b0001110011 TOP_NextState_counter
#229000
0TOP_Control_Clock
#230000
1TOP_Control_Clock
b0001110011 TOP_Outputs_OutCounter
b0001110011 TOP_State_counter
#230001
b0001110100 TOP_NextState_counter
#231000
0TOP_Control_Clock
#232000
1TOP_Control_Clock
b0001110100 TOP_Outputs_OutCounter
b0001110100 TOP_State_counter
#232001
b0001110101 TOP_NextState_counter
#233000
0TOP_Control_Clock
#234000
1TOP_Control_Clock
b0001110101 TOP_Outputs_OutCounter
b0001110101 TOP_State_counter
#234001
b0001110110 TOP_NextState_counter
#235000
0TOP_Control_Clock
#236000
1TOP_Control_Clock
b0001110110 TOP_Outputs_OutCounter
b0001110110 TOP_State_counter
#236001
b0001110111 TOP_NextState_counter
#237000
0TOP_Control_Clock
#238000
1TOP_Control_Clock
b0001110111 TOP_Outputs_OutCounter
b0001110111 TOP_State_counter
#238001
b0001111000 TOP_NextState_counter
#239000
0TOP_Control_Clock
#240000
1TOP_Control_Clock
b0001111000 TOP_Outputs_OutCounter
b0001111000 TOP_State_counter
#240001
b0001111001 TOP_NextState_counter
#241000
0TOP_Control_Clock
#242000
1TOP_Control_Clock
b0001111001 TOP_Outputs_OutCounter
b0001111001 TOP_State_counter
#242001
b0001111010 TOP_NextState_counter
#243000
0TOP_Control_Clock
#244000
1TOP_Control_Clock
b0001111010 TOP_Outputs_OutCounter
b0001111010 TOP_State_counter
#244001
b0001111011 TOP_NextState_counter
#245000
0TOP_Control_Clock
#246000
1TOP_Control_Clock
b0001111011 TOP_Outputs_OutCounter
b0001111011 TOP_State_counter
#246001
b0001111100 TOP_NextState_counter
#247000
0TOP_Control_Clock
#248000
1TOP_Control_Clock
b0001111100 TOP_Outputs_OutCounter
b0001111100 TOP_State_counter
#248001
b0001111101 TOP_NextState_counter
#249000
0TOP_Control_Clock
#250000
1TOP_Control_Clock
b0001111101 TOP_Outputs_OutCounter
b0001111101 TOP_State_counter
#250001
b0001111110 TOP_NextState_counter
#251000
0TOP_Control_Clock
#252000
1TOP_Control_Clock
b0001111110 TOP_Outputs_OutCounter
b0001111110 TOP_State_counter
#252001
b0001111111 TOP_NextState_counter
#253000
0TOP_Control_Clock
#254000
1TOP_Control_Clock
b0001111111 TOP_Outputs_OutCounter
b0001111111 TOP_State_counter
#254001
b0010000000 TOP_NextState_counter
#255000
0TOP_Control_Clock
#256000
1TOP_Control_Clock
b0010000000 TOP_Outputs_OutCounter
b0010000000 TOP_State_counter
#256001
b0010000001 TOP_NextState_counter
#257000
0TOP_Control_Clock
#258000
1TOP_Control_Clock
b0010000001 TOP_Outputs_OutCounter
b0010000001 TOP_State_counter
#258001
b0010000010 TOP_NextState_counter
#259000
0TOP_Control_Clock
#260000
1TOP_Control_Clock
b0010000010 TOP_Outputs_OutCounter
b0010000010 TOP_State_counter
#260001
b0010000011 TOP_NextState_counter
#261000
0TOP_Control_Clock
#262000
1TOP_Control_Clock
b0010000011 TOP_Outputs_OutCounter
b0010000011 TOP_State_counter
#262001
b0010000100 TOP_NextState_counter
#263000
0TOP_Control_Clock
#264000
1TOP_Control_Clock
b0010000100 TOP_Outputs_OutCounter
b0010000100 TOP_State_counter
#264001
b0010000101 TOP_NextState_counter
#265000
0TOP_Control_Clock
#266000
1TOP_Control_Clock
b0010000101 TOP_Outputs_OutCounter
b0010000101 TOP_State_counter
#266001
b0010000110 TOP_NextState_counter
#267000
0TOP_Control_Clock
#268000
1TOP_Control_Clock
b0010000110 TOP_Outputs_OutCounter
b0010000110 TOP_State_counter
#268001
b0010000111 TOP_NextState_counter
#269000
0TOP_Control_Clock
#270000
1TOP_Control_Clock
b0010000111 TOP_Outputs_OutCounter
b0010000111 TOP_State_counter
#270001
b0010001000 TOP_NextState_counter
#271000
0TOP_Control_Clock
#272000
1TOP_Control_Clock
b0010001000 TOP_Outputs_OutCounter
b0010001000 TOP_State_counter
#272001
b0010001001 TOP_NextState_counter
#273000
0TOP_Control_Clock
#274000
1TOP_Control_Clock
b0010001001 TOP_Outputs_OutCounter
b0010001001 TOP_State_counter
#274001
b0010001010 TOP_NextState_counter
#275000
0TOP_Control_Clock
#276000
1TOP_Control_Clock
b0010001010 TOP_Outputs_OutCounter
b0010001010 TOP_State_counter
#276001
b0010001011 TOP_NextState_counter
#277000
0TOP_Control_Clock
#278000
1TOP_Control_Clock
b0010001011 TOP_Outputs_OutCounter
b0010001011 TOP_State_counter
#278001
b0010001100 TOP_NextState_counter
#279000
0TOP_Control_Clock
#280000
1TOP_Control_Clock
b0010001100 TOP_Outputs_OutCounter
b0010001100 TOP_State_counter
#280001
b0010001101 TOP_NextState_counter
#281000
0TOP_Control_Clock
#282000
1TOP_Control_Clock
b0010001101 TOP_Outputs_OutCounter
b0010001101 TOP_State_counter
#282001
b0010001110 TOP_NextState_counter
#283000
0TOP_Control_Clock
#284000
1TOP_Control_Clock
b0010001110 TOP_Outputs_OutCounter
b0010001110 TOP_State_counter
#284001
b0010001111 TOP_NextState_counter
#285000
0TOP_Control_Clock
#286000
1TOP_Control_Clock
b0010001111 TOP_Outputs_OutCounter
b0010001111 TOP_State_counter
#286001
b0010010000 TOP_NextState_counter
#287000
0TOP_Control_Clock
#288000
1TOP_Control_Clock
b0010010000 TOP_Outputs_OutCounter
b0010010000 TOP_State_counter
#288001
b0010010001 TOP_NextState_counter
#289000
0TOP_Control_Clock
#290000
1TOP_Control_Clock
b0010010001 TOP_Outputs_OutCounter
b0010010001 TOP_State_counter
#290001
b0010010010 TOP_NextState_counter
#291000
0TOP_Control_Clock
#292000
1TOP_Control_Clock
b0010010010 TOP_Outputs_OutCounter
b0010010010 TOP_State_counter
#292001
b0010010011 TOP_NextState_counter
#293000
0TOP_Control_Clock
#294000
1TOP_Control_Clock
b0010010011 TOP_Outputs_OutCounter
b0010010011 TOP_State_counter
#294001
b0010010100 TOP_NextState_counter
#295000
0TOP_Control_Clock
#296000
1TOP_Control_Clock
b0010010100 TOP_Outputs_OutCounter
b0010010100 TOP_State_counter
#296001
b0010010101 TOP_NextState_counter
#297000
0TOP_Control_Clock
#298000
1TOP_Control_Clock
b0010010101 TOP_Outputs_OutCounter
b0010010101 TOP_State_counter
#298001
b0010010110 TOP_NextState_counter
#299000
0TOP_Control_Clock
#300000
1TOP_Control_Clock
b0010010110 TOP_Outputs_OutCounter
b0010010110 TOP_State_counter
#300001
b0010010111 TOP_NextState_counter
#301000
0TOP_Control_Clock
#302000
1TOP_Control_Clock
b0010010111 TOP_Outputs_OutCounter
b0010010111 TOP_State_counter
#302001
b0010011000 TOP_NextState_counter
#303000
0TOP_Control_Clock
#304000
1TOP_Control_Clock
b0010011000 TOP_Outputs_OutCounter
b0010011000 TOP_State_counter
#304001
b0010011001 TOP_NextState_counter
#305000
0TOP_Control_Clock
#306000
1TOP_Control_Clock
b0010011001 TOP_Outputs_OutCounter
b0010011001 TOP_State_counter
#306001
b0010011010 TOP_NextState_counter
#307000
0TOP_Control_Clock
#308000
1TOP_Control_Clock
b0010011010 TOP_Outputs_OutCounter
b0010011010 TOP_State_counter
#308001
b0010011011 TOP_NextState_counter
#309000
0TOP_Control_Clock
#310000
1TOP_Control_Clock
b0010011011 TOP_Outputs_OutCounter
b0010011011 TOP_State_counter
#310001
b0010011100 TOP_NextState_counter
